{"data":[{"id":5341,"common_name":"large-cupped daffodil","scientific_name":["Narcissus 'Easter Morn'"],"other_name":[],"cycle":"Perennial","watering":"Average","sunlight":["Full sun","part shade"],"default_image":{"license":451,"license_name":"CC0 1.0 Universal (CC0 1.0) Public Domain Dedication","license_url":"https:\/\/creativecommons.org\/publicdomain\/zero\/1.0\/","original_url":"https:\/\/perenual.com\/storage\/species_image\/5341_narcissus_easter_morn\/og\/daffodil_flower_easter_yellow_underside_petals_daffodils_yellow_flowers_march_miniture_daffodils_yellow_flower-1242061.jpg","regular_url":"https:\/\/perenual.com\/storage\/species_image\/5341_narcissus_easter_morn\/regular\/daffodil_flower_easter_yellow_underside_petals_daffodils_yellow_flowers_march_miniture_daffodils_yellow_flower-1242061.jpg","medium_url":"https:\/\/perenual.com\/storage\/species_image\/5341_narcissus_easter_morn\/medium\/daffodil_flower_easter_yellow_underside_petals_daffodils_yellow_flowers_march_miniture_daffodils_yellow_flower-1242061.jpg","small_url":"https:\/\/perenual.com\/storage\/species_image\/5341_narcissus_easter_morn\/small\/daffodil_flower_easter_yellow_underside_petals_daffodils_yellow_flowers_march_miniture_daffodils_yellow_flower-1242061.jpg","thumbnail":"https:\/\/perenual.com\/storage\/species_image\/5341_narcissus_easter_morn\/thumbnail\/daffodil_flower_easter_yellow_underside_petals_daffodils_yellow_flowers_march_miniture_daffodils_yellow_flower-1242061.jpg"}},{"id":5342,"common_name":"cyclamineus daffodil","scientific_name":["Narcissus 'Elizabeth Ann'"],"other_name":[],"cycle":"Perennial","watering":"Average","sunlight":["Full sun","part shade"],"default_image":{"license":4,"license_name":"Attribution License","license_url":"https:\/\/creativecommons.org\/licenses\/by\/2.0\/","original_url":"https:\/\/perenual.com\/storage\/species_image\/5420_narcissus_tangent\/og\/17950191981_4004580d2a_b.jpg","regular_url":"https:\/\/perenual.com\/storage\/species_image\/5420_narcissus_tangent\/regular\/17950191981_4004580d2a_b.jpg","medium_url":"https:\/\/perenual.com\/storage\/species_image\/5420_narcissus_tangent\/medium\/17950191981_4004580d2a_b.jpg","small_url":"https:\/\/perenual.com\/storage\/species_image\/5420_narcissus_tangent\/small\/17950191981_4004580d2a_b.jpg","thumbnail":"https:\/\/perenual.com\/storage\/species_image\/5420_narcissus_tangent\/thumbnail\/17950191981_4004580d2a_b.jpg"}},{"id":5343,"common_name":"double daffodil","scientific_name":["Narcissus 'Erlicheer'"],"other_name":[],"cycle":"Perennial","watering":"Average","sunlight":["Full sun","part shade"],"default_image":{"license":6,"license_name":"Attribution-NoDerivs License","license_url":"https:\/\/creativecommons.org\/licenses\/by-nd\/2.0\/","original_url":"https:\/\/perenual.com\/storage\/species_image\/5343_narcissus_erlicheer\/og\/39847845942_2198c1154d_b.jpg"}},{"id":5344,"common_name":"large-cupped daffodil","scientific_name":["Narcissus 'Euphonic Grace'"],"other_name":[],"cycle":"Perennial","watering":"Average","sunlight":["Full sun","part shade"],"default_image":{"license":45,"license_name":"Attribution-ShareAlike 3.0 Unported (CC BY-SA 3.0)","license_url":"https:\/\/creativecommons.org\/licenses\/by-sa\/3.0\/deed.en","original_url":"https:\/\/perenual.com\/storage\/species_image\/5344_narcissus_euphonic_grace\/og\/2560px-Narcissus_large-cupped_cv._04.jpg","regular_url":"https:\/\/perenual.com\/storage\/species_image\/5344_narcissus_euphonic_grace\/regular\/2560px-Narcissus_large-cupped_cv._04.jpg","medium_url":"https:\/\/perenual.com\/storage\/species_image\/5344_narcissus_euphonic_grace\/medium\/2560px-Narcissus_large-cupped_cv._04.jpg","small_url":"https:\/\/perenual.com\/storage\/species_image\/5344_narcissus_euphonic_grace\/small\/2560px-Narcissus_large-cupped_cv._04.jpg","thumbnail":"https:\/\/perenual.com\/storage\/species_image\/5344_narcissus_euphonic_grace\/thumbnail\/2560px-Narcissus_large-cupped_cv._04.jpg"}},{"id":5345,"common_name":"cyclamineus daffodil","scientific_name":["Narcissus 'February Gold'"],"other_name":[],"cycle":"Perennial","watering":"Average","sunlight":["Full sun","part shade"],"default_image":{"license":4,"license_name":"Attribution License","license_url":"https:\/\/creativecommons.org\/licenses\/by\/2.0\/","original_url":"https:\/\/perenual.com\/storage\/species_image\/5345_narcissus_february_gold\/og\/5506200464_249b325071_b.jpg","regular_url":"https:\/\/perenual.com\/storage\/species_image\/5345_narcissus_february_gold\/regular\/5506200464_249b325071_b.jpg","medium_url":"https:\/\/perenual.com\/storage\/species_image\/5345_narcissus_february_gold\/medium\/5506200464_249b325071_b.jpg","small_url":"https:\/\/perenual.com\/storage\/species_image\/5345_narcissus_february_gold\/small\/5506200464_249b325071_b.jpg","thumbnail":"https:\/\/perenual.com\/storage\/species_image\/5345_narcissus_february_gold\/thumbnail\/5506200464_249b325071_b.jpg"}},{"id":5346,"common_name":"split-corona daffodil","scientific_name":["Narcissus 'Flyer'"],"other_name":[],"cycle":"Perennial","watering":"Average","sunlight":["Full sun","part shade"],"default_image":{"license":5,"license_name":"Attribution-ShareAlike License","license_url":"https:\/\/creativecommons.org\/licenses\/by-sa\/2.0\/","original_url":"https:\/\/perenual.com\/storage\/species_image\/2_abies_alba_pyramidalis\/og\/49255769768_df55596553_b.jpg","regular_url":"https:\/\/perenual.com\/storage\/species_image\/2_abies_alba_pyramidalis\/regular\/49255769768_df55596553_b.jpg","medium_url":"https:\/\/perenual.com\/storage\/species_image\/2_abies_alba_pyramidalis\/medium\/49255769768_df55596553_b.jpg","small_url":"https:\/\/perenual.com\/storage\/species_image\/2_abies_alba_pyramidalis\/small\/49255769768_df55596553_b.jpg","thumbnail":"https:\/\/perenual.com\/storage\/species_image\/2_abies_alba_pyramidalis\/thumbnail\/49255769768_df55596553_b.jpg"}},{"id":5347,"common_name":"large-cupped daffodil","scientific_name":["Narcissus 'Fortissimo'"],"other_name":[],"cycle":"Perennial","watering":"Average","sunlight":["Full sun","part shade"],"default_image":{"license":5,"license_name":"Attribution-ShareAlike License","license_url":"https:\/\/creativecommons.org\/licenses\/by-sa\/2.0\/","original_url":"https:\/\/perenual.com\/storage\/species_image\/2_abies_alba_pyramidalis\/og\/49255769768_df55596553_b.jpg","regular_url":"https:\/\/perenual.com\/storage\/species_image\/2_abies_alba_pyramidalis\/regular\/49255769768_df55596553_b.jpg","medium_url":"https:\/\/perenual.com\/storage\/species_image\/2_abies_alba_pyramidalis\/medium\/49255769768_df55596553_b.jpg","small_url":"https:\/\/perenual.com\/storage\/species_image\/2_abies_alba_pyramidalis\/small\/49255769768_df55596553_b.jpg","thumbnail":"https:\/\/perenual.com\/storage\/species_image\/2_abies_alba_pyramidalis\/thumbnail\/49255769768_df55596553_b.jpg"}},{"id":5348,"common_name":"jonquilla daffodil","scientific_name":["Narcissus 'Fruit Cup'"],"other_name":[],"cycle":"Perennial","watering":"Average","sunlight":["Full sun","part shade"],"default_image":{"license":4,"license_name":"Attribution License","license_url":"https:\/\/creativecommons.org\/licenses\/by\/2.0\/","original_url":"https:\/\/perenual.com\/storage\/species_image\/5348_narcissus_fruit_cup\/og\/49862718191_736619a40a_b.jpg","regular_url":"https:\/\/perenual.com\/storage\/species_image\/5348_narcissus_fruit_cup\/regular\/49862718191_736619a40a_b.jpg","medium_url":"https:\/\/perenual.com\/storage\/species_image\/5348_narcissus_fruit_cup\/medium\/49862718191_736619a40a_b.jpg","small_url":"https:\/\/perenual.com\/storage\/species_image\/5348_narcissus_fruit_cup\/small\/49862718191_736619a40a_b.jpg","thumbnail":"https:\/\/perenual.com\/storage\/species_image\/5348_narcissus_fruit_cup\/thumbnail\/49862718191_736619a40a_b.jpg"}},{"id":5349,"common_name":"double daffodil","scientific_name":["Narcissus 'Gay Song'"],"other_name":[],"cycle":"Perennial","watering":"Average","sunlight":["Full sun","part shade"],"default_image":{"license":45,"license_name":"Attribution-ShareAlike 3.0 Unported (CC BY-SA 3.0)","license_url":"https:\/\/creativecommons.org\/licenses\/by-sa\/3.0\/deed.en","original_url":"https:\/\/perenual.com\/storage\/species_image\/5349_narcissus_gay_song\/og\/Double_daffodil_28568970245029.jpg","regular_url":"https:\/\/perenual.com\/storage\/species_image\/5349_narcissus_gay_song\/regular\/Double_daffodil_28568970245029.jpg","medium_url":"https:\/\/perenual.com\/storage\/species_image\/5349_narcissus_gay_song\/medium\/Double_daffodil_28568970245029.jpg","small_url":"https:\/\/perenual.com\/storage\/species_image\/5349_narcissus_gay_song\/small\/Double_daffodil_28568970245029.jpg","thumbnail":"https:\/\/perenual.com\/storage\/species_image\/5349_narcissus_gay_song\/thumbnail\/Double_daffodil_28568970245029.jpg"}},{"id":5350,"common_name":"trumpet daffodil","scientific_name":["Narcissus 'General Patton'"],"other_name":[],"cycle":"Perennial","watering":"Average","sunlight":["Full sun","part shade"],"default_image":{"license":45,"license_name":"Attribution-ShareAlike 3.0 Unported (CC BY-SA 3.0)","license_url":"https:\/\/creativecommons.org\/licenses\/by-sa\/3.0\/deed.en","original_url":"https:\/\/perenual.com\/storage\/species_image\/5350_narcissus_general_patton\/og\/2560px-Narcissus_trumpet_cv._03.jpg","regular_url":"https:\/\/perenual.com\/storage\/species_image\/5350_narcissus_general_patton\/regular\/2560px-Narcissus_trumpet_cv._03.jpg","medium_url":"https:\/\/perenual.com\/storage\/species_image\/5350_narcissus_general_patton\/medium\/2560px-Narcissus_trumpet_cv._03.jpg","small_url":"https:\/\/perenual.com\/storage\/species_image\/5350_narcissus_general_patton\/small\/2560px-Narcissus_trumpet_cv._03.jpg","thumbnail":"https:\/\/perenual.com\/storage\/species_image\/5350_narcissus_general_patton\/thumbnail\/2560px-Narcissus_trumpet_cv._03.jpg"}},{"id":5351,"common_name":"tazetta daffodil","scientific_name":["Narcissus 'Geranium'"],"other_name":[],"cycle":"Perennial","watering":"Frequent","sunlight":["full sun","part shade"],"default_image":{"license":5,"license_name":"Attribution-ShareAlike License","license_url":"https:\/\/creativecommons.org\/licenses\/by-sa\/2.0\/","original_url":"https:\/\/perenual.com\/storage\/species_image\/2_abies_alba_pyramidalis\/og\/49255769768_df55596553_b.jpg","regular_url":"https:\/\/perenual.com\/storage\/species_image\/2_abies_alba_pyramidalis\/regular\/49255769768_df55596553_b.jpg","medium_url":"https:\/\/perenual.com\/storage\/species_image\/2_abies_alba_pyramidalis\/medium\/49255769768_df55596553_b.jpg","small_url":"https:\/\/perenual.com\/storage\/species_image\/2_abies_alba_pyramidalis\/small\/49255769768_df55596553_b.jpg","thumbnail":"https:\/\/perenual.com\/storage\/species_image\/2_abies_alba_pyramidalis\/thumbnail\/49255769768_df55596553_b.jpg"}},{"id":5352,"common_name":"trumpet daffodil","scientific_name":["Narcissus 'Gin and Lime'"],"other_name":[],"cycle":"Perennial","watering":"Average","sunlight":["Full sun","part shade"],"default_image":{"license":5,"license_name":"Attribution-ShareAlike License","license_url":"https:\/\/creativecommons.org\/licenses\/by-sa\/2.0\/","original_url":"https:\/\/perenual.com\/storage\/species_image\/5352_narcissus_gin_and_lime\/og\/16845054568_783ff22a0a_b.jpg","regular_url":"https:\/\/perenual.com\/storage\/species_image\/5352_narcissus_gin_and_lime\/regular\/16845054568_783ff22a0a_b.jpg","medium_url":"https:\/\/perenual.com\/storage\/species_image\/5352_narcissus_gin_and_lime\/medium\/16845054568_783ff22a0a_b.jpg","small_url":"https:\/\/perenual.com\/storage\/species_image\/5352_narcissus_gin_and_lime\/small\/16845054568_783ff22a0a_b.jpg","thumbnail":"https:\/\/perenual.com\/storage\/species_image\/5352_narcissus_gin_and_lime\/thumbnail\/16845054568_783ff22a0a_b.jpg"}},{"id":5353,"common_name":"tazetta daffodil","scientific_name":["Narcissus 'Golden Dawn'"],"other_name":[],"cycle":"Perennial","watering":"Average","sunlight":["Full sun","part shade"],"default_image":{"license":5,"license_name":"Attribution-ShareAlike License","license_url":"https:\/\/creativecommons.org\/licenses\/by-sa\/2.0\/","original_url":"https:\/\/perenual.com\/storage\/species_image\/2_abies_alba_pyramidalis\/og\/49255769768_df55596553_b.jpg","regular_url":"https:\/\/perenual.com\/storage\/species_image\/2_abies_alba_pyramidalis\/regular\/49255769768_df55596553_b.jpg","medium_url":"https:\/\/perenual.com\/storage\/species_image\/2_abies_alba_pyramidalis\/medium\/49255769768_df55596553_b.jpg","small_url":"https:\/\/perenual.com\/storage\/species_image\/2_abies_alba_pyramidalis\/small\/49255769768_df55596553_b.jpg","thumbnail":"https:\/\/perenual.com\/storage\/species_image\/2_abies_alba_pyramidalis\/thumbnail\/49255769768_df55596553_b.jpg"}},{"id":5354,"common_name":"miscellaneous daffodil","scientific_name":["Narcissus 'Golden Quince'"],"other_name":[],"cycle":"Perennial","watering":"Average","sunlight":["Full sun","part shade"],"default_image":{"license":4,"license_name":"Attribution License","license_url":"https:\/\/creativecommons.org\/licenses\/by\/2.0\/","original_url":"https:\/\/perenual.com\/storage\/species_image\/5354_narcissus_golden_quince\/og\/17763247459_b0a5b458be_b.jpg","regular_url":"https:\/\/perenual.com\/storage\/species_image\/5354_narcissus_golden_quince\/regular\/17763247459_b0a5b458be_b.jpg","medium_url":"https:\/\/perenual.com\/storage\/species_image\/5354_narcissus_golden_quince\/medium\/17763247459_b0a5b458be_b.jpg","small_url":"https:\/\/perenual.com\/storage\/species_image\/5354_narcissus_golden_quince\/small\/17763247459_b0a5b458be_b.jpg","thumbnail":"https:\/\/perenual.com\/storage\/species_image\/5354_narcissus_golden_quince\/thumbnail\/17763247459_b0a5b458be_b.jpg"}},{"id":5355,"common_name":"small-cupped daffodil","scientific_name":["Narcissus 'Green Pearl'"],"other_name":[],"cycle":"Perennial","watering":"Average","sunlight":["Full sun","part shade"],"default_image":{"license":5,"license_name":"Attribution-ShareAlike License","license_url":"https:\/\/creativecommons.org\/licenses\/by-sa\/2.0\/","original_url":"https:\/\/perenual.com\/storage\/species_image\/2_abies_alba_pyramidalis\/og\/49255769768_df55596553_b.jpg","regular_url":"https:\/\/perenual.com\/storage\/species_image\/2_abies_alba_pyramidalis\/regular\/49255769768_df55596553_b.jpg","medium_url":"https:\/\/perenual.com\/storage\/species_image\/2_abies_alba_pyramidalis\/medium\/49255769768_df55596553_b.jpg","small_url":"https:\/\/perenual.com\/storage\/species_image\/2_abies_alba_pyramidalis\/small\/49255769768_df55596553_b.jpg","thumbnail":"https:\/\/perenual.com\/storage\/species_image\/2_abies_alba_pyramidalis\/thumbnail\/49255769768_df55596553_b.jpg"}},{"id":5356,"common_name":"daffodil","scientific_name":["Narcissus (group)"],"other_name":[],"cycle":"Perennial","watering":"Average","sunlight":["Full sun","part shade"],"default_image":{"license":4,"license_name":"Attribution License","license_url":"https:\/\/creativecommons.org\/licenses\/by\/2.0\/","original_url":"https:\/\/perenual.com\/storage\/species_image\/5356_narcissus_group\/og\/17156135737_e1c72a7cb2_b.jpg","regular_url":"https:\/\/perenual.com\/storage\/species_image\/5356_narcissus_group\/regular\/17156135737_e1c72a7cb2_b.jpg","medium_url":"https:\/\/perenual.com\/storage\/species_image\/5356_narcissus_group\/medium\/17156135737_e1c72a7cb2_b.jpg","small_url":"https:\/\/perenual.com\/storage\/species_image\/5356_narcissus_group\/small\/17156135737_e1c72a7cb2_b.jpg","thumbnail":"https:\/\/perenual.com\/storage\/species_image\/5356_narcissus_group\/thumbnail\/17156135737_e1c72a7cb2_b.jpg"}},{"id":5357,"common_name":"triandrus daffodil","scientific_name":["Narcissus 'Hawera'"],"other_name":[],"cycle":"Perennial","watering":"Average","sunlight":["Full sun","part shade"],"default_image":{"license":4,"license_name":"Attribution License","license_url":"https:\/\/creativecommons.org\/licenses\/by\/2.0\/","original_url":"https:\/\/perenual.com\/storage\/species_image\/5357_narcissus_hawera\/og\/3462585207_5b55ec3dde_b.jpg","regular_url":"https:\/\/perenual.com\/storage\/species_image\/5357_narcissus_hawera\/regular\/3462585207_5b55ec3dde_b.jpg","medium_url":"https:\/\/perenual.com\/storage\/species_image\/5357_narcissus_hawera\/medium\/3462585207_5b55ec3dde_b.jpg","small_url":"https:\/\/perenual.com\/storage\/species_image\/5357_narcissus_hawera\/small\/3462585207_5b55ec3dde_b.jpg","thumbnail":"https:\/\/perenual.com\/storage\/species_image\/5357_narcissus_hawera\/thumbnail\/3462585207_5b55ec3dde_b.jpg"}},{"id":5358,"common_name":"large-cupped daffodil","scientific_name":["Narcissus 'Ice Follies'"],"other_name":[],"cycle":"Perennial","watering":"Average","sunlight":["Full sun","part shade"],"default_image":{"license":5,"license_name":"Attribution-ShareAlike License","license_url":"https:\/\/creativecommons.org\/licenses\/by-sa\/2.0\/","original_url":"https:\/\/perenual.com\/storage\/species_image\/2_abies_alba_pyramidalis\/og\/49255769768_df55596553_b.jpg","regular_url":"https:\/\/perenual.com\/storage\/species_image\/2_abies_alba_pyramidalis\/regular\/49255769768_df55596553_b.jpg","medium_url":"https:\/\/perenual.com\/storage\/species_image\/2_abies_alba_pyramidalis\/medium\/49255769768_df55596553_b.jpg","small_url":"https:\/\/perenual.com\/storage\/species_image\/2_abies_alba_pyramidalis\/small\/49255769768_df55596553_b.jpg","thumbnail":"https:\/\/perenual.com\/storage\/species_image\/2_abies_alba_pyramidalis\/thumbnail\/49255769768_df55596553_b.jpg"}},{"id":5359,"common_name":"triandrus daffodil","scientific_name":["Narcissus 'Ice Wings'"],"other_name":[],"cycle":"Perennial","watering":"Average","sunlight":["Full sun","part shade"],"default_image":{"license":45,"license_name":"Attribution-ShareAlike 3.0 Unported (CC BY-SA 3.0)","license_url":"https:\/\/creativecommons.org\/licenses\/by-sa\/3.0\/deed.en","original_url":"https:\/\/perenual.com\/storage\/species_image\/5359_narcissus_ice_wings\/og\/Narcissus_27Ice_Wings27.jpg","regular_url":"https:\/\/perenual.com\/storage\/species_image\/5359_narcissus_ice_wings\/regular\/Narcissus_27Ice_Wings27.jpg","medium_url":"https:\/\/perenual.com\/storage\/species_image\/5359_narcissus_ice_wings\/medium\/Narcissus_27Ice_Wings27.jpg","small_url":"https:\/\/perenual.com\/storage\/species_image\/5359_narcissus_ice_wings\/small\/Narcissus_27Ice_Wings27.jpg","thumbnail":"https:\/\/perenual.com\/storage\/species_image\/5359_narcissus_ice_wings\/thumbnail\/Narcissus_27Ice_Wings27.jpg"}},{"id":5360,"common_name":"large-cupped daffodil","scientific_name":["Narcissus 'Icelandic Pink'"],"other_name":[],"cycle":"Perennial","watering":"Average","sunlight":["Full sun","part shade"],"default_image":{"license":45,"license_name":"Attribution-ShareAlike 3.0 Unported (CC BY-SA 3.0)","license_url":"https:\/\/creativecommons.org\/licenses\/by-sa\/3.0\/deed.en","original_url":"https:\/\/perenual.com\/storage\/species_image\/5416_narcissus_stylish\/og\/1536px-Pink_Charm_1.jpg","regular_url":"https:\/\/perenual.com\/storage\/species_image\/5416_narcissus_stylish\/regular\/1536px-Pink_Charm_1.jpg","medium_url":"https:\/\/perenual.com\/storage\/species_image\/5416_narcissus_stylish\/medium\/1536px-Pink_Charm_1.jpg","small_url":"https:\/\/perenual.com\/storage\/species_image\/5416_narcissus_stylish\/small\/1536px-Pink_Charm_1.jpg","thumbnail":"https:\/\/perenual.com\/storage\/species_image\/5416_narcissus_stylish\/thumbnail\/1536px-Pink_Charm_1.jpg"}},{"id":5361,"common_name":"jonquilla daffodil","scientific_name":["Narcissus 'Intrigue'"],"other_name":[],"cycle":"Perennial","watering":"Average","sunlight":["Full sun","part shade"],"default_image":{"license":5,"license_name":"Attribution-ShareAlike License","license_url":"https:\/\/creativecommons.org\/licenses\/by-sa\/2.0\/","original_url":"https:\/\/perenual.com\/storage\/species_image\/2_abies_alba_pyramidalis\/og\/49255769768_df55596553_b.jpg","regular_url":"https:\/\/perenual.com\/storage\/species_image\/2_abies_alba_pyramidalis\/regular\/49255769768_df55596553_b.jpg","medium_url":"https:\/\/perenual.com\/storage\/species_image\/2_abies_alba_pyramidalis\/medium\/49255769768_df55596553_b.jpg","small_url":"https:\/\/perenual.com\/storage\/species_image\/2_abies_alba_pyramidalis\/small\/49255769768_df55596553_b.jpg","thumbnail":"https:\/\/perenual.com\/storage\/species_image\/2_abies_alba_pyramidalis\/thumbnail\/49255769768_df55596553_b.jpg"}},{"id":5362,"common_name":"cyclamineus daffodil","scientific_name":["Narcissus 'Itzim'"],"other_name":[],"cycle":"Perennial","watering":"Average","sunlight":["Full sun","part shade"],"default_image":{"license":45,"license_name":"Attribution-ShareAlike 3.0 Unported (CC BY-SA 3.0)","license_url":"https:\/\/creativecommons.org\/licenses\/by-sa\/3.0\/deed.en","original_url":"https:\/\/perenual.com\/storage\/species_image\/5362_narcissus_itzim\/og\/1536px-Itzim_1.jpg","regular_url":"https:\/\/perenual.com\/storage\/species_image\/5362_narcissus_itzim\/regular\/1536px-Itzim_1.jpg","medium_url":"https:\/\/perenual.com\/storage\/species_image\/5362_narcissus_itzim\/medium\/1536px-Itzim_1.jpg","small_url":"https:\/\/perenual.com\/storage\/species_image\/5362_narcissus_itzim\/small\/1536px-Itzim_1.jpg","thumbnail":"https:\/\/perenual.com\/storage\/species_image\/5362_narcissus_itzim\/thumbnail\/1536px-Itzim_1.jpg"}},{"id":5363,"common_name":"cyclamineus daffodil","scientific_name":["Narcissus 'Jack Snipe'"],"other_name":[],"cycle":"Perennial","watering":"Average","sunlight":["Full sun","part shade"],"default_image":{"license":5,"license_name":"Attribution-ShareAlike License","license_url":"https:\/\/creativecommons.org\/licenses\/by-sa\/2.0\/","original_url":"https:\/\/perenual.com\/storage\/species_image\/2_abies_alba_pyramidalis\/og\/49255769768_df55596553_b.jpg","regular_url":"https:\/\/perenual.com\/storage\/species_image\/2_abies_alba_pyramidalis\/regular\/49255769768_df55596553_b.jpg","medium_url":"https:\/\/perenual.com\/storage\/species_image\/2_abies_alba_pyramidalis\/medium\/49255769768_df55596553_b.jpg","small_url":"https:\/\/perenual.com\/storage\/species_image\/2_abies_alba_pyramidalis\/small\/49255769768_df55596553_b.jpg","thumbnail":"https:\/\/perenual.com\/storage\/species_image\/2_abies_alba_pyramidalis\/thumbnail\/49255769768_df55596553_b.jpg"}},{"id":5364,"common_name":"cyclamineus daffodil","scientific_name":["Narcissus 'Jenny'"],"other_name":[],"cycle":"Perennial","watering":"Average","sunlight":["Full sun","part shade"],"default_image":{"license":5,"license_name":"Attribution-ShareAlike License","license_url":"https:\/\/creativecommons.org\/licenses\/by-sa\/2.0\/","original_url":"https:\/\/perenual.com\/storage\/species_image\/2_abies_alba_pyramidalis\/og\/49255769768_df55596553_b.jpg","regular_url":"https:\/\/perenual.com\/storage\/species_image\/2_abies_alba_pyramidalis\/regular\/49255769768_df55596553_b.jpg","medium_url":"https:\/\/perenual.com\/storage\/species_image\/2_abies_alba_pyramidalis\/medium\/49255769768_df55596553_b.jpg","small_url":"https:\/\/perenual.com\/storage\/species_image\/2_abies_alba_pyramidalis\/small\/49255769768_df55596553_b.jpg","thumbnail":"https:\/\/perenual.com\/storage\/species_image\/2_abies_alba_pyramidalis\/thumbnail\/49255769768_df55596553_b.jpg"}},{"id":5365,"common_name":"cyclamineus daffodil","scientific_name":["Narcissus 'Jetfire'"],"other_name":[],"cycle":"Perennial","watering":"Average","sunlight":["Full sun","part shade"],"default_image":{"license":6,"license_name":"Attribution-NoDerivs License","license_url":"https:\/\/creativecommons.org\/licenses\/by-nd\/2.0\/","original_url":"https:\/\/perenual.com\/storage\/species_image\/5365_narcissus_jetfire\/og\/49596463071_1d74c1afcd_b.jpg"}},{"id":5366,"common_name":"species daffodil","scientific_name":["Narcissus jonquilla"],"other_name":[],"cycle":"Perennial","watering":"Average","sunlight":["Full sun","part shade"],"default_image":{"license":5,"license_name":"Attribution-ShareAlike License","license_url":"https:\/\/creativecommons.org\/licenses\/by-sa\/2.0\/","original_url":"https:\/\/perenual.com\/storage\/species_image\/5366_narcissus_jonquilla\/og\/51858797093_fcc494b29c_b.jpg","regular_url":"https:\/\/perenual.com\/storage\/species_image\/5366_narcissus_jonquilla\/regular\/51858797093_fcc494b29c_b.jpg","medium_url":"https:\/\/perenual.com\/storage\/species_image\/5366_narcissus_jonquilla\/medium\/51858797093_fcc494b29c_b.jpg","small_url":"https:\/\/perenual.com\/storage\/species_image\/5366_narcissus_jonquilla\/small\/51858797093_fcc494b29c_b.jpg","thumbnail":"https:\/\/perenual.com\/storage\/species_image\/5366_narcissus_jonquilla\/thumbnail\/51858797093_fcc494b29c_b.jpg"}},{"id":5367,"common_name":"large-cupped daffodil","scientific_name":["Narcissus 'Juanita'"],"other_name":[],"cycle":"Perennial","watering":"Average","sunlight":["Full sun","part shade"],"default_image":{"license":9,"license_name":"Public Domain Dedication (CC0)","license_url":"https:\/\/creativecommons.org\/publicdomain\/zero\/1.0\/","original_url":"https:\/\/perenual.com\/storage\/species_image\/5367_narcissus_juanita\/og\/34423824293_7e3f0bf9a4_b.jpg","regular_url":"https:\/\/perenual.com\/storage\/species_image\/5367_narcissus_juanita\/regular\/34423824293_7e3f0bf9a4_b.jpg","medium_url":"https:\/\/perenual.com\/storage\/species_image\/5367_narcissus_juanita\/medium\/34423824293_7e3f0bf9a4_b.jpg","small_url":"https:\/\/perenual.com\/storage\/species_image\/5367_narcissus_juanita\/small\/34423824293_7e3f0bf9a4_b.jpg","thumbnail":"https:\/\/perenual.com\/storage\/species_image\/5367_narcissus_juanita\/thumbnail\/34423824293_7e3f0bf9a4_b.jpg"}},{"id":5368,"common_name":"triandrus daffodil","scientific_name":["Narcissus 'Katie Heath'"],"other_name":[],"cycle":"Perennial","watering":"Average","sunlight":["Full sun","part shade"],"default_image":{"license":5,"license_name":"Attribution-ShareAlike License","license_url":"https:\/\/creativecommons.org\/licenses\/by-sa\/2.0\/","original_url":"https:\/\/perenual.com\/storage\/species_image\/5368_narcissus_katie_heath\/og\/9252395885_d38b426c19_b.jpg","regular_url":"https:\/\/perenual.com\/storage\/species_image\/5368_narcissus_katie_heath\/regular\/9252395885_d38b426c19_b.jpg","medium_url":"https:\/\/perenual.com\/storage\/species_image\/5368_narcissus_katie_heath\/medium\/9252395885_d38b426c19_b.jpg","small_url":"https:\/\/perenual.com\/storage\/species_image\/5368_narcissus_katie_heath\/small\/9252395885_d38b426c19_b.jpg","thumbnail":"https:\/\/perenual.com\/storage\/species_image\/5368_narcissus_katie_heath\/thumbnail\/9252395885_d38b426c19_b.jpg"}},{"id":5369,"common_name":"cyclamineus daffodil","scientific_name":["Narcissus 'Kaydee'"],"other_name":[],"cycle":"Perennial","watering":"Average","sunlight":["Full sun","part shade"],"default_image":{"license":4,"license_name":"Attribution License","license_url":"https:\/\/creativecommons.org\/licenses\/by\/2.0\/","original_url":"https:\/\/perenual.com\/storage\/species_image\/5369_narcissus_kaydee\/og\/21988692000_2bf666d2ec_b.jpg","regular_url":"https:\/\/perenual.com\/storage\/species_image\/5369_narcissus_kaydee\/regular\/21988692000_2bf666d2ec_b.jpg","medium_url":"https:\/\/perenual.com\/storage\/species_image\/5369_narcissus_kaydee\/medium\/21988692000_2bf666d2ec_b.jpg","small_url":"https:\/\/perenual.com\/storage\/species_image\/5369_narcissus_kaydee\/small\/21988692000_2bf666d2ec_b.jpg","thumbnail":"https:\/\/perenual.com\/storage\/species_image\/5369_narcissus_kaydee\/thumbnail\/21988692000_2bf666d2ec_b.jpg"}},{"id":5370,"common_name":"trumpet daffodil","scientific_name":["Narcissus 'King Alfred'"],"other_name":[],"cycle":"Perennial","watering":"Average","sunlight":["Full sun","part shade"],"default_image":{"license":5,"license_name":"Attribution-ShareAlike License","license_url":"https:\/\/creativecommons.org\/licenses\/by-sa\/2.0\/","original_url":"https:\/\/perenual.com\/storage\/species_image\/5370_narcissus_king_alfred\/og\/21862993690_700ce1b282_b.jpg","regular_url":"https:\/\/perenual.com\/storage\/species_image\/5370_narcissus_king_alfred\/regular\/21862993690_700ce1b282_b.jpg","medium_url":"https:\/\/perenual.com\/storage\/species_image\/5370_narcissus_king_alfred\/medium\/21862993690_700ce1b282_b.jpg","small_url":"https:\/\/perenual.com\/storage\/species_image\/5370_narcissus_king_alfred\/small\/21862993690_700ce1b282_b.jpg","thumbnail":"https:\/\/perenual.com\/storage\/species_image\/5370_narcissus_king_alfred\/thumbnail\/21862993690_700ce1b282_b.jpg"}}],"to":5370,"per_page":30,"current_page":179,"from":5341,"last_page":200,"total":6000}