{"data":[{"id":5461,"common_name":"nepeta","scientific_name":["Nepeta subsessilis"],"other_name":[],"cycle":"Herbaceous Perennial","watering":"Average","sunlight":["Full sun","part shade"],"default_image":{"license":5,"license_name":"Attribution-ShareAlike License","license_url":"https:\/\/creativecommons.org\/licenses\/by-sa\/2.0\/","original_url":"https:\/\/perenual.com\/storage\/species_image\/2_abies_alba_pyramidalis\/og\/49255769768_df55596553_b.jpg","regular_url":"https:\/\/perenual.com\/storage\/species_image\/2_abies_alba_pyramidalis\/regular\/49255769768_df55596553_b.jpg","medium_url":"https:\/\/perenual.com\/storage\/species_image\/2_abies_alba_pyramidalis\/medium\/49255769768_df55596553_b.jpg","small_url":"https:\/\/perenual.com\/storage\/species_image\/2_abies_alba_pyramidalis\/small\/49255769768_df55596553_b.jpg","thumbnail":"https:\/\/perenual.com\/storage\/species_image\/2_abies_alba_pyramidalis\/thumbnail\/49255769768_df55596553_b.jpg"}},{"id":5462,"common_name":"nepeta","scientific_name":["Nepeta subsessilis 'Candy Cat'"],"other_name":[],"cycle":"Herbaceous Perennial","watering":"Average","sunlight":["Full sun","part shade"],"default_image":{"license":45,"license_name":"Attribution-ShareAlike 3.0 Unported (CC BY-SA 3.0)","license_url":"https:\/\/creativecommons.org\/licenses\/by-sa\/3.0\/deed.en","original_url":"https:\/\/perenual.com\/storage\/species_image\/5462_nepeta_subsessilis_candy_cat\/og\/Nepeta_subsessilis_2.jpg","regular_url":"https:\/\/perenual.com\/storage\/species_image\/5462_nepeta_subsessilis_candy_cat\/regular\/Nepeta_subsessilis_2.jpg","medium_url":"https:\/\/perenual.com\/storage\/species_image\/5462_nepeta_subsessilis_candy_cat\/medium\/Nepeta_subsessilis_2.jpg","small_url":"https:\/\/perenual.com\/storage\/species_image\/5462_nepeta_subsessilis_candy_cat\/small\/Nepeta_subsessilis_2.jpg","thumbnail":"https:\/\/perenual.com\/storage\/species_image\/5462_nepeta_subsessilis_candy_cat\/thumbnail\/Nepeta_subsessilis_2.jpg"}},{"id":5463,"common_name":"nepeta","scientific_name":["Nepeta subsessilis var. sensibilis"],"other_name":[],"cycle":"Herbaceous Perennial","watering":"Average","sunlight":["Full sun","part shade"],"default_image":{"license":45,"license_name":"Attribution-ShareAlike 3.0 Unported (CC BY-SA 3.0)","license_url":"https:\/\/creativecommons.org\/licenses\/by-sa\/3.0\/deed.en","original_url":"https:\/\/perenual.com\/storage\/species_image\/5463_nepeta_subsessilis_var_sensibilis\/og\/2560px-Nepeta_subsessilis_28flower29.jpg","regular_url":"https:\/\/perenual.com\/storage\/species_image\/5463_nepeta_subsessilis_var_sensibilis\/regular\/2560px-Nepeta_subsessilis_28flower29.jpg","medium_url":"https:\/\/perenual.com\/storage\/species_image\/5463_nepeta_subsessilis_var_sensibilis\/medium\/2560px-Nepeta_subsessilis_28flower29.jpg","small_url":"https:\/\/perenual.com\/storage\/species_image\/5463_nepeta_subsessilis_var_sensibilis\/small\/2560px-Nepeta_subsessilis_28flower29.jpg","thumbnail":"https:\/\/perenual.com\/storage\/species_image\/5463_nepeta_subsessilis_var_sensibilis\/thumbnail\/2560px-Nepeta_subsessilis_28flower29.jpg"}},{"id":5464,"common_name":"nepeta","scientific_name":["Nepeta subsessilis 'Washfield'"],"other_name":[],"cycle":"Herbaceous Perennial","watering":"Average","sunlight":["Full sun","part shade"],"default_image":{"license":45,"license_name":"Attribution-ShareAlike 3.0 Unported (CC BY-SA 3.0)","license_url":"https:\/\/creativecommons.org\/licenses\/by-sa\/3.0\/deed.en","original_url":"https:\/\/perenual.com\/storage\/species_image\/5464_nepeta_subsessilis_washfield\/og\/1365px-Nepeta_subsessilis_28Mount_Shirouma29.jpg","regular_url":"https:\/\/perenual.com\/storage\/species_image\/5464_nepeta_subsessilis_washfield\/regular\/1365px-Nepeta_subsessilis_28Mount_Shirouma29.jpg","medium_url":"https:\/\/perenual.com\/storage\/species_image\/5464_nepeta_subsessilis_washfield\/medium\/1365px-Nepeta_subsessilis_28Mount_Shirouma29.jpg","small_url":"https:\/\/perenual.com\/storage\/species_image\/5464_nepeta_subsessilis_washfield\/small\/1365px-Nepeta_subsessilis_28Mount_Shirouma29.jpg","thumbnail":"https:\/\/perenual.com\/storage\/species_image\/5464_nepeta_subsessilis_washfield\/thumbnail\/1365px-Nepeta_subsessilis_28Mount_Shirouma29.jpg"}},{"id":5465,"common_name":"Boston fern","scientific_name":["Nephrolepis exaltata"],"other_name":[],"cycle":"Perennial","watering":"Average","sunlight":["Part shade"],"default_image":{"license":5,"license_name":"Attribution-ShareAlike License","license_url":"https:\/\/creativecommons.org\/licenses\/by-sa\/2.0\/","original_url":"https:\/\/perenual.com\/storage\/species_image\/2_abies_alba_pyramidalis\/og\/49255769768_df55596553_b.jpg","regular_url":"https:\/\/perenual.com\/storage\/species_image\/2_abies_alba_pyramidalis\/regular\/49255769768_df55596553_b.jpg","medium_url":"https:\/\/perenual.com\/storage\/species_image\/2_abies_alba_pyramidalis\/medium\/49255769768_df55596553_b.jpg","small_url":"https:\/\/perenual.com\/storage\/species_image\/2_abies_alba_pyramidalis\/small\/49255769768_df55596553_b.jpg","thumbnail":"https:\/\/perenual.com\/storage\/species_image\/2_abies_alba_pyramidalis\/thumbnail\/49255769768_df55596553_b.jpg"}},{"id":5466,"common_name":"Boston fern","scientific_name":["Nephrolepis exaltata 'Bostoniensis'"],"other_name":[],"cycle":"Perennial","watering":"Average","sunlight":["Part shade"],"default_image":{"license":5,"license_name":"Attribution-ShareAlike License","license_url":"https:\/\/creativecommons.org\/licenses\/by-sa\/2.0\/","original_url":"https:\/\/perenual.com\/storage\/species_image\/2_abies_alba_pyramidalis\/og\/49255769768_df55596553_b.jpg","regular_url":"https:\/\/perenual.com\/storage\/species_image\/2_abies_alba_pyramidalis\/regular\/49255769768_df55596553_b.jpg","medium_url":"https:\/\/perenual.com\/storage\/species_image\/2_abies_alba_pyramidalis\/medium\/49255769768_df55596553_b.jpg","small_url":"https:\/\/perenual.com\/storage\/species_image\/2_abies_alba_pyramidalis\/small\/49255769768_df55596553_b.jpg","thumbnail":"https:\/\/perenual.com\/storage\/species_image\/2_abies_alba_pyramidalis\/thumbnail\/49255769768_df55596553_b.jpg"}},{"id":5467,"common_name":"Boston fern","scientific_name":["Nephrolepis exaltata 'Tiger Fern'"],"other_name":[],"cycle":"Perennial","watering":"Average","sunlight":["Part shade"],"default_image":{"license":5,"license_name":"Attribution-ShareAlike License","license_url":"https:\/\/creativecommons.org\/licenses\/by-sa\/2.0\/","original_url":"https:\/\/perenual.com\/storage\/species_image\/2_abies_alba_pyramidalis\/og\/49255769768_df55596553_b.jpg","regular_url":"https:\/\/perenual.com\/storage\/species_image\/2_abies_alba_pyramidalis\/regular\/49255769768_df55596553_b.jpg","medium_url":"https:\/\/perenual.com\/storage\/species_image\/2_abies_alba_pyramidalis\/medium\/49255769768_df55596553_b.jpg","small_url":"https:\/\/perenual.com\/storage\/species_image\/2_abies_alba_pyramidalis\/small\/49255769768_df55596553_b.jpg","thumbnail":"https:\/\/perenual.com\/storage\/species_image\/2_abies_alba_pyramidalis\/thumbnail\/49255769768_df55596553_b.jpg"}},{"id":5468,"common_name":"water mimosa","scientific_name":["Neptunia oleracea"],"other_name":[],"cycle":"Herbaceous Perennial","watering":"Frequent","sunlight":["Full sun","part shade"],"default_image":{"license":5,"license_name":"Attribution-ShareAlike License","license_url":"https:\/\/creativecommons.org\/licenses\/by-sa\/2.0\/","original_url":"https:\/\/perenual.com\/storage\/species_image\/5468_neptunia_oleracea\/og\/42127320611_6a939e120c_b.jpg","regular_url":"https:\/\/perenual.com\/storage\/species_image\/5468_neptunia_oleracea\/regular\/42127320611_6a939e120c_b.jpg","medium_url":"https:\/\/perenual.com\/storage\/species_image\/5468_neptunia_oleracea\/medium\/42127320611_6a939e120c_b.jpg","small_url":"https:\/\/perenual.com\/storage\/species_image\/5468_neptunia_oleracea\/small\/42127320611_6a939e120c_b.jpg","thumbnail":"https:\/\/perenual.com\/storage\/species_image\/5468_neptunia_oleracea\/thumbnail\/42127320611_6a939e120c_b.jpg"}},{"id":5469,"common_name":"oleander","scientific_name":["Nerium oleander"],"other_name":["rose bay"],"cycle":"Perennial","watering":"Average","sunlight":["Full sun"],"default_image":{"license":4,"license_name":"Attribution License","license_url":"https:\/\/creativecommons.org\/licenses\/by\/2.0\/","original_url":"https:\/\/perenual.com\/storage\/species_image\/5469_nerium_oleander\/og\/52273224447_0f19c0bafc_b.jpg","regular_url":"https:\/\/perenual.com\/storage\/species_image\/5469_nerium_oleander\/regular\/52273224447_0f19c0bafc_b.jpg","medium_url":"https:\/\/perenual.com\/storage\/species_image\/5469_nerium_oleander\/medium\/52273224447_0f19c0bafc_b.jpg","small_url":"https:\/\/perenual.com\/storage\/species_image\/5469_nerium_oleander\/small\/52273224447_0f19c0bafc_b.jpg","thumbnail":"https:\/\/perenual.com\/storage\/species_image\/5469_nerium_oleander\/thumbnail\/52273224447_0f19c0bafc_b.jpg"}},{"id":5470,"common_name":"oleander","scientific_name":["Nerium oleander 'Luteum Plenum'"],"other_name":["rose bay"],"cycle":"Perennial","watering":"Average","sunlight":["Full sun"],"default_image":{"license":45,"license_name":"Attribution-ShareAlike 3.0 Unported (CC BY-SA 3.0)","license_url":"https:\/\/creativecommons.org\/licenses\/by-sa\/3.0\/deed.en","original_url":"https:\/\/perenual.com\/storage\/species_image\/5470_nerium_oleander_luteum_plenum\/og\/2560px-Nerium_oleander_27Luteum_Plenum27_Poblado.jpg","regular_url":"https:\/\/perenual.com\/storage\/species_image\/5470_nerium_oleander_luteum_plenum\/regular\/2560px-Nerium_oleander_27Luteum_Plenum27_Poblado.jpg","medium_url":"https:\/\/perenual.com\/storage\/species_image\/5470_nerium_oleander_luteum_plenum\/medium\/2560px-Nerium_oleander_27Luteum_Plenum27_Poblado.jpg","small_url":"https:\/\/perenual.com\/storage\/species_image\/5470_nerium_oleander_luteum_plenum\/small\/2560px-Nerium_oleander_27Luteum_Plenum27_Poblado.jpg","thumbnail":"https:\/\/perenual.com\/storage\/species_image\/5470_nerium_oleander_luteum_plenum\/thumbnail\/2560px-Nerium_oleander_27Luteum_Plenum27_Poblado.jpg"}},{"id":5471,"common_name":"Alabama snow wreath","scientific_name":["Neviusia alabamensis"],"other_name":[],"cycle":"Perennial","watering":"Average","sunlight":["Full sun","part shade"],"default_image":{"license":5,"license_name":"Attribution-ShareAlike License","license_url":"https:\/\/creativecommons.org\/licenses\/by-sa\/2.0\/","original_url":"https:\/\/perenual.com\/storage\/species_image\/5471_neviusia_alabamensis\/og\/9227008067_90bfe4dc04_b.jpg","regular_url":"https:\/\/perenual.com\/storage\/species_image\/5471_neviusia_alabamensis\/regular\/9227008067_90bfe4dc04_b.jpg","medium_url":"https:\/\/perenual.com\/storage\/species_image\/5471_neviusia_alabamensis\/medium\/9227008067_90bfe4dc04_b.jpg","small_url":"https:\/\/perenual.com\/storage\/species_image\/5471_neviusia_alabamensis\/small\/9227008067_90bfe4dc04_b.jpg","thumbnail":"https:\/\/perenual.com\/storage\/species_image\/5471_neviusia_alabamensis\/thumbnail\/9227008067_90bfe4dc04_b.jpg"}},{"id":5472,"common_name":"flowering tobacco","scientific_name":["Nicotiana alata"],"other_name":["jasmine tobacco"],"cycle":"Herbaceous Perennial","watering":"Average","sunlight":["Full sun only if soil kept moist"," Part sun\/part shade"],"default_image":{"license":5,"license_name":"Attribution-ShareAlike License","license_url":"https:\/\/creativecommons.org\/licenses\/by-sa\/2.0\/","original_url":"https:\/\/perenual.com\/storage\/species_image\/5472_nicotiana_alata\/og\/21481799741_00a20d50e2_b.jpg","regular_url":"https:\/\/perenual.com\/storage\/species_image\/5472_nicotiana_alata\/regular\/21481799741_00a20d50e2_b.jpg","medium_url":"https:\/\/perenual.com\/storage\/species_image\/5472_nicotiana_alata\/medium\/21481799741_00a20d50e2_b.jpg","small_url":"https:\/\/perenual.com\/storage\/species_image\/5472_nicotiana_alata\/small\/21481799741_00a20d50e2_b.jpg","thumbnail":"https:\/\/perenual.com\/storage\/species_image\/5472_nicotiana_alata\/thumbnail\/21481799741_00a20d50e2_b.jpg"}},{"id":5473,"common_name":"tobacco plant","scientific_name":["Nicotiana sylvestris"],"other_name":[],"cycle":"Herbaceous Perennial","watering":"Average","sunlight":["Full sun","part shade"],"default_image":{"license":5,"license_name":"Attribution-ShareAlike License","license_url":"https:\/\/creativecommons.org\/licenses\/by-sa\/2.0\/","original_url":"https:\/\/perenual.com\/storage\/species_image\/2_abies_alba_pyramidalis\/og\/49255769768_df55596553_b.jpg","regular_url":"https:\/\/perenual.com\/storage\/species_image\/2_abies_alba_pyramidalis\/regular\/49255769768_df55596553_b.jpg","medium_url":"https:\/\/perenual.com\/storage\/species_image\/2_abies_alba_pyramidalis\/medium\/49255769768_df55596553_b.jpg","small_url":"https:\/\/perenual.com\/storage\/species_image\/2_abies_alba_pyramidalis\/small\/49255769768_df55596553_b.jpg","thumbnail":"https:\/\/perenual.com\/storage\/species_image\/2_abies_alba_pyramidalis\/thumbnail\/49255769768_df55596553_b.jpg"}},{"id":5474,"common_name":"cupflower","scientific_name":["Nierembergia linariifolia"],"other_name":[],"cycle":"Herbaceous Perennial","watering":"Average","sunlight":["Full sun","part shade"],"default_image":{"license":5,"license_name":"Attribution-ShareAlike License","license_url":"https:\/\/creativecommons.org\/licenses\/by-sa\/2.0\/","original_url":"https:\/\/perenual.com\/storage\/species_image\/2_abies_alba_pyramidalis\/og\/49255769768_df55596553_b.jpg","regular_url":"https:\/\/perenual.com\/storage\/species_image\/2_abies_alba_pyramidalis\/regular\/49255769768_df55596553_b.jpg","medium_url":"https:\/\/perenual.com\/storage\/species_image\/2_abies_alba_pyramidalis\/medium\/49255769768_df55596553_b.jpg","small_url":"https:\/\/perenual.com\/storage\/species_image\/2_abies_alba_pyramidalis\/small\/49255769768_df55596553_b.jpg","thumbnail":"https:\/\/perenual.com\/storage\/species_image\/2_abies_alba_pyramidalis\/thumbnail\/49255769768_df55596553_b.jpg"}},{"id":5475,"common_name":"cupflower","scientific_name":["Nierembergia scoparia"],"other_name":[],"cycle":"Herbaceous Perennial","watering":"Average","sunlight":["Full sun","part shade"],"default_image":{"license":45,"license_name":"Attribution-ShareAlike 3.0 Unported (CC BY-SA 3.0)","license_url":"https:\/\/creativecommons.org\/licenses\/by-sa\/3.0\/deed.en","original_url":"https:\/\/perenual.com\/storage\/species_image\/5475_nierembergia_scoparia\/og\/2560px-Nierembergia_scoparia_-_Floraison.jpg","regular_url":"https:\/\/perenual.com\/storage\/species_image\/5475_nierembergia_scoparia\/regular\/2560px-Nierembergia_scoparia_-_Floraison.jpg","medium_url":"https:\/\/perenual.com\/storage\/species_image\/5475_nierembergia_scoparia\/medium\/2560px-Nierembergia_scoparia_-_Floraison.jpg","small_url":"https:\/\/perenual.com\/storage\/species_image\/5475_nierembergia_scoparia\/small\/2560px-Nierembergia_scoparia_-_Floraison.jpg","thumbnail":"https:\/\/perenual.com\/storage\/species_image\/5475_nierembergia_scoparia\/thumbnail\/2560px-Nierembergia_scoparia_-_Floraison.jpg"}},{"id":5476,"common_name":"cupflower","scientific_name":["Nierembergia scoparia 'Mont Blanc'"],"other_name":[],"cycle":"Herbaceous Perennial","watering":"Average","sunlight":["Full sun","part shade"],"default_image":{"license":5,"license_name":"Attribution-ShareAlike License","license_url":"https:\/\/creativecommons.org\/licenses\/by-sa\/2.0\/","original_url":"https:\/\/perenual.com\/storage\/species_image\/2_abies_alba_pyramidalis\/og\/49255769768_df55596553_b.jpg","regular_url":"https:\/\/perenual.com\/storage\/species_image\/2_abies_alba_pyramidalis\/regular\/49255769768_df55596553_b.jpg","medium_url":"https:\/\/perenual.com\/storage\/species_image\/2_abies_alba_pyramidalis\/medium\/49255769768_df55596553_b.jpg","small_url":"https:\/\/perenual.com\/storage\/species_image\/2_abies_alba_pyramidalis\/small\/49255769768_df55596553_b.jpg","thumbnail":"https:\/\/perenual.com\/storage\/species_image\/2_abies_alba_pyramidalis\/thumbnail\/49255769768_df55596553_b.jpg"}},{"id":5477,"common_name":"cupflower","scientific_name":["Nierembergia scoparia 'Purple Robe'"],"other_name":[],"cycle":"Herbaceous Perennial","watering":"Average","sunlight":["Full sun","part shade"],"default_image":{"license":4,"license_name":"Attribution License","license_url":"https:\/\/creativecommons.org\/licenses\/by\/2.0\/","original_url":"https:\/\/perenual.com\/storage\/species_image\/5477_nierembergia_scoparia_purple_robe\/og\/9656108150_ea7f86ecd1_b.jpg","regular_url":"https:\/\/perenual.com\/storage\/species_image\/5477_nierembergia_scoparia_purple_robe\/regular\/9656108150_ea7f86ecd1_b.jpg","medium_url":"https:\/\/perenual.com\/storage\/species_image\/5477_nierembergia_scoparia_purple_robe\/medium\/9656108150_ea7f86ecd1_b.jpg","small_url":"https:\/\/perenual.com\/storage\/species_image\/5477_nierembergia_scoparia_purple_robe\/small\/9656108150_ea7f86ecd1_b.jpg","thumbnail":"https:\/\/perenual.com\/storage\/species_image\/5477_nierembergia_scoparia_purple_robe\/thumbnail\/9656108150_ea7f86ecd1_b.jpg"}},{"id":5478,"common_name":"love-in-a-mist","scientific_name":["Nigella damascena"],"other_name":[],"cycle":"Annual","watering":"Average","sunlight":["Full sun"],"default_image":{"license":5,"license_name":"Attribution-ShareAlike License","license_url":"https:\/\/creativecommons.org\/licenses\/by-sa\/2.0\/","original_url":"https:\/\/perenual.com\/storage\/species_image\/2_abies_alba_pyramidalis\/og\/49255769768_df55596553_b.jpg","regular_url":"https:\/\/perenual.com\/storage\/species_image\/2_abies_alba_pyramidalis\/regular\/49255769768_df55596553_b.jpg","medium_url":"https:\/\/perenual.com\/storage\/species_image\/2_abies_alba_pyramidalis\/medium\/49255769768_df55596553_b.jpg","small_url":"https:\/\/perenual.com\/storage\/species_image\/2_abies_alba_pyramidalis\/small\/49255769768_df55596553_b.jpg","thumbnail":"https:\/\/perenual.com\/storage\/species_image\/2_abies_alba_pyramidalis\/thumbnail\/49255769768_df55596553_b.jpg"}},{"id":5479,"common_name":"Nippon daisy","scientific_name":["Nipponanthemum nipponicum"],"other_name":[],"cycle":"Herbaceous Perennial","watering":"Minimum","sunlight":["Full sun"],"default_image":{"license":5,"license_name":"Attribution-ShareAlike License","license_url":"https:\/\/creativecommons.org\/licenses\/by-sa\/2.0\/","original_url":"https:\/\/perenual.com\/storage\/species_image\/4781_leucanthemum_superbum_whoops-a-daisy\/og\/51558230447_26058ded32_b.jpg","regular_url":"https:\/\/perenual.com\/storage\/species_image\/4781_leucanthemum_superbum_whoops-a-daisy\/regular\/51558230447_26058ded32_b.jpg","medium_url":"https:\/\/perenual.com\/storage\/species_image\/4781_leucanthemum_superbum_whoops-a-daisy\/medium\/51558230447_26058ded32_b.jpg","small_url":"https:\/\/perenual.com\/storage\/species_image\/4781_leucanthemum_superbum_whoops-a-daisy\/small\/51558230447_26058ded32_b.jpg","thumbnail":"https:\/\/perenual.com\/storage\/species_image\/4781_leucanthemum_superbum_whoops-a-daisy\/thumbnail\/51558230447_26058ded32_b.jpg"}},{"id":5480,"common_name":"false garlic","scientific_name":["Nothoscordum bivalve"],"other_name":[],"cycle":"Perennial","watering":"Minimum","sunlight":["Full sun","part shade"],"default_image":{"license":5,"license_name":"Attribution-ShareAlike License","license_url":"https:\/\/creativecommons.org\/licenses\/by-sa\/2.0\/","original_url":"https:\/\/perenual.com\/storage\/species_image\/2_abies_alba_pyramidalis\/og\/49255769768_df55596553_b.jpg","regular_url":"https:\/\/perenual.com\/storage\/species_image\/2_abies_alba_pyramidalis\/regular\/49255769768_df55596553_b.jpg","medium_url":"https:\/\/perenual.com\/storage\/species_image\/2_abies_alba_pyramidalis\/medium\/49255769768_df55596553_b.jpg","small_url":"https:\/\/perenual.com\/storage\/species_image\/2_abies_alba_pyramidalis\/small\/49255769768_df55596553_b.jpg","thumbnail":"https:\/\/perenual.com\/storage\/species_image\/2_abies_alba_pyramidalis\/thumbnail\/49255769768_df55596553_b.jpg"}},{"id":5481,"common_name":"yellow pond lily","scientific_name":["Nuphar lutea"],"other_name":[],"cycle":"Herbaceous Perennial","watering":"Frequent","sunlight":["Full sun","part shade"],"default_image":{"license":5,"license_name":"Attribution-ShareAlike License","license_url":"https:\/\/creativecommons.org\/licenses\/by-sa\/2.0\/","original_url":"https:\/\/perenual.com\/storage\/species_image\/2_abies_alba_pyramidalis\/og\/49255769768_df55596553_b.jpg","regular_url":"https:\/\/perenual.com\/storage\/species_image\/2_abies_alba_pyramidalis\/regular\/49255769768_df55596553_b.jpg","medium_url":"https:\/\/perenual.com\/storage\/species_image\/2_abies_alba_pyramidalis\/medium\/49255769768_df55596553_b.jpg","small_url":"https:\/\/perenual.com\/storage\/species_image\/2_abies_alba_pyramidalis\/small\/49255769768_df55596553_b.jpg","thumbnail":"https:\/\/perenual.com\/storage\/species_image\/2_abies_alba_pyramidalis\/thumbnail\/49255769768_df55596553_b.jpg"}},{"id":5482,"common_name":"Egyptian blue water lily","scientific_name":["Nymphaea caerulea"],"other_name":[],"cycle":"Herbaceous Perennial","watering":"Frequent","sunlight":["Full sun"],"default_image":{"license":5,"license_name":"Attribution-ShareAlike License","license_url":"https:\/\/creativecommons.org\/licenses\/by-sa\/2.0\/","original_url":"https:\/\/perenual.com\/storage\/species_image\/5482_nymphaea_caerulea\/og\/49702320306_506e4c316b_b.jpg","regular_url":"https:\/\/perenual.com\/storage\/species_image\/5482_nymphaea_caerulea\/regular\/49702320306_506e4c316b_b.jpg","medium_url":"https:\/\/perenual.com\/storage\/species_image\/5482_nymphaea_caerulea\/medium\/49702320306_506e4c316b_b.jpg","small_url":"https:\/\/perenual.com\/storage\/species_image\/5482_nymphaea_caerulea\/small\/49702320306_506e4c316b_b.jpg","thumbnail":"https:\/\/perenual.com\/storage\/species_image\/5482_nymphaea_caerulea\/thumbnail\/49702320306_506e4c316b_b.jpg"}},{"id":5483,"common_name":"hardy water lily","scientific_name":["Nymphaea 'Comanche'"],"other_name":[],"cycle":"Herbaceous Perennial","watering":"Frequent","sunlight":["Full sun","part shade"],"default_image":{"license":45,"license_name":"Attribution-ShareAlike 3.0 Unported (CC BY-SA 3.0)","license_url":"https:\/\/creativecommons.org\/licenses\/by-sa\/3.0\/deed.en","original_url":"https:\/\/perenual.com\/storage\/species_image\/5483_nymphaea_comanche\/og\/2560px-Nymphaea_Comache_kz1.jpg","regular_url":"https:\/\/perenual.com\/storage\/species_image\/5483_nymphaea_comanche\/regular\/2560px-Nymphaea_Comache_kz1.jpg","medium_url":"https:\/\/perenual.com\/storage\/species_image\/5483_nymphaea_comanche\/medium\/2560px-Nymphaea_Comache_kz1.jpg","small_url":"https:\/\/perenual.com\/storage\/species_image\/5483_nymphaea_comanche\/small\/2560px-Nymphaea_Comache_kz1.jpg","thumbnail":"https:\/\/perenual.com\/storage\/species_image\/5483_nymphaea_comanche\/thumbnail\/2560px-Nymphaea_Comache_kz1.jpg"}},{"id":5484,"common_name":"tropical water lily","scientific_name":["Nymphaea 'Director George T. Moore'"],"other_name":[],"cycle":"Herbaceous Perennial","watering":"Frequent","sunlight":["Full sun","part shade"],"default_image":{"license":5,"license_name":"Attribution-ShareAlike License","license_url":"https:\/\/creativecommons.org\/licenses\/by-sa\/2.0\/","original_url":"https:\/\/perenual.com\/storage\/species_image\/2_abies_alba_pyramidalis\/og\/49255769768_df55596553_b.jpg","regular_url":"https:\/\/perenual.com\/storage\/species_image\/2_abies_alba_pyramidalis\/regular\/49255769768_df55596553_b.jpg","medium_url":"https:\/\/perenual.com\/storage\/species_image\/2_abies_alba_pyramidalis\/medium\/49255769768_df55596553_b.jpg","small_url":"https:\/\/perenual.com\/storage\/species_image\/2_abies_alba_pyramidalis\/small\/49255769768_df55596553_b.jpg","thumbnail":"https:\/\/perenual.com\/storage\/species_image\/2_abies_alba_pyramidalis\/thumbnail\/49255769768_df55596553_b.jpg"}},{"id":5485,"common_name":"hardy water lily","scientific_name":["Nymphaea 'James Brydon'"],"other_name":[],"cycle":"Herbaceous Perennial","watering":"Frequent","sunlight":["Full sun","part shade"],"default_image":{"license":5,"license_name":"Attribution-ShareAlike License","license_url":"https:\/\/creativecommons.org\/licenses\/by-sa\/2.0\/","original_url":"https:\/\/perenual.com\/storage\/species_image\/2_abies_alba_pyramidalis\/og\/49255769768_df55596553_b.jpg","regular_url":"https:\/\/perenual.com\/storage\/species_image\/2_abies_alba_pyramidalis\/regular\/49255769768_df55596553_b.jpg","medium_url":"https:\/\/perenual.com\/storage\/species_image\/2_abies_alba_pyramidalis\/medium\/49255769768_df55596553_b.jpg","small_url":"https:\/\/perenual.com\/storage\/species_image\/2_abies_alba_pyramidalis\/small\/49255769768_df55596553_b.jpg","thumbnail":"https:\/\/perenual.com\/storage\/species_image\/2_abies_alba_pyramidalis\/thumbnail\/49255769768_df55596553_b.jpg"}},{"id":5486,"common_name":"hardy water lily","scientific_name":["Nymphaea 'Marliacea Chromatella'"],"other_name":[],"cycle":"Herbaceous Perennial","watering":"Frequent","sunlight":["Full sun","part shade"],"default_image":{"license":4,"license_name":"Attribution License","license_url":"https:\/\/creativecommons.org\/licenses\/by\/2.0\/","original_url":"https:\/\/perenual.com\/storage\/species_image\/5486_nymphaea_marliacea_chromatella\/og\/52500832672_c35637f8a0_b.jpg","regular_url":"https:\/\/perenual.com\/storage\/species_image\/5486_nymphaea_marliacea_chromatella\/regular\/52500832672_c35637f8a0_b.jpg","medium_url":"https:\/\/perenual.com\/storage\/species_image\/5486_nymphaea_marliacea_chromatella\/medium\/52500832672_c35637f8a0_b.jpg","small_url":"https:\/\/perenual.com\/storage\/species_image\/5486_nymphaea_marliacea_chromatella\/small\/52500832672_c35637f8a0_b.jpg","thumbnail":"https:\/\/perenual.com\/storage\/species_image\/5486_nymphaea_marliacea_chromatella\/thumbnail\/52500832672_c35637f8a0_b.jpg"}},{"id":5487,"common_name":"hardy water lily","scientific_name":["Nymphaea 'Pygmaea Helvola'"],"other_name":[],"cycle":"Herbaceous Perennial","watering":"Frequent","sunlight":["Full sun","part shade"],"default_image":{"license":5,"license_name":"Attribution-ShareAlike License","license_url":"https:\/\/creativecommons.org\/licenses\/by-sa\/2.0\/","original_url":"https:\/\/perenual.com\/storage\/species_image\/2_abies_alba_pyramidalis\/og\/49255769768_df55596553_b.jpg","regular_url":"https:\/\/perenual.com\/storage\/species_image\/2_abies_alba_pyramidalis\/regular\/49255769768_df55596553_b.jpg","medium_url":"https:\/\/perenual.com\/storage\/species_image\/2_abies_alba_pyramidalis\/medium\/49255769768_df55596553_b.jpg","small_url":"https:\/\/perenual.com\/storage\/species_image\/2_abies_alba_pyramidalis\/small\/49255769768_df55596553_b.jpg","thumbnail":"https:\/\/perenual.com\/storage\/species_image\/2_abies_alba_pyramidalis\/thumbnail\/49255769768_df55596553_b.jpg"}},{"id":5488,"common_name":"hardy water lily","scientific_name":["Nymphaea 'Sunny Pink'"],"other_name":[],"cycle":"Herbaceous Perennial","watering":"Frequent","sunlight":["Full sun","part shade"],"default_image":{"license":5,"license_name":"Attribution-ShareAlike License","license_url":"https:\/\/creativecommons.org\/licenses\/by-sa\/2.0\/","original_url":"https:\/\/perenual.com\/storage\/species_image\/2_abies_alba_pyramidalis\/og\/49255769768_df55596553_b.jpg","regular_url":"https:\/\/perenual.com\/storage\/species_image\/2_abies_alba_pyramidalis\/regular\/49255769768_df55596553_b.jpg","medium_url":"https:\/\/perenual.com\/storage\/species_image\/2_abies_alba_pyramidalis\/medium\/49255769768_df55596553_b.jpg","small_url":"https:\/\/perenual.com\/storage\/species_image\/2_abies_alba_pyramidalis\/small\/49255769768_df55596553_b.jpg","thumbnail":"https:\/\/perenual.com\/storage\/species_image\/2_abies_alba_pyramidalis\/thumbnail\/49255769768_df55596553_b.jpg"}},{"id":5489,"common_name":"tropical water lily","scientific_name":["Nymphaea 'Tina'"],"other_name":[],"cycle":"Herbaceous Perennial","watering":"Frequent","sunlight":["Full sun","part shade"],"default_image":{"license":5,"license_name":"Attribution-ShareAlike License","license_url":"https:\/\/creativecommons.org\/licenses\/by-sa\/2.0\/","original_url":"https:\/\/perenual.com\/storage\/species_image\/2_abies_alba_pyramidalis\/og\/49255769768_df55596553_b.jpg","regular_url":"https:\/\/perenual.com\/storage\/species_image\/2_abies_alba_pyramidalis\/regular\/49255769768_df55596553_b.jpg","medium_url":"https:\/\/perenual.com\/storage\/species_image\/2_abies_alba_pyramidalis\/medium\/49255769768_df55596553_b.jpg","small_url":"https:\/\/perenual.com\/storage\/species_image\/2_abies_alba_pyramidalis\/small\/49255769768_df55596553_b.jpg","thumbnail":"https:\/\/perenual.com\/storage\/species_image\/2_abies_alba_pyramidalis\/thumbnail\/49255769768_df55596553_b.jpg"}},{"id":5490,"common_name":"tropical water lily","scientific_name":["Nymphaea 'Wood's Blue Goddess'"],"other_name":[],"cycle":"Herbaceous Perennial","watering":"Frequent","sunlight":["Full sun","part shade"],"default_image":{"license":5,"license_name":"Attribution-ShareAlike License","license_url":"https:\/\/creativecommons.org\/licenses\/by-sa\/2.0\/","original_url":"https:\/\/perenual.com\/storage\/species_image\/2_abies_alba_pyramidalis\/og\/49255769768_df55596553_b.jpg","regular_url":"https:\/\/perenual.com\/storage\/species_image\/2_abies_alba_pyramidalis\/regular\/49255769768_df55596553_b.jpg","medium_url":"https:\/\/perenual.com\/storage\/species_image\/2_abies_alba_pyramidalis\/medium\/49255769768_df55596553_b.jpg","small_url":"https:\/\/perenual.com\/storage\/species_image\/2_abies_alba_pyramidalis\/small\/49255769768_df55596553_b.jpg","thumbnail":"https:\/\/perenual.com\/storage\/species_image\/2_abies_alba_pyramidalis\/thumbnail\/49255769768_df55596553_b.jpg"}}],"to":5490,"per_page":30,"current_page":183,"from":5461,"last_page":200,"total":6000}