{"data":[{"id":571,"common_name":"slenderleaf false foxglove","scientific_name":["Agalinis tenuifolia"],"other_name":["Slenderleaf False Foxglove","Slender Gerardia","Slender Gerardia"],"cycle":"Annual","watering":"Average","sunlight":["Sun"," Partial Shade"],"default_image":{"license":4,"license_name":"Attribution License","license_url":"https:\/\/creativecommons.org\/licenses\/by\/2.0\/","original_url":"https:\/\/perenual.com\/storage\/species_image\/571_agalinis_tenuifolia\/og\/51729887719_21b2944da8_b.jpg","regular_url":"https:\/\/perenual.com\/storage\/species_image\/571_agalinis_tenuifolia\/regular\/51729887719_21b2944da8_b.jpg","medium_url":"https:\/\/perenual.com\/storage\/species_image\/571_agalinis_tenuifolia\/medium\/51729887719_21b2944da8_b.jpg","small_url":"https:\/\/perenual.com\/storage\/species_image\/571_agalinis_tenuifolia\/small\/51729887719_21b2944da8_b.jpg","thumbnail":"https:\/\/perenual.com\/storage\/species_image\/571_agalinis_tenuifolia\/thumbnail\/51729887719_21b2944da8_b.jpg"}},{"id":572,"common_name":"African lily","scientific_name":["Agapanthus africanus"],"other_name":[],"cycle":"Perennial","watering":"Average","sunlight":["Full sun","part shade"],"default_image":null},{"id":573,"common_name":"lily of the Nile","scientific_name":["Agapanthus 'Blue Yonder'"],"other_name":[],"cycle":"Perennial","watering":"Average","sunlight":["Full sun","part shade"],"default_image":{"license":4,"license_name":"Attribution License","license_url":"https:\/\/creativecommons.org\/licenses\/by\/2.0\/","original_url":"https:\/\/perenual.com\/storage\/species_image\/573_agapanthus_blue_yonder\/og\/51684919053_42bb4f4d37_b.jpg","regular_url":"https:\/\/perenual.com\/storage\/species_image\/573_agapanthus_blue_yonder\/regular\/51684919053_42bb4f4d37_b.jpg","medium_url":"https:\/\/perenual.com\/storage\/species_image\/573_agapanthus_blue_yonder\/medium\/51684919053_42bb4f4d37_b.jpg","small_url":"https:\/\/perenual.com\/storage\/species_image\/573_agapanthus_blue_yonder\/small\/51684919053_42bb4f4d37_b.jpg","thumbnail":"https:\/\/perenual.com\/storage\/species_image\/573_agapanthus_blue_yonder\/thumbnail\/51684919053_42bb4f4d37_b.jpg"}},{"id":574,"common_name":"lily of the Nile","scientific_name":["Agapanthus 'Cold Hardy White'"],"other_name":[],"cycle":"Perennial","watering":"Average","sunlight":["Part shade"],"default_image":{"license":4,"license_name":"Attribution License","license_url":"https:\/\/creativecommons.org\/licenses\/by\/2.0\/","original_url":"https:\/\/perenual.com\/storage\/species_image\/574_agapanthus_cold_hardy_white\/og\/43927844454_7676af386f_b.jpg","regular_url":"https:\/\/perenual.com\/storage\/species_image\/574_agapanthus_cold_hardy_white\/regular\/43927844454_7676af386f_b.jpg","medium_url":"https:\/\/perenual.com\/storage\/species_image\/574_agapanthus_cold_hardy_white\/medium\/43927844454_7676af386f_b.jpg","small_url":"https:\/\/perenual.com\/storage\/species_image\/574_agapanthus_cold_hardy_white\/small\/43927844454_7676af386f_b.jpg","thumbnail":"https:\/\/perenual.com\/storage\/species_image\/574_agapanthus_cold_hardy_white\/thumbnail\/43927844454_7676af386f_b.jpg"}},{"id":575,"common_name":"lily of the Nile","scientific_name":["Agapanthus (group)"],"other_name":[],"cycle":"Perennial","watering":"Average","sunlight":["Full sun","part shade"],"default_image":{"license":4,"license_name":"Attribution License","license_url":"https:\/\/creativecommons.org\/licenses\/by\/2.0\/","original_url":"https:\/\/perenual.com\/storage\/species_image\/575_agapanthus_group\/og\/2742717111_04f3b1bee3_b.jpg","regular_url":"https:\/\/perenual.com\/storage\/species_image\/575_agapanthus_group\/regular\/2742717111_04f3b1bee3_b.jpg","medium_url":"https:\/\/perenual.com\/storage\/species_image\/575_agapanthus_group\/medium\/2742717111_04f3b1bee3_b.jpg","small_url":"https:\/\/perenual.com\/storage\/species_image\/575_agapanthus_group\/small\/2742717111_04f3b1bee3_b.jpg","thumbnail":"https:\/\/perenual.com\/storage\/species_image\/575_agapanthus_group\/thumbnail\/2742717111_04f3b1bee3_b.jpg"}},{"id":576,"common_name":"lily of the Nile","scientific_name":["Agapanthus 'Headbourne Hybrids'"],"other_name":[],"cycle":"Perennial","watering":"Average","sunlight":["Full sun","part shade"],"default_image":{"license":4,"license_name":"Attribution License","license_url":"https:\/\/creativecommons.org\/licenses\/by\/2.0\/","original_url":"https:\/\/perenual.com\/storage\/species_image\/576_agapanthus_headbourne_hybrids\/og\/51684917243_f9d47c765e_b.jpg","regular_url":"https:\/\/perenual.com\/storage\/species_image\/576_agapanthus_headbourne_hybrids\/regular\/51684917243_f9d47c765e_b.jpg","medium_url":"https:\/\/perenual.com\/storage\/species_image\/576_agapanthus_headbourne_hybrids\/medium\/51684917243_f9d47c765e_b.jpg","small_url":"https:\/\/perenual.com\/storage\/species_image\/576_agapanthus_headbourne_hybrids\/small\/51684917243_f9d47c765e_b.jpg","thumbnail":"https:\/\/perenual.com\/storage\/species_image\/576_agapanthus_headbourne_hybrids\/thumbnail\/51684917243_f9d47c765e_b.jpg"}},{"id":577,"common_name":"lily of the Nile","scientific_name":["Agapanthus 'Kingston Blue'"],"other_name":[],"cycle":"Herbaceous Perennial","watering":"Average","sunlight":["Full sun","part shade"],"default_image":{"license":4,"license_name":"Attribution License","license_url":"https:\/\/creativecommons.org\/licenses\/by\/2.0\/","original_url":"https:\/\/perenual.com\/storage\/species_image\/577_agapanthus_kingston_blue\/og\/37273129136_c039e92f7b_b.jpg","regular_url":"https:\/\/perenual.com\/storage\/species_image\/577_agapanthus_kingston_blue\/regular\/37273129136_c039e92f7b_b.jpg","medium_url":"https:\/\/perenual.com\/storage\/species_image\/577_agapanthus_kingston_blue\/medium\/37273129136_c039e92f7b_b.jpg","small_url":"https:\/\/perenual.com\/storage\/species_image\/577_agapanthus_kingston_blue\/small\/37273129136_c039e92f7b_b.jpg","thumbnail":"https:\/\/perenual.com\/storage\/species_image\/577_agapanthus_kingston_blue\/thumbnail\/37273129136_c039e92f7b_b.jpg"}},{"id":578,"common_name":"lily of the Nile","scientific_name":["Agapanthus 'Rfdd' DOUBLE DIAMOND"],"other_name":[],"cycle":"Perennial","watering":"Average","sunlight":["Full sun","part shade"],"default_image":{"license":4,"license_name":"Attribution License","license_url":"https:\/\/creativecommons.org\/licenses\/by\/2.0\/","original_url":"https:\/\/perenual.com\/storage\/species_image\/578_agapanthus_rfdd_double_diamond\/og\/51685545730_a49c37d107_b.jpg","regular_url":"https:\/\/perenual.com\/storage\/species_image\/578_agapanthus_rfdd_double_diamond\/regular\/51685545730_a49c37d107_b.jpg","medium_url":"https:\/\/perenual.com\/storage\/species_image\/578_agapanthus_rfdd_double_diamond\/medium\/51685545730_a49c37d107_b.jpg","small_url":"https:\/\/perenual.com\/storage\/species_image\/578_agapanthus_rfdd_double_diamond\/small\/51685545730_a49c37d107_b.jpg","thumbnail":"https:\/\/perenual.com\/storage\/species_image\/578_agapanthus_rfdd_double_diamond\/thumbnail\/51685545730_a49c37d107_b.jpg"}},{"id":579,"common_name":"lily of the Nile","scientific_name":["Agapanthus 'Summer Skies'"],"other_name":[],"cycle":"Perennial","watering":"Average","sunlight":["Full sun","part shade"],"default_image":null},{"id":580,"common_name":"giant hyssop","scientific_name":["Agastache 'Apricot Sunrise'"],"other_name":[],"cycle":"Herbaceous Perennial","watering":"Average","sunlight":["Full sun"],"default_image":{"license":45,"license_name":"Attribution-ShareAlike 3.0 Unported (CC BY-SA 3.0)","license_url":"https:\/\/creativecommons.org\/licenses\/by-sa\/3.0\/deed.en","original_url":"https:\/\/perenual.com\/storage\/species_image\/580_agastache_apricot_sunrise\/og\/Agastache_Arizona_Sandstone_kz2.jpg","regular_url":"https:\/\/perenual.com\/storage\/species_image\/580_agastache_apricot_sunrise\/regular\/Agastache_Arizona_Sandstone_kz2.jpg","medium_url":"https:\/\/perenual.com\/storage\/species_image\/580_agastache_apricot_sunrise\/medium\/Agastache_Arizona_Sandstone_kz2.jpg","small_url":"https:\/\/perenual.com\/storage\/species_image\/580_agastache_apricot_sunrise\/small\/Agastache_Arizona_Sandstone_kz2.jpg","thumbnail":"https:\/\/perenual.com\/storage\/species_image\/580_agastache_apricot_sunrise\/thumbnail\/Agastache_Arizona_Sandstone_kz2.jpg"}},{"id":581,"common_name":"giant hyssop","scientific_name":["Agastache 'Ava'"],"other_name":[],"cycle":"Herbaceous Perennial","watering":"Average","sunlight":["Full sun"],"default_image":{"license":5,"license_name":"Attribution-ShareAlike License","license_url":"https:\/\/creativecommons.org\/licenses\/by-sa\/2.0\/","original_url":"https:\/\/perenual.com\/storage\/species_image\/2_abies_alba_pyramidalis\/og\/49255769768_df55596553_b.jpg","regular_url":"https:\/\/perenual.com\/storage\/species_image\/2_abies_alba_pyramidalis\/regular\/49255769768_df55596553_b.jpg","medium_url":"https:\/\/perenual.com\/storage\/species_image\/2_abies_alba_pyramidalis\/medium\/49255769768_df55596553_b.jpg","small_url":"https:\/\/perenual.com\/storage\/species_image\/2_abies_alba_pyramidalis\/small\/49255769768_df55596553_b.jpg","thumbnail":"https:\/\/perenual.com\/storage\/species_image\/2_abies_alba_pyramidalis\/thumbnail\/49255769768_df55596553_b.jpg"}},{"id":582,"common_name":"giant hyssop","scientific_name":["Agastache 'Black Adder'"],"other_name":[],"cycle":"Herbaceous Perennial","watering":"Average","sunlight":["Full sun"],"default_image":{"license":5,"license_name":"Attribution-ShareAlike License","license_url":"https:\/\/creativecommons.org\/licenses\/by-sa\/2.0\/","original_url":"https:\/\/perenual.com\/storage\/species_image\/582_agastache_black_adder\/og\/20222503530_c6fa0ff0f0_b.jpg","regular_url":"https:\/\/perenual.com\/storage\/species_image\/582_agastache_black_adder\/regular\/20222503530_c6fa0ff0f0_b.jpg","medium_url":"https:\/\/perenual.com\/storage\/species_image\/582_agastache_black_adder\/medium\/20222503530_c6fa0ff0f0_b.jpg","small_url":"https:\/\/perenual.com\/storage\/species_image\/582_agastache_black_adder\/small\/20222503530_c6fa0ff0f0_b.jpg","thumbnail":"https:\/\/perenual.com\/storage\/species_image\/582_agastache_black_adder\/thumbnail\/20222503530_c6fa0ff0f0_b.jpg"}},{"id":583,"common_name":"giant hyssop","scientific_name":["Agastache 'Blue Boa'"],"other_name":[],"cycle":"Herbaceous Perennial","watering":"Average","sunlight":["Full sun"],"default_image":{"license":4,"license_name":"Attribution License","license_url":"https:\/\/creativecommons.org\/licenses\/by\/2.0\/","original_url":"https:\/\/perenual.com\/storage\/species_image\/583_agastache_blue_boa\/og\/28152423034_117ba83daa_b.jpg","regular_url":"https:\/\/perenual.com\/storage\/species_image\/583_agastache_blue_boa\/regular\/28152423034_117ba83daa_b.jpg","medium_url":"https:\/\/perenual.com\/storage\/species_image\/583_agastache_blue_boa\/medium\/28152423034_117ba83daa_b.jpg","small_url":"https:\/\/perenual.com\/storage\/species_image\/583_agastache_blue_boa\/small\/28152423034_117ba83daa_b.jpg","thumbnail":"https:\/\/perenual.com\/storage\/species_image\/583_agastache_blue_boa\/thumbnail\/28152423034_117ba83daa_b.jpg"}},{"id":584,"common_name":"giant hyssop","scientific_name":["Agastache 'Blue Fortune'"],"other_name":[],"cycle":"Herbaceous Perennial","watering":"Average","sunlight":["Full sun"],"default_image":{"license":4,"license_name":"Attribution License","license_url":"https:\/\/creativecommons.org\/licenses\/by\/2.0\/","original_url":"https:\/\/perenual.com\/storage\/species_image\/584_agastache_blue_fortune\/og\/30399338908_18d1fb2068_b.jpg","regular_url":"https:\/\/perenual.com\/storage\/species_image\/584_agastache_blue_fortune\/regular\/30399338908_18d1fb2068_b.jpg","medium_url":"https:\/\/perenual.com\/storage\/species_image\/584_agastache_blue_fortune\/medium\/30399338908_18d1fb2068_b.jpg","small_url":"https:\/\/perenual.com\/storage\/species_image\/584_agastache_blue_fortune\/small\/30399338908_18d1fb2068_b.jpg","thumbnail":"https:\/\/perenual.com\/storage\/species_image\/584_agastache_blue_fortune\/thumbnail\/30399338908_18d1fb2068_b.jpg"}},{"id":585,"common_name":"giant hyssop","scientific_name":["Agastache 'Bolero'"],"other_name":[],"cycle":"Herbaceous Perennial","watering":"Average","sunlight":["Full sun"],"default_image":{"license":45,"license_name":"Attribution-ShareAlike 3.0 Unported (CC BY-SA 3.0)","license_url":"https:\/\/creativecommons.org\/licenses\/by-sa\/3.0\/deed.en","original_url":"https:\/\/perenual.com\/storage\/species_image\/585_agastache_bolero\/og\/Agastache_barberi_Tutti_Frutti_6zz.jpg","regular_url":"https:\/\/perenual.com\/storage\/species_image\/585_agastache_bolero\/regular\/Agastache_barberi_Tutti_Frutti_6zz.jpg","medium_url":"https:\/\/perenual.com\/storage\/species_image\/585_agastache_bolero\/medium\/Agastache_barberi_Tutti_Frutti_6zz.jpg","small_url":"https:\/\/perenual.com\/storage\/species_image\/585_agastache_bolero\/small\/Agastache_barberi_Tutti_Frutti_6zz.jpg","thumbnail":"https:\/\/perenual.com\/storage\/species_image\/585_agastache_bolero\/thumbnail\/Agastache_barberi_Tutti_Frutti_6zz.jpg"}},{"id":586,"common_name":"hummingbird's mint","scientific_name":["Agastache cana"],"other_name":[],"cycle":"Herbaceous Perennial","watering":"Minimum","sunlight":["Full sun","part shade"],"default_image":{"license":4,"license_name":"Attribution License","license_url":"https:\/\/creativecommons.org\/licenses\/by\/2.0\/","original_url":"https:\/\/perenual.com\/storage\/species_image\/586_agastache_cana\/og\/11015031016_3ae0e8b4a6_b.jpg","regular_url":"https:\/\/perenual.com\/storage\/species_image\/586_agastache_cana\/regular\/11015031016_3ae0e8b4a6_b.jpg","medium_url":"https:\/\/perenual.com\/storage\/species_image\/586_agastache_cana\/medium\/11015031016_3ae0e8b4a6_b.jpg","small_url":"https:\/\/perenual.com\/storage\/species_image\/586_agastache_cana\/small\/11015031016_3ae0e8b4a6_b.jpg","thumbnail":"https:\/\/perenual.com\/storage\/species_image\/586_agastache_cana\/thumbnail\/11015031016_3ae0e8b4a6_b.jpg"}},{"id":587,"common_name":"giant hyssop","scientific_name":["Agastache cana 'Sinning' SONORAN SUNSET"],"other_name":[],"cycle":"Herbaceous Perennial","watering":"Minimum","sunlight":["Full sun","part shade"],"default_image":{"license":5,"license_name":"Attribution-ShareAlike License","license_url":"https:\/\/creativecommons.org\/licenses\/by-sa\/2.0\/","original_url":"https:\/\/perenual.com\/storage\/species_image\/2_abies_alba_pyramidalis\/og\/49255769768_df55596553_b.jpg","regular_url":"https:\/\/perenual.com\/storage\/species_image\/2_abies_alba_pyramidalis\/regular\/49255769768_df55596553_b.jpg","medium_url":"https:\/\/perenual.com\/storage\/species_image\/2_abies_alba_pyramidalis\/medium\/49255769768_df55596553_b.jpg","small_url":"https:\/\/perenual.com\/storage\/species_image\/2_abies_alba_pyramidalis\/small\/49255769768_df55596553_b.jpg","thumbnail":"https:\/\/perenual.com\/storage\/species_image\/2_abies_alba_pyramidalis\/thumbnail\/49255769768_df55596553_b.jpg"}},{"id":588,"common_name":"giant hyssop","scientific_name":["Agastache 'Firebird'"],"other_name":[],"cycle":"Herbaceous Perennial","watering":"Average","sunlight":["Full sun"],"default_image":{"license":45,"license_name":"Attribution-ShareAlike 3.0 Unported (CC BY-SA 3.0)","license_url":"https:\/\/creativecommons.org\/licenses\/by-sa\/3.0\/deed.en","original_url":"https:\/\/perenual.com\/storage\/species_image\/588_agastache_firebird\/og\/Agastache_aurantiaca_281049894473329.jpg","regular_url":"https:\/\/perenual.com\/storage\/species_image\/588_agastache_firebird\/regular\/Agastache_aurantiaca_281049894473329.jpg","medium_url":"https:\/\/perenual.com\/storage\/species_image\/588_agastache_firebird\/medium\/Agastache_aurantiaca_281049894473329.jpg","small_url":"https:\/\/perenual.com\/storage\/species_image\/588_agastache_firebird\/small\/Agastache_aurantiaca_281049894473329.jpg","thumbnail":"https:\/\/perenual.com\/storage\/species_image\/588_agastache_firebird\/thumbnail\/Agastache_aurantiaca_281049894473329.jpg"}},{"id":589,"common_name":"anise hyssop","scientific_name":["Agastache foeniculum"],"other_name":["giant hyssop","Giant Hyssop","Fragrant Giant Hyssop","Blue Giant Hyssop"],"cycle":"Herbaceous Perennial","watering":"Minimum","sunlight":["Sun"," Partial Shade"],"default_image":{"license":5,"license_name":"Attribution-ShareAlike License","license_url":"https:\/\/creativecommons.org\/licenses\/by-sa\/2.0\/","original_url":"https:\/\/perenual.com\/storage\/species_image\/589_agastache_foeniculum\/og\/9497142760_cc4468f21d_b.jpg","regular_url":"https:\/\/perenual.com\/storage\/species_image\/589_agastache_foeniculum\/regular\/9497142760_cc4468f21d_b.jpg","medium_url":"https:\/\/perenual.com\/storage\/species_image\/589_agastache_foeniculum\/medium\/9497142760_cc4468f21d_b.jpg","small_url":"https:\/\/perenual.com\/storage\/species_image\/589_agastache_foeniculum\/small\/9497142760_cc4468f21d_b.jpg","thumbnail":"https:\/\/perenual.com\/storage\/species_image\/589_agastache_foeniculum\/thumbnail\/9497142760_cc4468f21d_b.jpg"}},{"id":590,"common_name":"giant hyssop","scientific_name":["Agastache 'Garden Leader Blue'"],"other_name":[],"cycle":"Herbaceous Perennial","watering":"Average","sunlight":["Full sun"],"default_image":{"license":5,"license_name":"Attribution-ShareAlike License","license_url":"https:\/\/creativecommons.org\/licenses\/by-sa\/2.0\/","original_url":"https:\/\/perenual.com\/storage\/species_image\/590_agastache_garden_leader_blue\/og\/44192793362_a437852187_b.jpg","regular_url":"https:\/\/perenual.com\/storage\/species_image\/590_agastache_garden_leader_blue\/regular\/44192793362_a437852187_b.jpg","medium_url":"https:\/\/perenual.com\/storage\/species_image\/590_agastache_garden_leader_blue\/medium\/44192793362_a437852187_b.jpg","small_url":"https:\/\/perenual.com\/storage\/species_image\/590_agastache_garden_leader_blue\/small\/44192793362_a437852187_b.jpg","thumbnail":"https:\/\/perenual.com\/storage\/species_image\/590_agastache_garden_leader_blue\/thumbnail\/44192793362_a437852187_b.jpg"}},{"id":591,"common_name":"dwarf hybrid hyssop","scientific_name":["Agastache KUDOS RED"],"other_name":[],"cycle":"Herbaceous Perennial","watering":"Average","sunlight":["Full sun"],"default_image":{"license":45,"license_name":"Attribution-ShareAlike 3.0 Unported (CC BY-SA 3.0)","license_url":"https:\/\/creativecommons.org\/licenses\/by-sa\/3.0\/deed.en","original_url":"https:\/\/perenual.com\/storage\/species_image\/591_agastache_kudos_red\/og\/1365px-Agastache_27Kudos_Mandarin27_02.jpg","regular_url":"https:\/\/perenual.com\/storage\/species_image\/591_agastache_kudos_red\/regular\/1365px-Agastache_27Kudos_Mandarin27_02.jpg","medium_url":"https:\/\/perenual.com\/storage\/species_image\/591_agastache_kudos_red\/medium\/1365px-Agastache_27Kudos_Mandarin27_02.jpg","small_url":"https:\/\/perenual.com\/storage\/species_image\/591_agastache_kudos_red\/small\/1365px-Agastache_27Kudos_Mandarin27_02.jpg","thumbnail":"https:\/\/perenual.com\/storage\/species_image\/591_agastache_kudos_red\/thumbnail\/1365px-Agastache_27Kudos_Mandarin27_02.jpg"}},{"id":592,"common_name":"yellow giant hyssop","scientific_name":["Agastache nepetoides"],"other_name":[],"cycle":"Herbaceous Perennial","watering":"Average","sunlight":["Sun"," Partial Shade"],"default_image":{"license":45,"license_name":"Attribution-ShareAlike 3.0 Unported (CC BY-SA 3.0)","license_url":"https:\/\/creativecommons.org\/licenses\/by-sa\/3.0\/deed.en","original_url":"https:\/\/perenual.com\/storage\/species_image\/592_agastache_nepetoides\/og\/Agastache_nepetoides_-_Catnip_giant_hyssop.jpg","regular_url":"https:\/\/perenual.com\/storage\/species_image\/592_agastache_nepetoides\/regular\/Agastache_nepetoides_-_Catnip_giant_hyssop.jpg","medium_url":"https:\/\/perenual.com\/storage\/species_image\/592_agastache_nepetoides\/medium\/Agastache_nepetoides_-_Catnip_giant_hyssop.jpg","small_url":"https:\/\/perenual.com\/storage\/species_image\/592_agastache_nepetoides\/small\/Agastache_nepetoides_-_Catnip_giant_hyssop.jpg","thumbnail":"https:\/\/perenual.com\/storage\/species_image\/592_agastache_nepetoides\/thumbnail\/Agastache_nepetoides_-_Catnip_giant_hyssop.jpg"}},{"id":593,"common_name":"giant hyssop","scientific_name":["Agastache 'Pink Pop'"],"other_name":[],"cycle":"Herbaceous Perennial","watering":"Average","sunlight":["Full sun"],"default_image":{"license":4,"license_name":"Attribution License","license_url":"https:\/\/creativecommons.org\/licenses\/by\/2.0\/","original_url":"https:\/\/perenual.com\/storage\/species_image\/593_agastache_pink_pop\/og\/2560788063_19e3db9e4b_b.jpg","regular_url":"https:\/\/perenual.com\/storage\/species_image\/593_agastache_pink_pop\/regular\/2560788063_19e3db9e4b_b.jpg","medium_url":"https:\/\/perenual.com\/storage\/species_image\/593_agastache_pink_pop\/medium\/2560788063_19e3db9e4b_b.jpg","small_url":"https:\/\/perenual.com\/storage\/species_image\/593_agastache_pink_pop\/small\/2560788063_19e3db9e4b_b.jpg","thumbnail":"https:\/\/perenual.com\/storage\/species_image\/593_agastache_pink_pop\/thumbnail\/2560788063_19e3db9e4b_b.jpg"}},{"id":594,"common_name":"giant hyssop","scientific_name":["Agastache 'Purple Haze'"],"other_name":[],"cycle":"Herbaceous Perennial","watering":"Average","sunlight":["Full sun"],"default_image":{"license":5,"license_name":"Attribution-ShareAlike License","license_url":"https:\/\/creativecommons.org\/licenses\/by-sa\/2.0\/","original_url":"https:\/\/perenual.com\/storage\/species_image\/8847_agastache_urticifolia\/og\/52439843123_04567ac0cf_b.jpg","regular_url":"https:\/\/perenual.com\/storage\/species_image\/8847_agastache_urticifolia\/regular\/52439843123_04567ac0cf_b.jpg","medium_url":"https:\/\/perenual.com\/storage\/species_image\/8847_agastache_urticifolia\/medium\/52439843123_04567ac0cf_b.jpg","small_url":"https:\/\/perenual.com\/storage\/species_image\/8847_agastache_urticifolia\/small\/52439843123_04567ac0cf_b.jpg","thumbnail":"https:\/\/perenual.com\/storage\/species_image\/8847_agastache_urticifolia\/thumbnail\/52439843123_04567ac0cf_b.jpg"}},{"id":595,"common_name":"giant hyssop","scientific_name":["Agastache 'Raspberry Summer'"],"other_name":[],"cycle":"Herbaceous Perennial","watering":"Average","sunlight":["Full sun"],"default_image":{"license":45,"license_name":"Attribution-ShareAlike 3.0 Unported (CC BY-SA 3.0)","license_url":"https:\/\/creativecommons.org\/licenses\/by-sa\/3.0\/deed.en","original_url":"https:\/\/perenual.com\/storage\/species_image\/595_agastache_raspberry_summer\/og\/Hyssop_-_Raspberry_Summer.jpg","regular_url":"https:\/\/perenual.com\/storage\/species_image\/595_agastache_raspberry_summer\/regular\/Hyssop_-_Raspberry_Summer.jpg","medium_url":"https:\/\/perenual.com\/storage\/species_image\/595_agastache_raspberry_summer\/medium\/Hyssop_-_Raspberry_Summer.jpg","small_url":"https:\/\/perenual.com\/storage\/species_image\/595_agastache_raspberry_summer\/small\/Hyssop_-_Raspberry_Summer.jpg","thumbnail":"https:\/\/perenual.com\/storage\/species_image\/595_agastache_raspberry_summer\/thumbnail\/Hyssop_-_Raspberry_Summer.jpg"}},{"id":596,"common_name":"purple giant hyssop","scientific_name":["Agastache rugosa 'Golden Jubilee'"],"other_name":[],"cycle":"Herbaceous Perennial","watering":"Average","sunlight":["Full sun","part shade"],"default_image":{"license":45,"license_name":"Attribution-ShareAlike 3.0 Unported (CC BY-SA 3.0)","license_url":"https:\/\/creativecommons.org\/licenses\/by-sa\/3.0\/deed.en","original_url":"https:\/\/perenual.com\/storage\/species_image\/596_agastache_rugosa_golden_jubilee\/og\/Agastache_rugosa_Golden_Jubilee_0zz.jpg","regular_url":"https:\/\/perenual.com\/storage\/species_image\/596_agastache_rugosa_golden_jubilee\/regular\/Agastache_rugosa_Golden_Jubilee_0zz.jpg","medium_url":"https:\/\/perenual.com\/storage\/species_image\/596_agastache_rugosa_golden_jubilee\/medium\/Agastache_rugosa_Golden_Jubilee_0zz.jpg","small_url":"https:\/\/perenual.com\/storage\/species_image\/596_agastache_rugosa_golden_jubilee\/small\/Agastache_rugosa_Golden_Jubilee_0zz.jpg","thumbnail":"https:\/\/perenual.com\/storage\/species_image\/596_agastache_rugosa_golden_jubilee\/thumbnail\/Agastache_rugosa_Golden_Jubilee_0zz.jpg"}},{"id":597,"common_name":"giant hyssop","scientific_name":["Agastache rugosa 'Honey Bee Blue'"],"other_name":[],"cycle":"Herbaceous Perennial","watering":"Average","sunlight":["Full sun","part shade"],"default_image":{"license":4,"license_name":"Attribution License","license_url":"https:\/\/creativecommons.org\/licenses\/by\/2.0\/","original_url":"https:\/\/perenual.com\/storage\/species_image\/597_agastache_rugosa_honey_bee_blue\/og\/51318682563_98b71628e7_b.jpg","regular_url":"https:\/\/perenual.com\/storage\/species_image\/597_agastache_rugosa_honey_bee_blue\/regular\/51318682563_98b71628e7_b.jpg","medium_url":"https:\/\/perenual.com\/storage\/species_image\/597_agastache_rugosa_honey_bee_blue\/medium\/51318682563_98b71628e7_b.jpg","small_url":"https:\/\/perenual.com\/storage\/species_image\/597_agastache_rugosa_honey_bee_blue\/small\/51318682563_98b71628e7_b.jpg","thumbnail":"https:\/\/perenual.com\/storage\/species_image\/597_agastache_rugosa_honey_bee_blue\/thumbnail\/51318682563_98b71628e7_b.jpg"}},{"id":598,"common_name":"threadleaf giant hyssop","scientific_name":["Agastache rupestris"],"other_name":[],"cycle":"Herbaceous Perennial","watering":"Minimum","sunlight":["Full sun","part shade"],"default_image":{"license":44,"license_name":"Attribution-ShareAlike 4.0 International (CC BY-SA 4.0)","license_url":"https:\/\/creativecommons.org\/licenses\/by-sa\/4.0\/","original_url":"https:\/\/perenual.com\/storage\/species_image\/598_agastache_rupestris\/og\/3da7f780caf2716e45e285679faadd78cb13a902.jpg","regular_url":"https:\/\/perenual.com\/storage\/species_image\/598_agastache_rupestris\/regular\/3da7f780caf2716e45e285679faadd78cb13a902.jpg","medium_url":"https:\/\/perenual.com\/storage\/species_image\/598_agastache_rupestris\/medium\/3da7f780caf2716e45e285679faadd78cb13a902.jpg","small_url":"https:\/\/perenual.com\/storage\/species_image\/598_agastache_rupestris\/small\/3da7f780caf2716e45e285679faadd78cb13a902.jpg","thumbnail":"https:\/\/perenual.com\/storage\/species_image\/598_agastache_rupestris\/thumbnail\/3da7f780caf2716e45e285679faadd78cb13a902.jpg"}},{"id":599,"common_name":"threadleaf giant hyssop","scientific_name":["Agastache rupestris 'Apache Sunset'"],"other_name":[],"cycle":"Herbaceous Perennial","watering":"Minimum","sunlight":["Full sun","part shade"],"default_image":{"license":45,"license_name":"Attribution-ShareAlike 3.0 Unported (CC BY-SA 3.0)","license_url":"https:\/\/creativecommons.org\/licenses\/by-sa\/3.0\/deed.en","original_url":"https:\/\/perenual.com\/storage\/species_image\/599_agastache_rupestris_apache_sunset\/og\/400px-Agastache_27Kudos_Mandarin27_01.jpg","regular_url":"https:\/\/perenual.com\/storage\/species_image\/599_agastache_rupestris_apache_sunset\/regular\/400px-Agastache_27Kudos_Mandarin27_01.jpg","medium_url":"https:\/\/perenual.com\/storage\/species_image\/599_agastache_rupestris_apache_sunset\/medium\/400px-Agastache_27Kudos_Mandarin27_01.jpg","small_url":"https:\/\/perenual.com\/storage\/species_image\/599_agastache_rupestris_apache_sunset\/small\/400px-Agastache_27Kudos_Mandarin27_01.jpg","thumbnail":"https:\/\/perenual.com\/storage\/species_image\/599_agastache_rupestris_apache_sunset\/thumbnail\/400px-Agastache_27Kudos_Mandarin27_01.jpg"}},{"id":600,"common_name":"giant hyssop","scientific_name":["Agastache 'Summer Breeze'"],"other_name":[],"cycle":"Herbaceous Perennial","watering":"Minimum","sunlight":["Full sun"],"default_image":{"license":5,"license_name":"Attribution-ShareAlike License","license_url":"https:\/\/creativecommons.org\/licenses\/by-sa\/2.0\/","original_url":"https:\/\/perenual.com\/storage\/species_image\/2_abies_alba_pyramidalis\/og\/49255769768_df55596553_b.jpg","regular_url":"https:\/\/perenual.com\/storage\/species_image\/2_abies_alba_pyramidalis\/regular\/49255769768_df55596553_b.jpg","medium_url":"https:\/\/perenual.com\/storage\/species_image\/2_abies_alba_pyramidalis\/medium\/49255769768_df55596553_b.jpg","small_url":"https:\/\/perenual.com\/storage\/species_image\/2_abies_alba_pyramidalis\/small\/49255769768_df55596553_b.jpg","thumbnail":"https:\/\/perenual.com\/storage\/species_image\/2_abies_alba_pyramidalis\/thumbnail\/49255769768_df55596553_b.jpg"}}],"to":600,"per_page":30,"current_page":20,"from":571,"last_page":200,"total":6000}