{"data":[{"id":5521,"common_name":"sensitive fern","scientific_name":["Onoclea sensibilis"],"other_name":[],"cycle":"Perennial","watering":"Frequent","sunlight":["Part shade","full shade"],"default_image":{"license":5,"license_name":"Attribution-ShareAlike License","license_url":"https:\/\/creativecommons.org\/licenses\/by-sa\/2.0\/","original_url":"https:\/\/perenual.com\/storage\/species_image\/2_abies_alba_pyramidalis\/og\/49255769768_df55596553_b.jpg","regular_url":"https:\/\/perenual.com\/storage\/species_image\/2_abies_alba_pyramidalis\/regular\/49255769768_df55596553_b.jpg","medium_url":"https:\/\/perenual.com\/storage\/species_image\/2_abies_alba_pyramidalis\/medium\/49255769768_df55596553_b.jpg","small_url":"https:\/\/perenual.com\/storage\/species_image\/2_abies_alba_pyramidalis\/small\/49255769768_df55596553_b.jpg","thumbnail":"https:\/\/perenual.com\/storage\/species_image\/2_abies_alba_pyramidalis\/thumbnail\/49255769768_df55596553_b.jpg"}},{"id":5522,"common_name":"false gromwell","scientific_name":["Onosmodium molle"],"other_name":[],"cycle":"Herbaceous Perennial","watering":"Minimum","sunlight":["Full sun","part shade"],"default_image":{"license":5,"license_name":"Attribution-ShareAlike License","license_url":"https:\/\/creativecommons.org\/licenses\/by-sa\/2.0\/","original_url":"https:\/\/perenual.com\/storage\/species_image\/5522_onosmodium_molle\/og\/27864458615_441a162e89_b.jpg","regular_url":"https:\/\/perenual.com\/storage\/species_image\/5522_onosmodium_molle\/regular\/27864458615_441a162e89_b.jpg","medium_url":"https:\/\/perenual.com\/storage\/species_image\/5522_onosmodium_molle\/medium\/27864458615_441a162e89_b.jpg","small_url":"https:\/\/perenual.com\/storage\/species_image\/5522_onosmodium_molle\/small\/27864458615_441a162e89_b.jpg","thumbnail":"https:\/\/perenual.com\/storage\/species_image\/5522_onosmodium_molle\/thumbnail\/27864458615_441a162e89_b.jpg"}},{"id":5523,"common_name":"false gromwell","scientific_name":["Onosmodium molle subsp. occidentale"],"other_name":[],"cycle":"Herbaceous Perennial","watering":"Minimum","sunlight":["Full sun","part shade"],"default_image":{"license":5,"license_name":"Attribution-ShareAlike License","license_url":"https:\/\/creativecommons.org\/licenses\/by-sa\/2.0\/","original_url":"https:\/\/perenual.com\/storage\/species_image\/2_abies_alba_pyramidalis\/og\/49255769768_df55596553_b.jpg","regular_url":"https:\/\/perenual.com\/storage\/species_image\/2_abies_alba_pyramidalis\/regular\/49255769768_df55596553_b.jpg","medium_url":"https:\/\/perenual.com\/storage\/species_image\/2_abies_alba_pyramidalis\/medium\/49255769768_df55596553_b.jpg","small_url":"https:\/\/perenual.com\/storage\/species_image\/2_abies_alba_pyramidalis\/small\/49255769768_df55596553_b.jpg","thumbnail":"https:\/\/perenual.com\/storage\/species_image\/2_abies_alba_pyramidalis\/thumbnail\/49255769768_df55596553_b.jpg"}},{"id":5524,"common_name":"dwarf lilyturf","scientific_name":["Ophiopogon japonicus"],"other_name":[],"cycle":"Herbaceous Perennial","watering":"Average","sunlight":["Part shade","full shade"],"default_image":{"license":4,"license_name":"Attribution License","license_url":"https:\/\/creativecommons.org\/licenses\/by\/2.0\/","original_url":"https:\/\/perenual.com\/storage\/species_image\/5524_ophiopogon_japonicus\/og\/24444091694_b038dc273c_b.jpg","regular_url":"https:\/\/perenual.com\/storage\/species_image\/5524_ophiopogon_japonicus\/regular\/24444091694_b038dc273c_b.jpg","medium_url":"https:\/\/perenual.com\/storage\/species_image\/5524_ophiopogon_japonicus\/medium\/24444091694_b038dc273c_b.jpg","small_url":"https:\/\/perenual.com\/storage\/species_image\/5524_ophiopogon_japonicus\/small\/24444091694_b038dc273c_b.jpg","thumbnail":"https:\/\/perenual.com\/storage\/species_image\/5524_ophiopogon_japonicus\/thumbnail\/24444091694_b038dc273c_b.jpg"}},{"id":5525,"common_name":"mondo grass","scientific_name":["Ophiopogon japonicus 'Gyoku-ryu'"],"other_name":[],"cycle":"Perennial","watering":"Average","sunlight":["Part shade","full shade"],"default_image":{"license":5,"license_name":"Attribution-ShareAlike License","license_url":"https:\/\/creativecommons.org\/licenses\/by-sa\/2.0\/","original_url":"https:\/\/perenual.com\/storage\/species_image\/5525_ophiopogon_japonicus_gyoku-ryu\/og\/27783959252_3540e34003_b.jpg","regular_url":"https:\/\/perenual.com\/storage\/species_image\/5525_ophiopogon_japonicus_gyoku-ryu\/regular\/27783959252_3540e34003_b.jpg","medium_url":"https:\/\/perenual.com\/storage\/species_image\/5525_ophiopogon_japonicus_gyoku-ryu\/medium\/27783959252_3540e34003_b.jpg","small_url":"https:\/\/perenual.com\/storage\/species_image\/5525_ophiopogon_japonicus_gyoku-ryu\/small\/27783959252_3540e34003_b.jpg","thumbnail":"https:\/\/perenual.com\/storage\/species_image\/5525_ophiopogon_japonicus_gyoku-ryu\/thumbnail\/27783959252_3540e34003_b.jpg"}},{"id":5526,"common_name":"mondo grass","scientific_name":["Ophiopogon japonicus 'Variegatus'"],"other_name":[],"cycle":"Herbaceous Perennial","watering":"Average","sunlight":["Part shade","full shade"],"default_image":{"license":45,"license_name":"Attribution-ShareAlike 3.0 Unported (CC BY-SA 3.0)","license_url":"https:\/\/creativecommons.org\/licenses\/by-sa\/3.0\/deed.en","original_url":"https:\/\/perenual.com\/storage\/species_image\/5526_ophiopogon_japonicus_variegatus\/og\/Ophiopogon_intermedius_19zz.jpg","regular_url":"https:\/\/perenual.com\/storage\/species_image\/5526_ophiopogon_japonicus_variegatus\/regular\/Ophiopogon_intermedius_19zz.jpg","medium_url":"https:\/\/perenual.com\/storage\/species_image\/5526_ophiopogon_japonicus_variegatus\/medium\/Ophiopogon_intermedius_19zz.jpg","small_url":"https:\/\/perenual.com\/storage\/species_image\/5526_ophiopogon_japonicus_variegatus\/small\/Ophiopogon_intermedius_19zz.jpg","thumbnail":"https:\/\/perenual.com\/storage\/species_image\/5526_ophiopogon_japonicus_variegatus\/thumbnail\/Ophiopogon_intermedius_19zz.jpg"}},{"id":5527,"common_name":"mondo grass","scientific_name":["Ophiopogon planiscapus"],"other_name":[],"cycle":"Herbaceous Perennial","watering":"Average","sunlight":["Full sun","part shade"],"default_image":{"license":4,"license_name":"Attribution License","license_url":"https:\/\/creativecommons.org\/licenses\/by\/2.0\/","original_url":"https:\/\/perenual.com\/storage\/species_image\/5527_ophiopogon_planiscapus\/og\/24899578045_8422c77e91_b.jpg","regular_url":"https:\/\/perenual.com\/storage\/species_image\/5527_ophiopogon_planiscapus\/regular\/24899578045_8422c77e91_b.jpg","medium_url":"https:\/\/perenual.com\/storage\/species_image\/5527_ophiopogon_planiscapus\/medium\/24899578045_8422c77e91_b.jpg","small_url":"https:\/\/perenual.com\/storage\/species_image\/5527_ophiopogon_planiscapus\/small\/24899578045_8422c77e91_b.jpg","thumbnail":"https:\/\/perenual.com\/storage\/species_image\/5527_ophiopogon_planiscapus\/thumbnail\/24899578045_8422c77e91_b.jpg"}},{"id":5528,"common_name":"mondo grass","scientific_name":["Ophiopogon planiscapus 'Nigrescens'"],"other_name":[],"cycle":"Herbaceous Perennial","watering":"Average","sunlight":["Filtered shade"," Full sun"],"default_image":{"license":5,"license_name":"Attribution-ShareAlike License","license_url":"https:\/\/creativecommons.org\/licenses\/by-sa\/2.0\/","original_url":"https:\/\/perenual.com\/storage\/species_image\/5528_ophiopogon_planiscapus_nigrescens\/og\/2963469160_74148b259a_b.jpg","regular_url":"https:\/\/perenual.com\/storage\/species_image\/5528_ophiopogon_planiscapus_nigrescens\/regular\/2963469160_74148b259a_b.jpg","medium_url":"https:\/\/perenual.com\/storage\/species_image\/5528_ophiopogon_planiscapus_nigrescens\/medium\/2963469160_74148b259a_b.jpg","small_url":"https:\/\/perenual.com\/storage\/species_image\/5528_ophiopogon_planiscapus_nigrescens\/small\/2963469160_74148b259a_b.jpg","thumbnail":"https:\/\/perenual.com\/storage\/species_image\/5528_ophiopogon_planiscapus_nigrescens\/thumbnail\/2963469160_74148b259a_b.jpg"}},{"id":5529,"common_name":"prickly-pear","scientific_name":["Opuntia aurea 'Coombe's Winter Glow'"],"other_name":[],"cycle":"Herbaceous Perennial","watering":"Minimum","sunlight":["Full sun"],"default_image":{"license":45,"license_name":"Attribution-ShareAlike 3.0 Unported (CC BY-SA 3.0)","license_url":"https:\/\/creativecommons.org\/licenses\/by-sa\/3.0\/deed.en","original_url":"https:\/\/perenual.com\/storage\/species_image\/5529_opuntia_aurea_coombes_winter_glow\/og\/Opuntia_aurea_kz2.jpg","regular_url":"https:\/\/perenual.com\/storage\/species_image\/5529_opuntia_aurea_coombes_winter_glow\/regular\/Opuntia_aurea_kz2.jpg","medium_url":"https:\/\/perenual.com\/storage\/species_image\/5529_opuntia_aurea_coombes_winter_glow\/medium\/Opuntia_aurea_kz2.jpg","small_url":"https:\/\/perenual.com\/storage\/species_image\/5529_opuntia_aurea_coombes_winter_glow\/small\/Opuntia_aurea_kz2.jpg","thumbnail":"https:\/\/perenual.com\/storage\/species_image\/5529_opuntia_aurea_coombes_winter_glow\/thumbnail\/Opuntia_aurea_kz2.jpg"}},{"id":5530,"common_name":"prickly-pear","scientific_name":["Opuntia compressa"],"other_name":[],"cycle":"Herbaceous Perennial","watering":"Minimum","sunlight":["Full sun"],"default_image":{"license":5,"license_name":"Attribution-ShareAlike License","license_url":"https:\/\/creativecommons.org\/licenses\/by-sa\/2.0\/","original_url":"https:\/\/perenual.com\/storage\/species_image\/2_abies_alba_pyramidalis\/og\/49255769768_df55596553_b.jpg","regular_url":"https:\/\/perenual.com\/storage\/species_image\/2_abies_alba_pyramidalis\/regular\/49255769768_df55596553_b.jpg","medium_url":"https:\/\/perenual.com\/storage\/species_image\/2_abies_alba_pyramidalis\/medium\/49255769768_df55596553_b.jpg","small_url":"https:\/\/perenual.com\/storage\/species_image\/2_abies_alba_pyramidalis\/small\/49255769768_df55596553_b.jpg","thumbnail":"https:\/\/perenual.com\/storage\/species_image\/2_abies_alba_pyramidalis\/thumbnail\/49255769768_df55596553_b.jpg"}},{"id":5531,"common_name":"prickly-pear","scientific_name":["Opuntia humifusa"],"other_name":[],"cycle":"Herbaceous Perennial","watering":"Minimum","sunlight":["Full sun"],"default_image":{"license":5,"license_name":"Attribution-ShareAlike License","license_url":"https:\/\/creativecommons.org\/licenses\/by-sa\/2.0\/","original_url":"https:\/\/perenual.com\/storage\/species_image\/2_abies_alba_pyramidalis\/og\/49255769768_df55596553_b.jpg","regular_url":"https:\/\/perenual.com\/storage\/species_image\/2_abies_alba_pyramidalis\/regular\/49255769768_df55596553_b.jpg","medium_url":"https:\/\/perenual.com\/storage\/species_image\/2_abies_alba_pyramidalis\/medium\/49255769768_df55596553_b.jpg","small_url":"https:\/\/perenual.com\/storage\/species_image\/2_abies_alba_pyramidalis\/small\/49255769768_df55596553_b.jpg","thumbnail":"https:\/\/perenual.com\/storage\/species_image\/2_abies_alba_pyramidalis\/thumbnail\/49255769768_df55596553_b.jpg"}},{"id":5532,"common_name":"plains prickly pear","scientific_name":["Opuntia macrorhiza"],"other_name":[],"cycle":"Herbaceous Perennial","watering":"Minimum","sunlight":["Full sun"],"default_image":{"license":5,"license_name":"Attribution-ShareAlike License","license_url":"https:\/\/creativecommons.org\/licenses\/by-sa\/2.0\/","original_url":"https:\/\/perenual.com\/storage\/species_image\/2_abies_alba_pyramidalis\/og\/49255769768_df55596553_b.jpg","regular_url":"https:\/\/perenual.com\/storage\/species_image\/2_abies_alba_pyramidalis\/regular\/49255769768_df55596553_b.jpg","medium_url":"https:\/\/perenual.com\/storage\/species_image\/2_abies_alba_pyramidalis\/medium\/49255769768_df55596553_b.jpg","small_url":"https:\/\/perenual.com\/storage\/species_image\/2_abies_alba_pyramidalis\/small\/49255769768_df55596553_b.jpg","thumbnail":"https:\/\/perenual.com\/storage\/species_image\/2_abies_alba_pyramidalis\/thumbnail\/49255769768_df55596553_b.jpg"}},{"id":5533,"common_name":"oregano","scientific_name":["Origanum 'Bristol Cross'"],"other_name":[],"cycle":"Herbaceous Perennial","watering":"Minimum","sunlight":["Full sun"],"default_image":{"license":5,"license_name":"Attribution-ShareAlike License","license_url":"https:\/\/creativecommons.org\/licenses\/by-sa\/2.0\/","original_url":"https:\/\/perenual.com\/storage\/species_image\/2_abies_alba_pyramidalis\/og\/49255769768_df55596553_b.jpg","regular_url":"https:\/\/perenual.com\/storage\/species_image\/2_abies_alba_pyramidalis\/regular\/49255769768_df55596553_b.jpg","medium_url":"https:\/\/perenual.com\/storage\/species_image\/2_abies_alba_pyramidalis\/medium\/49255769768_df55596553_b.jpg","small_url":"https:\/\/perenual.com\/storage\/species_image\/2_abies_alba_pyramidalis\/small\/49255769768_df55596553_b.jpg","thumbnail":"https:\/\/perenual.com\/storage\/species_image\/2_abies_alba_pyramidalis\/thumbnail\/49255769768_df55596553_b.jpg"}},{"id":5534,"common_name":"dittany of Crete","scientific_name":["Origanum dictamnus"],"other_name":[],"cycle":"Herbaceous Perennial","watering":"Minimum","sunlight":["Full sun"],"default_image":{"license":4,"license_name":"Attribution License","license_url":"https:\/\/creativecommons.org\/licenses\/by\/2.0\/","original_url":"https:\/\/perenual.com\/storage\/species_image\/5534_origanum_dictamnus\/og\/7744824422_b20251dab4_b.jpg","regular_url":"https:\/\/perenual.com\/storage\/species_image\/5534_origanum_dictamnus\/regular\/7744824422_b20251dab4_b.jpg","medium_url":"https:\/\/perenual.com\/storage\/species_image\/5534_origanum_dictamnus\/medium\/7744824422_b20251dab4_b.jpg","small_url":"https:\/\/perenual.com\/storage\/species_image\/5534_origanum_dictamnus\/small\/7744824422_b20251dab4_b.jpg","thumbnail":"https:\/\/perenual.com\/storage\/species_image\/5534_origanum_dictamnus\/thumbnail\/7744824422_b20251dab4_b.jpg"}},{"id":5535,"common_name":"oregano","scientific_name":["Origanum 'Drops of Jupiter'"],"other_name":[],"cycle":"Herbaceous Perennial","watering":"Minimum","sunlight":["Full sun"],"default_image":{"license":5,"license_name":"Attribution-ShareAlike License","license_url":"https:\/\/creativecommons.org\/licenses\/by-sa\/2.0\/","original_url":"https:\/\/perenual.com\/storage\/species_image\/5535_origanum_drops_of_jupiter\/og\/50224726181_ab56b48f64_b.jpg","regular_url":"https:\/\/perenual.com\/storage\/species_image\/5535_origanum_drops_of_jupiter\/regular\/50224726181_ab56b48f64_b.jpg","medium_url":"https:\/\/perenual.com\/storage\/species_image\/5535_origanum_drops_of_jupiter\/medium\/50224726181_ab56b48f64_b.jpg","small_url":"https:\/\/perenual.com\/storage\/species_image\/5535_origanum_drops_of_jupiter\/small\/50224726181_ab56b48f64_b.jpg","thumbnail":"https:\/\/perenual.com\/storage\/species_image\/5535_origanum_drops_of_jupiter\/thumbnail\/50224726181_ab56b48f64_b.jpg"}},{"id":5536,"common_name":"oregano","scientific_name":["Origanum 'Hot and Spicy'"],"other_name":[],"cycle":"Herbaceous Perennial","watering":"Minimum","sunlight":["Full sun"],"default_image":{"license":5,"license_name":"Attribution-ShareAlike License","license_url":"https:\/\/creativecommons.org\/licenses\/by-sa\/2.0\/","original_url":"https:\/\/perenual.com\/storage\/species_image\/2_abies_alba_pyramidalis\/og\/49255769768_df55596553_b.jpg","regular_url":"https:\/\/perenual.com\/storage\/species_image\/2_abies_alba_pyramidalis\/regular\/49255769768_df55596553_b.jpg","medium_url":"https:\/\/perenual.com\/storage\/species_image\/2_abies_alba_pyramidalis\/medium\/49255769768_df55596553_b.jpg","small_url":"https:\/\/perenual.com\/storage\/species_image\/2_abies_alba_pyramidalis\/small\/49255769768_df55596553_b.jpg","thumbnail":"https:\/\/perenual.com\/storage\/species_image\/2_abies_alba_pyramidalis\/thumbnail\/49255769768_df55596553_b.jpg"}},{"id":5537,"common_name":"oregano","scientific_name":["Origanum 'Kent Beauty'"],"other_name":[],"cycle":"Herbaceous Perennial","watering":"Minimum","sunlight":["Full sun"],"default_image":{"license":5,"license_name":"Attribution-ShareAlike License","license_url":"https:\/\/creativecommons.org\/licenses\/by-sa\/2.0\/","original_url":"https:\/\/perenual.com\/storage\/species_image\/2_abies_alba_pyramidalis\/og\/49255769768_df55596553_b.jpg","regular_url":"https:\/\/perenual.com\/storage\/species_image\/2_abies_alba_pyramidalis\/regular\/49255769768_df55596553_b.jpg","medium_url":"https:\/\/perenual.com\/storage\/species_image\/2_abies_alba_pyramidalis\/medium\/49255769768_df55596553_b.jpg","small_url":"https:\/\/perenual.com\/storage\/species_image\/2_abies_alba_pyramidalis\/small\/49255769768_df55596553_b.jpg","thumbnail":"https:\/\/perenual.com\/storage\/species_image\/2_abies_alba_pyramidalis\/thumbnail\/49255769768_df55596553_b.jpg"}},{"id":5538,"common_name":"ornamental oregano","scientific_name":["Origanum laevigatum 'Herrenhausen'"],"other_name":[],"cycle":"Herbaceous Perennial","watering":"Minimum","sunlight":["Full sun"],"default_image":{"license":45,"license_name":"Attribution-ShareAlike 3.0 Unported (CC BY-SA 3.0)","license_url":"https:\/\/creativecommons.org\/licenses\/by-sa\/3.0\/deed.en","original_url":"https:\/\/perenual.com\/storage\/species_image\/5538_origanum_laevigatum_herrenhausen\/og\/800px-Origanum_vulgare_2012_Saratov.jpg","regular_url":"https:\/\/perenual.com\/storage\/species_image\/5538_origanum_laevigatum_herrenhausen\/regular\/800px-Origanum_vulgare_2012_Saratov.jpg","medium_url":"https:\/\/perenual.com\/storage\/species_image\/5538_origanum_laevigatum_herrenhausen\/medium\/800px-Origanum_vulgare_2012_Saratov.jpg","small_url":"https:\/\/perenual.com\/storage\/species_image\/5538_origanum_laevigatum_herrenhausen\/small\/800px-Origanum_vulgare_2012_Saratov.jpg","thumbnail":"https:\/\/perenual.com\/storage\/species_image\/5538_origanum_laevigatum_herrenhausen\/thumbnail\/800px-Origanum_vulgare_2012_Saratov.jpg"}},{"id":5539,"common_name":"marjoram","scientific_name":["Origanum laevigatum 'Hopleys'"],"other_name":[],"cycle":"Herbaceous Perennial","watering":"Minimum","sunlight":["Full sun"],"default_image":{"license":5,"license_name":"Attribution-ShareAlike License","license_url":"https:\/\/creativecommons.org\/licenses\/by-sa\/2.0\/","original_url":"https:\/\/perenual.com\/storage\/species_image\/2_abies_alba_pyramidalis\/og\/49255769768_df55596553_b.jpg","regular_url":"https:\/\/perenual.com\/storage\/species_image\/2_abies_alba_pyramidalis\/regular\/49255769768_df55596553_b.jpg","medium_url":"https:\/\/perenual.com\/storage\/species_image\/2_abies_alba_pyramidalis\/medium\/49255769768_df55596553_b.jpg","small_url":"https:\/\/perenual.com\/storage\/species_image\/2_abies_alba_pyramidalis\/small\/49255769768_df55596553_b.jpg","thumbnail":"https:\/\/perenual.com\/storage\/species_image\/2_abies_alba_pyramidalis\/thumbnail\/49255769768_df55596553_b.jpg"}},{"id":5540,"common_name":"marjoram","scientific_name":["Origanum laevigatum 'Silver Anniversary'"],"other_name":[],"cycle":"Herbaceous Perennial","watering":"Minimum","sunlight":["Full sun"],"default_image":{"license":45,"license_name":"Attribution-ShareAlike 3.0 Unported (CC BY-SA 3.0)","license_url":"https:\/\/creativecommons.org\/licenses\/by-sa\/3.0\/deed.en","original_url":"https:\/\/perenual.com\/storage\/species_image\/5540_origanum_laevigatum_silver_anniversary\/og\/Wild_Marjoram_28Origanum_vulgare29_28489779171629.jpg","regular_url":"https:\/\/perenual.com\/storage\/species_image\/5540_origanum_laevigatum_silver_anniversary\/regular\/Wild_Marjoram_28Origanum_vulgare29_28489779171629.jpg","medium_url":"https:\/\/perenual.com\/storage\/species_image\/5540_origanum_laevigatum_silver_anniversary\/medium\/Wild_Marjoram_28Origanum_vulgare29_28489779171629.jpg","small_url":"https:\/\/perenual.com\/storage\/species_image\/5540_origanum_laevigatum_silver_anniversary\/small\/Wild_Marjoram_28Origanum_vulgare29_28489779171629.jpg","thumbnail":"https:\/\/perenual.com\/storage\/species_image\/5540_origanum_laevigatum_silver_anniversary\/thumbnail\/Wild_Marjoram_28Origanum_vulgare29_28489779171629.jpg"}},{"id":5541,"common_name":"marjoram","scientific_name":["Origanum libanoticum"],"other_name":[],"cycle":"Herbaceous Perennial","watering":"Minimum","sunlight":["Full sun"],"default_image":{"license":4,"license_name":"Attribution License","license_url":"https:\/\/creativecommons.org\/licenses\/by\/2.0\/","original_url":"https:\/\/perenual.com\/storage\/species_image\/5541_origanum_libanoticum\/og\/10019531243_b510aa36fd_b.jpg","regular_url":"https:\/\/perenual.com\/storage\/species_image\/5541_origanum_libanoticum\/regular\/10019531243_b510aa36fd_b.jpg","medium_url":"https:\/\/perenual.com\/storage\/species_image\/5541_origanum_libanoticum\/medium\/10019531243_b510aa36fd_b.jpg","small_url":"https:\/\/perenual.com\/storage\/species_image\/5541_origanum_libanoticum\/small\/10019531243_b510aa36fd_b.jpg","thumbnail":"https:\/\/perenual.com\/storage\/species_image\/5541_origanum_libanoticum\/thumbnail\/10019531243_b510aa36fd_b.jpg"}},{"id":5542,"common_name":"sweet marjoram","scientific_name":["Origanum majorana"],"other_name":[],"cycle":"Herbaceous Perennial","watering":"Minimum","sunlight":["Full sun"],"default_image":{"license":4,"license_name":"Attribution License","license_url":"https:\/\/creativecommons.org\/licenses\/by\/2.0\/","original_url":"https:\/\/perenual.com\/storage\/species_image\/5542_origanum_majorana\/og\/25294866035_333393fb3c_b.jpg","regular_url":"https:\/\/perenual.com\/storage\/species_image\/5542_origanum_majorana\/regular\/25294866035_333393fb3c_b.jpg","medium_url":"https:\/\/perenual.com\/storage\/species_image\/5542_origanum_majorana\/medium\/25294866035_333393fb3c_b.jpg","small_url":"https:\/\/perenual.com\/storage\/species_image\/5542_origanum_majorana\/small\/25294866035_333393fb3c_b.jpg","thumbnail":"https:\/\/perenual.com\/storage\/species_image\/5542_origanum_majorana\/thumbnail\/25294866035_333393fb3c_b.jpg"}},{"id":5543,"common_name":"golden oregano","scientific_name":["Origanum majorana 'Aurea'"],"other_name":[],"cycle":"Herbaceous Perennial","watering":"Minimum","sunlight":["Full sun"],"default_image":{"license":45,"license_name":"Attribution-ShareAlike 3.0 Unported (CC BY-SA 3.0)","license_url":"https:\/\/creativecommons.org\/licenses\/by-sa\/3.0\/deed.en","original_url":"https:\/\/perenual.com\/storage\/species_image\/5543_origanum_majorana_aurea\/og\/Starr_070906-8858_Origanum_majorana.jpg","regular_url":"https:\/\/perenual.com\/storage\/species_image\/5543_origanum_majorana_aurea\/regular\/Starr_070906-8858_Origanum_majorana.jpg","medium_url":"https:\/\/perenual.com\/storage\/species_image\/5543_origanum_majorana_aurea\/medium\/Starr_070906-8858_Origanum_majorana.jpg","small_url":"https:\/\/perenual.com\/storage\/species_image\/5543_origanum_majorana_aurea\/small\/Starr_070906-8858_Origanum_majorana.jpg","thumbnail":"https:\/\/perenual.com\/storage\/species_image\/5543_origanum_majorana_aurea\/thumbnail\/Starr_070906-8858_Origanum_majorana.jpg"}},{"id":5544,"common_name":"marjoram","scientific_name":["Origanum 'Norton Gold'"],"other_name":[],"cycle":"Herbaceous Perennial","watering":"Minimum","sunlight":["Full sun"],"default_image":{"license":45,"license_name":"Attribution-ShareAlike 3.0 Unported (CC BY-SA 3.0)","license_url":"https:\/\/creativecommons.org\/licenses\/by-sa\/3.0\/deed.en","original_url":"https:\/\/perenual.com\/storage\/species_image\/5544_origanum_norton_gold\/og\/Origanum_vulgare_Aureum_BotGardBln07122011A.jpg","regular_url":"https:\/\/perenual.com\/storage\/species_image\/5544_origanum_norton_gold\/regular\/Origanum_vulgare_Aureum_BotGardBln07122011A.jpg","medium_url":"https:\/\/perenual.com\/storage\/species_image\/5544_origanum_norton_gold\/medium\/Origanum_vulgare_Aureum_BotGardBln07122011A.jpg","small_url":"https:\/\/perenual.com\/storage\/species_image\/5544_origanum_norton_gold\/small\/Origanum_vulgare_Aureum_BotGardBln07122011A.jpg","thumbnail":"https:\/\/perenual.com\/storage\/species_image\/5544_origanum_norton_gold\/thumbnail\/Origanum_vulgare_Aureum_BotGardBln07122011A.jpg"}},{"id":5545,"common_name":"marjoram","scientific_name":["Origanum 'Rosenkuppel'"],"other_name":[],"cycle":"Herbaceous Perennial","watering":"Minimum","sunlight":["Full sun"],"default_image":{"license":5,"license_name":"Attribution-ShareAlike License","license_url":"https:\/\/creativecommons.org\/licenses\/by-sa\/2.0\/","original_url":"https:\/\/perenual.com\/storage\/species_image\/5545_origanum_rosenkuppel\/og\/36858498520_a7a63ec238_b.jpg","regular_url":"https:\/\/perenual.com\/storage\/species_image\/5545_origanum_rosenkuppel\/regular\/36858498520_a7a63ec238_b.jpg","medium_url":"https:\/\/perenual.com\/storage\/species_image\/5545_origanum_rosenkuppel\/medium\/36858498520_a7a63ec238_b.jpg","small_url":"https:\/\/perenual.com\/storage\/species_image\/5545_origanum_rosenkuppel\/small\/36858498520_a7a63ec238_b.jpg","thumbnail":"https:\/\/perenual.com\/storage\/species_image\/5545_origanum_rosenkuppel\/thumbnail\/36858498520_a7a63ec238_b.jpg"}},{"id":5546,"common_name":"bible hyssop","scientific_name":["Origanum syriacum"],"other_name":[],"cycle":"Herbaceous Perennial","watering":"Minimum","sunlight":["Full sun"],"default_image":{"license":5,"license_name":"Attribution-ShareAlike License","license_url":"https:\/\/creativecommons.org\/licenses\/by-sa\/2.0\/","original_url":"https:\/\/perenual.com\/storage\/species_image\/2_abies_alba_pyramidalis\/og\/49255769768_df55596553_b.jpg","regular_url":"https:\/\/perenual.com\/storage\/species_image\/2_abies_alba_pyramidalis\/regular\/49255769768_df55596553_b.jpg","medium_url":"https:\/\/perenual.com\/storage\/species_image\/2_abies_alba_pyramidalis\/medium\/49255769768_df55596553_b.jpg","small_url":"https:\/\/perenual.com\/storage\/species_image\/2_abies_alba_pyramidalis\/small\/49255769768_df55596553_b.jpg","thumbnail":"https:\/\/perenual.com\/storage\/species_image\/2_abies_alba_pyramidalis\/thumbnail\/49255769768_df55596553_b.jpg"}},{"id":5547,"common_name":"oregano","scientific_name":["Origanum vulgare"],"other_name":[],"cycle":"Herbaceous Perennial","watering":"Minimum","sunlight":["Full sun"," Part sun\/part shade"],"default_image":{"license":4,"license_name":"Attribution License","license_url":"https:\/\/creativecommons.org\/licenses\/by\/2.0\/","original_url":"https:\/\/perenual.com\/storage\/species_image\/5547_origanum_vulgare\/og\/52208807807_723fec5591_b.jpg","regular_url":"https:\/\/perenual.com\/storage\/species_image\/5547_origanum_vulgare\/regular\/52208807807_723fec5591_b.jpg","medium_url":"https:\/\/perenual.com\/storage\/species_image\/5547_origanum_vulgare\/medium\/52208807807_723fec5591_b.jpg","small_url":"https:\/\/perenual.com\/storage\/species_image\/5547_origanum_vulgare\/small\/52208807807_723fec5591_b.jpg","thumbnail":"https:\/\/perenual.com\/storage\/species_image\/5547_origanum_vulgare\/thumbnail\/52208807807_723fec5591_b.jpg"}},{"id":5548,"common_name":"oregano","scientific_name":["Origanum vulgare 'Aureum'"],"other_name":[],"cycle":"Herbaceous Perennial","watering":"Minimum","sunlight":["Full sun"," Part sun\/part shade"],"default_image":{"license":5,"license_name":"Attribution-ShareAlike License","license_url":"https:\/\/creativecommons.org\/licenses\/by-sa\/2.0\/","original_url":"https:\/\/perenual.com\/storage\/species_image\/2_abies_alba_pyramidalis\/og\/49255769768_df55596553_b.jpg","regular_url":"https:\/\/perenual.com\/storage\/species_image\/2_abies_alba_pyramidalis\/regular\/49255769768_df55596553_b.jpg","medium_url":"https:\/\/perenual.com\/storage\/species_image\/2_abies_alba_pyramidalis\/medium\/49255769768_df55596553_b.jpg","small_url":"https:\/\/perenual.com\/storage\/species_image\/2_abies_alba_pyramidalis\/small\/49255769768_df55596553_b.jpg","thumbnail":"https:\/\/perenual.com\/storage\/species_image\/2_abies_alba_pyramidalis\/thumbnail\/49255769768_df55596553_b.jpg"}},{"id":5549,"common_name":"oregano","scientific_name":["Origanum vulgare 'Aureum Crispum'"],"other_name":[],"cycle":"Herbaceous Perennial","watering":"Minimum","sunlight":["Full sun"," Part sun\/part shade"],"default_image":{"license":45,"license_name":"Attribution-ShareAlike 3.0 Unported (CC BY-SA 3.0)","license_url":"https:\/\/creativecommons.org\/licenses\/by-sa\/3.0\/deed.en","original_url":"https:\/\/perenual.com\/storage\/species_image\/5549_origanum_vulgare_aureum_crispum\/og\/Origanum_vulgare_aureum_0zz.jpg","regular_url":"https:\/\/perenual.com\/storage\/species_image\/5549_origanum_vulgare_aureum_crispum\/regular\/Origanum_vulgare_aureum_0zz.jpg","medium_url":"https:\/\/perenual.com\/storage\/species_image\/5549_origanum_vulgare_aureum_crispum\/medium\/Origanum_vulgare_aureum_0zz.jpg","small_url":"https:\/\/perenual.com\/storage\/species_image\/5549_origanum_vulgare_aureum_crispum\/small\/Origanum_vulgare_aureum_0zz.jpg","thumbnail":"https:\/\/perenual.com\/storage\/species_image\/5549_origanum_vulgare_aureum_crispum\/thumbnail\/Origanum_vulgare_aureum_0zz.jpg"}},{"id":5550,"common_name":"oregano","scientific_name":["Origanum vulgare 'Jim Best'"],"other_name":[],"cycle":"Herbaceous Perennial","watering":"Minimum","sunlight":["Full sun"," Part sun\/part shade"],"default_image":{"license":5,"license_name":"Attribution-ShareAlike License","license_url":"https:\/\/creativecommons.org\/licenses\/by-sa\/2.0\/","original_url":"https:\/\/perenual.com\/storage\/species_image\/5550_origanum_vulgare_jim_best\/og\/43658295502_32b1d990eb_b.jpg","regular_url":"https:\/\/perenual.com\/storage\/species_image\/5550_origanum_vulgare_jim_best\/regular\/43658295502_32b1d990eb_b.jpg","medium_url":"https:\/\/perenual.com\/storage\/species_image\/5550_origanum_vulgare_jim_best\/medium\/43658295502_32b1d990eb_b.jpg","small_url":"https:\/\/perenual.com\/storage\/species_image\/5550_origanum_vulgare_jim_best\/small\/43658295502_32b1d990eb_b.jpg","thumbnail":"https:\/\/perenual.com\/storage\/species_image\/5550_origanum_vulgare_jim_best\/thumbnail\/43658295502_32b1d990eb_b.jpg"}}],"to":5550,"per_page":30,"current_page":185,"from":5521,"last_page":200,"total":6000}