{"data":[{"id":5401,"common_name":"jonquilla daffodil","scientific_name":["Narcissus 'Punchline'"],"other_name":[],"cycle":"Perennial","watering":"Average","sunlight":["Full sun","part shade"],"default_image":{"license":5,"license_name":"Attribution-ShareAlike License","license_url":"https:\/\/creativecommons.org\/licenses\/by-sa\/2.0\/","original_url":"https:\/\/perenual.com\/storage\/species_image\/2_abies_alba_pyramidalis\/og\/49255769768_df55596553_b.jpg","regular_url":"https:\/\/perenual.com\/storage\/species_image\/2_abies_alba_pyramidalis\/regular\/49255769768_df55596553_b.jpg","medium_url":"https:\/\/perenual.com\/storage\/species_image\/2_abies_alba_pyramidalis\/medium\/49255769768_df55596553_b.jpg","small_url":"https:\/\/perenual.com\/storage\/species_image\/2_abies_alba_pyramidalis\/small\/49255769768_df55596553_b.jpg","thumbnail":"https:\/\/perenual.com\/storage\/species_image\/2_abies_alba_pyramidalis\/thumbnail\/49255769768_df55596553_b.jpg"}},{"id":5402,"common_name":"jonquilla daffodil","scientific_name":["Narcissus 'Quail'"],"other_name":[],"cycle":"Perennial","watering":"Average","sunlight":["Full sun","part shade"],"default_image":{"license":45,"license_name":"Attribution-ShareAlike 3.0 Unported (CC BY-SA 3.0)","license_url":"https:\/\/creativecommons.org\/licenses\/by-sa\/3.0\/deed.en","original_url":"https:\/\/perenual.com\/storage\/species_image\/5402_narcissus_quail\/og\/Quail_Narcissus.jpg","regular_url":"https:\/\/perenual.com\/storage\/species_image\/5402_narcissus_quail\/regular\/Quail_Narcissus.jpg","medium_url":"https:\/\/perenual.com\/storage\/species_image\/5402_narcissus_quail\/medium\/Quail_Narcissus.jpg","small_url":"https:\/\/perenual.com\/storage\/species_image\/5402_narcissus_quail\/small\/Quail_Narcissus.jpg","thumbnail":"https:\/\/perenual.com\/storage\/species_image\/5402_narcissus_quail\/thumbnail\/Quail_Narcissus.jpg"}},{"id":5403,"common_name":"cyclamineus daffodil","scientific_name":["Narcissus 'Rapture'"],"other_name":[],"cycle":"Perennial","watering":"Average","sunlight":["Full sun","part shade"],"default_image":{"license":5,"license_name":"Attribution-ShareAlike License","license_url":"https:\/\/creativecommons.org\/licenses\/by-sa\/2.0\/","original_url":"https:\/\/perenual.com\/storage\/species_image\/2_abies_alba_pyramidalis\/og\/49255769768_df55596553_b.jpg","regular_url":"https:\/\/perenual.com\/storage\/species_image\/2_abies_alba_pyramidalis\/regular\/49255769768_df55596553_b.jpg","medium_url":"https:\/\/perenual.com\/storage\/species_image\/2_abies_alba_pyramidalis\/medium\/49255769768_df55596553_b.jpg","small_url":"https:\/\/perenual.com\/storage\/species_image\/2_abies_alba_pyramidalis\/small\/49255769768_df55596553_b.jpg","thumbnail":"https:\/\/perenual.com\/storage\/species_image\/2_abies_alba_pyramidalis\/thumbnail\/49255769768_df55596553_b.jpg"}},{"id":5404,"common_name":"large-cupped daffodil","scientific_name":["Narcissus 'Red Aria'"],"other_name":[],"cycle":"Perennial","watering":"Average","sunlight":["Full sun","part shade"],"default_image":{"license":45,"license_name":"Attribution-ShareAlike 3.0 Unported (CC BY-SA 3.0)","license_url":"https:\/\/creativecommons.org\/licenses\/by-sa\/3.0\/deed.en","original_url":"https:\/\/perenual.com\/storage\/species_image\/5404_narcissus_red_aria\/og\/2560px-HC3ADbrida_de_Narcissus_27Red_Devon272C_JardC3ADn_BotC3A1nico_de_MC3BAnich2C_Alemania2C_2013-05-042C_DD_01.jpg","regular_url":"https:\/\/perenual.com\/storage\/species_image\/5404_narcissus_red_aria\/regular\/2560px-HC3ADbrida_de_Narcissus_27Red_Devon272C_JardC3ADn_BotC3A1nico_de_MC3BAnich2C_Alemania2C_2013-05-042C_DD_01.jpg","medium_url":"https:\/\/perenual.com\/storage\/species_image\/5404_narcissus_red_aria\/medium\/2560px-HC3ADbrida_de_Narcissus_27Red_Devon272C_JardC3ADn_BotC3A1nico_de_MC3BAnich2C_Alemania2C_2013-05-042C_DD_01.jpg","small_url":"https:\/\/perenual.com\/storage\/species_image\/5404_narcissus_red_aria\/small\/2560px-HC3ADbrida_de_Narcissus_27Red_Devon272C_JardC3ADn_BotC3A1nico_de_MC3BAnich2C_Alemania2C_2013-05-042C_DD_01.jpg","thumbnail":"https:\/\/perenual.com\/storage\/species_image\/5404_narcissus_red_aria\/thumbnail\/2560px-HC3ADbrida_de_Narcissus_27Red_Devon272C_JardC3ADn_BotC3A1nico_de_MC3BAnich2C_Alemania2C_2013-05-042C_DD_01.jpg"}},{"id":5405,"common_name":"large-cupped daffodil","scientific_name":["Narcissus 'Ring of Fire'"],"other_name":[],"cycle":"Perennial","watering":"Average","sunlight":["Full sun","part shade"],"default_image":{"license":45,"license_name":"Attribution-ShareAlike 3.0 Unported (CC BY-SA 3.0)","license_url":"https:\/\/creativecommons.org\/licenses\/by-sa\/3.0\/deed.en","original_url":"https:\/\/perenual.com\/storage\/species_image\/5416_narcissus_stylish\/og\/1536px-Pink_Charm_1.jpg","regular_url":"https:\/\/perenual.com\/storage\/species_image\/5416_narcissus_stylish\/regular\/1536px-Pink_Charm_1.jpg","medium_url":"https:\/\/perenual.com\/storage\/species_image\/5416_narcissus_stylish\/medium\/1536px-Pink_Charm_1.jpg","small_url":"https:\/\/perenual.com\/storage\/species_image\/5416_narcissus_stylish\/small\/1536px-Pink_Charm_1.jpg","thumbnail":"https:\/\/perenual.com\/storage\/species_image\/5416_narcissus_stylish\/thumbnail\/1536px-Pink_Charm_1.jpg"}},{"id":5406,"common_name":"double daffodil","scientific_name":["Narcissus 'Rose of May'"],"other_name":[],"cycle":"Perennial","watering":"Average","sunlight":["Full sun","part shade"],"default_image":{"license":5,"license_name":"Attribution-ShareAlike License","license_url":"https:\/\/creativecommons.org\/licenses\/by-sa\/2.0\/","original_url":"https:\/\/perenual.com\/storage\/species_image\/2_abies_alba_pyramidalis\/og\/49255769768_df55596553_b.jpg","regular_url":"https:\/\/perenual.com\/storage\/species_image\/2_abies_alba_pyramidalis\/regular\/49255769768_df55596553_b.jpg","medium_url":"https:\/\/perenual.com\/storage\/species_image\/2_abies_alba_pyramidalis\/medium\/49255769768_df55596553_b.jpg","small_url":"https:\/\/perenual.com\/storage\/species_image\/2_abies_alba_pyramidalis\/small\/49255769768_df55596553_b.jpg","thumbnail":"https:\/\/perenual.com\/storage\/species_image\/2_abies_alba_pyramidalis\/thumbnail\/49255769768_df55596553_b.jpg"}},{"id":5407,"common_name":"large-cupped daffodil","scientific_name":["Narcissus 'Rosy Wonder'"],"other_name":[],"cycle":"Perennial","watering":"Average","sunlight":["Full sun","part shade"],"default_image":{"license":5,"license_name":"Attribution-ShareAlike License","license_url":"https:\/\/creativecommons.org\/licenses\/by-sa\/2.0\/","original_url":"https:\/\/perenual.com\/storage\/species_image\/2_abies_alba_pyramidalis\/og\/49255769768_df55596553_b.jpg","regular_url":"https:\/\/perenual.com\/storage\/species_image\/2_abies_alba_pyramidalis\/regular\/49255769768_df55596553_b.jpg","medium_url":"https:\/\/perenual.com\/storage\/species_image\/2_abies_alba_pyramidalis\/medium\/49255769768_df55596553_b.jpg","small_url":"https:\/\/perenual.com\/storage\/species_image\/2_abies_alba_pyramidalis\/small\/49255769768_df55596553_b.jpg","thumbnail":"https:\/\/perenual.com\/storage\/species_image\/2_abies_alba_pyramidalis\/thumbnail\/49255769768_df55596553_b.jpg"}},{"id":5408,"common_name":"large-cupped daffodil","scientific_name":["Narcissus 'Slim Whitman'"],"other_name":[],"cycle":"Perennial","watering":"Average","sunlight":["Full sun","part shade"],"default_image":{"license":45,"license_name":"Attribution-ShareAlike 3.0 Unported (CC BY-SA 3.0)","license_url":"https:\/\/creativecommons.org\/licenses\/by-sa\/3.0\/deed.en","original_url":"https:\/\/perenual.com\/storage\/species_image\/5408_narcissus_slim_whitman\/og\/Narcissus_2827Slim_Whitman27_cultivar292C_Real_JardC3ADn_BotC3A1nico2C_Madrid.jpg","regular_url":"https:\/\/perenual.com\/storage\/species_image\/5408_narcissus_slim_whitman\/regular\/Narcissus_2827Slim_Whitman27_cultivar292C_Real_JardC3ADn_BotC3A1nico2C_Madrid.jpg","medium_url":"https:\/\/perenual.com\/storage\/species_image\/5408_narcissus_slim_whitman\/medium\/Narcissus_2827Slim_Whitman27_cultivar292C_Real_JardC3ADn_BotC3A1nico2C_Madrid.jpg","small_url":"https:\/\/perenual.com\/storage\/species_image\/5408_narcissus_slim_whitman\/small\/Narcissus_2827Slim_Whitman27_cultivar292C_Real_JardC3ADn_BotC3A1nico2C_Madrid.jpg","thumbnail":"https:\/\/perenual.com\/storage\/species_image\/5408_narcissus_slim_whitman\/thumbnail\/Narcissus_2827Slim_Whitman27_cultivar292C_Real_JardC3ADn_BotC3A1nico2C_Madrid.jpg"}},{"id":5409,"common_name":"large-cupped daffodil","scientific_name":["Narcissus 'Sonar'"],"other_name":[],"cycle":"Perennial","watering":"Average","sunlight":["Full sun","part shade"],"default_image":{"license":45,"license_name":"Attribution-ShareAlike 3.0 Unported (CC BY-SA 3.0)","license_url":"https:\/\/creativecommons.org\/licenses\/by-sa\/3.0\/deed.en","original_url":"https:\/\/perenual.com\/storage\/species_image\/5409_narcissus_sonar\/og\/2353px-Narcissus_27Fortune27.jpg","regular_url":"https:\/\/perenual.com\/storage\/species_image\/5409_narcissus_sonar\/regular\/2353px-Narcissus_27Fortune27.jpg","medium_url":"https:\/\/perenual.com\/storage\/species_image\/5409_narcissus_sonar\/medium\/2353px-Narcissus_27Fortune27.jpg","small_url":"https:\/\/perenual.com\/storage\/species_image\/5409_narcissus_sonar\/small\/2353px-Narcissus_27Fortune27.jpg","thumbnail":"https:\/\/perenual.com\/storage\/species_image\/5409_narcissus_sonar\/thumbnail\/2353px-Narcissus_27Fortune27.jpg"}},{"id":5410,"common_name":"double daffodil","scientific_name":["Narcissus 'Southern Hospitality'"],"other_name":[],"cycle":"Perennial","watering":"Average","sunlight":["Full sun","part shade"],"default_image":{"license":451,"license_name":"CC0 1.0 Universal (CC0 1.0) Public Domain Dedication","license_url":"https:\/\/creativecommons.org\/publicdomain\/zero\/1.0\/","original_url":"https:\/\/perenual.com\/storage\/species_image\/5410_narcissus_southern_hospitality\/og\/raindrops_daffodil_yellow_flower_raindrop_after_the_rain-1116869.jpg","regular_url":"https:\/\/perenual.com\/storage\/species_image\/5410_narcissus_southern_hospitality\/regular\/raindrops_daffodil_yellow_flower_raindrop_after_the_rain-1116869.jpg","medium_url":"https:\/\/perenual.com\/storage\/species_image\/5410_narcissus_southern_hospitality\/medium\/raindrops_daffodil_yellow_flower_raindrop_after_the_rain-1116869.jpg","small_url":"https:\/\/perenual.com\/storage\/species_image\/5410_narcissus_southern_hospitality\/small\/raindrops_daffodil_yellow_flower_raindrop_after_the_rain-1116869.jpg","thumbnail":"https:\/\/perenual.com\/storage\/species_image\/5410_narcissus_southern_hospitality\/thumbnail\/raindrops_daffodil_yellow_flower_raindrop_after_the_rain-1116869.jpg"}},{"id":5411,"common_name":"trumpet daffodil","scientific_name":["Narcissus 'Spellbinder'"],"other_name":[],"cycle":"Perennial","watering":"Average","sunlight":["Full sun","part shade"],"default_image":{"license":5,"license_name":"Attribution-ShareAlike License","license_url":"https:\/\/creativecommons.org\/licenses\/by-sa\/2.0\/","original_url":"https:\/\/perenual.com\/storage\/species_image\/2_abies_alba_pyramidalis\/og\/49255769768_df55596553_b.jpg","regular_url":"https:\/\/perenual.com\/storage\/species_image\/2_abies_alba_pyramidalis\/regular\/49255769768_df55596553_b.jpg","medium_url":"https:\/\/perenual.com\/storage\/species_image\/2_abies_alba_pyramidalis\/medium\/49255769768_df55596553_b.jpg","small_url":"https:\/\/perenual.com\/storage\/species_image\/2_abies_alba_pyramidalis\/small\/49255769768_df55596553_b.jpg","thumbnail":"https:\/\/perenual.com\/storage\/species_image\/2_abies_alba_pyramidalis\/thumbnail\/49255769768_df55596553_b.jpg"}},{"id":5412,"common_name":"large-cupped daffodil","scientific_name":["Narcissus 'Sportsman'"],"other_name":[],"cycle":"Perennial","watering":"Average","sunlight":["Full sun","part shade"],"default_image":{"license":45,"license_name":"Attribution-ShareAlike 3.0 Unported (CC BY-SA 3.0)","license_url":"https:\/\/creativecommons.org\/licenses\/by-sa\/3.0\/deed.en","original_url":"https:\/\/perenual.com\/storage\/species_image\/5412_narcissus_sportsman\/og\/Narcissus_large-cupped_cv._02.jpg","regular_url":"https:\/\/perenual.com\/storage\/species_image\/5412_narcissus_sportsman\/regular\/Narcissus_large-cupped_cv._02.jpg","medium_url":"https:\/\/perenual.com\/storage\/species_image\/5412_narcissus_sportsman\/medium\/Narcissus_large-cupped_cv._02.jpg","small_url":"https:\/\/perenual.com\/storage\/species_image\/5412_narcissus_sportsman\/small\/Narcissus_large-cupped_cv._02.jpg","thumbnail":"https:\/\/perenual.com\/storage\/species_image\/5412_narcissus_sportsman\/thumbnail\/Narcissus_large-cupped_cv._02.jpg"}},{"id":5413,"common_name":"cyclamineus daffodil","scientific_name":["Narcissus 'Stony Brook'"],"other_name":[],"cycle":"Perennial","watering":"Average","sunlight":["Full sun","part shade"],"default_image":{"license":45,"license_name":"Attribution-ShareAlike 3.0 Unported (CC BY-SA 3.0)","license_url":"https:\/\/creativecommons.org\/licenses\/by-sa\/3.0\/deed.en","original_url":"https:\/\/perenual.com\/storage\/species_image\/5413_narcissus_stony_brook\/og\/2560px-Narcissus_Cyclamineus_Tete_a_Tete.jpg","regular_url":"https:\/\/perenual.com\/storage\/species_image\/5413_narcissus_stony_brook\/regular\/2560px-Narcissus_Cyclamineus_Tete_a_Tete.jpg","medium_url":"https:\/\/perenual.com\/storage\/species_image\/5413_narcissus_stony_brook\/medium\/2560px-Narcissus_Cyclamineus_Tete_a_Tete.jpg","small_url":"https:\/\/perenual.com\/storage\/species_image\/5413_narcissus_stony_brook\/small\/2560px-Narcissus_Cyclamineus_Tete_a_Tete.jpg","thumbnail":"https:\/\/perenual.com\/storage\/species_image\/5413_narcissus_stony_brook\/thumbnail\/2560px-Narcissus_Cyclamineus_Tete_a_Tete.jpg"}},{"id":5414,"common_name":"cyclamineus daffodil","scientific_name":["Narcissus 'Straight Arrow'"],"other_name":[],"cycle":"Perennial","watering":"Average","sunlight":["Full sun","part shade"],"default_image":{"license":5,"license_name":"Attribution-ShareAlike License","license_url":"https:\/\/creativecommons.org\/licenses\/by-sa\/2.0\/","original_url":"https:\/\/perenual.com\/storage\/species_image\/5414_narcissus_straight_arrow\/og\/6848094892_a4b890892c_b.jpg","regular_url":"https:\/\/perenual.com\/storage\/species_image\/5414_narcissus_straight_arrow\/regular\/6848094892_a4b890892c_b.jpg","medium_url":"https:\/\/perenual.com\/storage\/species_image\/5414_narcissus_straight_arrow\/medium\/6848094892_a4b890892c_b.jpg","small_url":"https:\/\/perenual.com\/storage\/species_image\/5414_narcissus_straight_arrow\/small\/6848094892_a4b890892c_b.jpg","thumbnail":"https:\/\/perenual.com\/storage\/species_image\/5414_narcissus_straight_arrow\/thumbnail\/6848094892_a4b890892c_b.jpg"}},{"id":5415,"common_name":"jonquilla daffodil","scientific_name":["Narcissus 'Stratosphere'"],"other_name":[],"cycle":"Perennial","watering":"Average","sunlight":["Full sun","part shade"],"default_image":{"license":45,"license_name":"Attribution-ShareAlike 3.0 Unported (CC BY-SA 3.0)","license_url":"https:\/\/creativecommons.org\/licenses\/by-sa\/3.0\/deed.en","original_url":"https:\/\/perenual.com\/storage\/species_image\/5415_narcissus_stratosphere\/og\/Narcissus_Stratosphere_0zz.jpg","regular_url":"https:\/\/perenual.com\/storage\/species_image\/5415_narcissus_stratosphere\/regular\/Narcissus_Stratosphere_0zz.jpg","medium_url":"https:\/\/perenual.com\/storage\/species_image\/5415_narcissus_stratosphere\/medium\/Narcissus_Stratosphere_0zz.jpg","small_url":"https:\/\/perenual.com\/storage\/species_image\/5415_narcissus_stratosphere\/small\/Narcissus_Stratosphere_0zz.jpg","thumbnail":"https:\/\/perenual.com\/storage\/species_image\/5415_narcissus_stratosphere\/thumbnail\/Narcissus_Stratosphere_0zz.jpg"}},{"id":5416,"common_name":"large-cupped daffodil","scientific_name":["Narcissus 'Stylish'"],"other_name":[],"cycle":"Perennial","watering":"Average","sunlight":["Full sun","part shade"],"default_image":{"license":45,"license_name":"Attribution-ShareAlike 3.0 Unported (CC BY-SA 3.0)","license_url":"https:\/\/creativecommons.org\/licenses\/by-sa\/3.0\/deed.en","original_url":"https:\/\/perenual.com\/storage\/species_image\/5416_narcissus_stylish\/og\/1536px-Pink_Charm_1.jpg","regular_url":"https:\/\/perenual.com\/storage\/species_image\/5416_narcissus_stylish\/regular\/1536px-Pink_Charm_1.jpg","medium_url":"https:\/\/perenual.com\/storage\/species_image\/5416_narcissus_stylish\/medium\/1536px-Pink_Charm_1.jpg","small_url":"https:\/\/perenual.com\/storage\/species_image\/5416_narcissus_stylish\/small\/1536px-Pink_Charm_1.jpg","thumbnail":"https:\/\/perenual.com\/storage\/species_image\/5416_narcissus_stylish\/thumbnail\/1536px-Pink_Charm_1.jpg"}},{"id":5417,"common_name":"jonquilla daffodil","scientific_name":["Narcissus 'Sun Disc'"],"other_name":[],"cycle":"Perennial","watering":"Average","sunlight":["Full sun","part shade"],"default_image":{"license":5,"license_name":"Attribution-ShareAlike License","license_url":"https:\/\/creativecommons.org\/licenses\/by-sa\/2.0\/","original_url":"https:\/\/perenual.com\/storage\/species_image\/2_abies_alba_pyramidalis\/og\/49255769768_df55596553_b.jpg","regular_url":"https:\/\/perenual.com\/storage\/species_image\/2_abies_alba_pyramidalis\/regular\/49255769768_df55596553_b.jpg","medium_url":"https:\/\/perenual.com\/storage\/species_image\/2_abies_alba_pyramidalis\/medium\/49255769768_df55596553_b.jpg","small_url":"https:\/\/perenual.com\/storage\/species_image\/2_abies_alba_pyramidalis\/small\/49255769768_df55596553_b.jpg","thumbnail":"https:\/\/perenual.com\/storage\/species_image\/2_abies_alba_pyramidalis\/thumbnail\/49255769768_df55596553_b.jpg"}},{"id":5418,"common_name":"jonquilla daffodil","scientific_name":["Narcissus 'Sundial'"],"other_name":[],"cycle":"Perennial","watering":"Average","sunlight":["Full sun","part shade"],"default_image":{"license":5,"license_name":"Attribution-ShareAlike License","license_url":"https:\/\/creativecommons.org\/licenses\/by-sa\/2.0\/","original_url":"https:\/\/perenual.com\/storage\/species_image\/5418_narcissus_sundial\/og\/9213325221_e853a6293a_b.jpg","regular_url":"https:\/\/perenual.com\/storage\/species_image\/5418_narcissus_sundial\/regular\/9213325221_e853a6293a_b.jpg","medium_url":"https:\/\/perenual.com\/storage\/species_image\/5418_narcissus_sundial\/medium\/9213325221_e853a6293a_b.jpg","small_url":"https:\/\/perenual.com\/storage\/species_image\/5418_narcissus_sundial\/small\/9213325221_e853a6293a_b.jpg","thumbnail":"https:\/\/perenual.com\/storage\/species_image\/5418_narcissus_sundial\/thumbnail\/9213325221_e853a6293a_b.jpg"}},{"id":5419,"common_name":"double daffodil","scientific_name":["Narcissus 'Tahiti'"],"other_name":[],"cycle":"Perennial","watering":"Average","sunlight":["Full sun","part shade"],"default_image":{"license":4,"license_name":"Attribution License","license_url":"https:\/\/creativecommons.org\/licenses\/by\/2.0\/","original_url":"https:\/\/perenual.com\/storage\/species_image\/5419_narcissus_tahiti\/og\/6086950086_f36566d07a_b.jpg","regular_url":"https:\/\/perenual.com\/storage\/species_image\/5419_narcissus_tahiti\/regular\/6086950086_f36566d07a_b.jpg","medium_url":"https:\/\/perenual.com\/storage\/species_image\/5419_narcissus_tahiti\/medium\/6086950086_f36566d07a_b.jpg","small_url":"https:\/\/perenual.com\/storage\/species_image\/5419_narcissus_tahiti\/small\/6086950086_f36566d07a_b.jpg","thumbnail":"https:\/\/perenual.com\/storage\/species_image\/5419_narcissus_tahiti\/thumbnail\/6086950086_f36566d07a_b.jpg"}},{"id":5420,"common_name":"large-cupped daffodil","scientific_name":["Narcissus 'Tangent'"],"other_name":[],"cycle":"Perennial","watering":"Average","sunlight":["Full sun","part shade"],"default_image":{"license":4,"license_name":"Attribution License","license_url":"https:\/\/creativecommons.org\/licenses\/by\/2.0\/","original_url":"https:\/\/perenual.com\/storage\/species_image\/5420_narcissus_tangent\/og\/17950191981_4004580d2a_b.jpg","regular_url":"https:\/\/perenual.com\/storage\/species_image\/5420_narcissus_tangent\/regular\/17950191981_4004580d2a_b.jpg","medium_url":"https:\/\/perenual.com\/storage\/species_image\/5420_narcissus_tangent\/medium\/17950191981_4004580d2a_b.jpg","small_url":"https:\/\/perenual.com\/storage\/species_image\/5420_narcissus_tangent\/small\/17950191981_4004580d2a_b.jpg","thumbnail":"https:\/\/perenual.com\/storage\/species_image\/5420_narcissus_tangent\/thumbnail\/17950191981_4004580d2a_b.jpg"}},{"id":5421,"common_name":"miscellaneous daffodil","scientific_name":["Narcissus 'Tete-a-Tete'"],"other_name":[],"cycle":"Perennial","watering":"Average","sunlight":["Full sun","part shade"],"default_image":{"license":6,"license_name":"Attribution-NoDerivs License","license_url":"https:\/\/creativecommons.org\/licenses\/by-nd\/2.0\/","original_url":"https:\/\/perenual.com\/storage\/species_image\/5421_narcissus_tete-a-tete\/og\/49605954423_97eb3bb81a_b.jpg"}},{"id":5422,"common_name":"triandrus daffodil","scientific_name":["Narcissus 'Thalia'"],"other_name":[],"cycle":"Perennial","watering":"Average","sunlight":["Full sun","part shade"],"default_image":{"license":6,"license_name":"Attribution-NoDerivs License","license_url":"https:\/\/creativecommons.org\/licenses\/by-nd\/2.0\/","original_url":"https:\/\/perenual.com\/storage\/species_image\/5422_narcissus_thalia\/og\/41880068041_1cea7527a5_b.jpg"}},{"id":5423,"common_name":"cyclamineus daffodil","scientific_name":["Narcissus 'Tracey'"],"other_name":[],"cycle":"Perennial","watering":"Average","sunlight":["Full sun","part shade"],"default_image":{"license":5,"license_name":"Attribution-ShareAlike License","license_url":"https:\/\/creativecommons.org\/licenses\/by-sa\/2.0\/","original_url":"https:\/\/perenual.com\/storage\/species_image\/2_abies_alba_pyramidalis\/og\/49255769768_df55596553_b.jpg","regular_url":"https:\/\/perenual.com\/storage\/species_image\/2_abies_alba_pyramidalis\/regular\/49255769768_df55596553_b.jpg","medium_url":"https:\/\/perenual.com\/storage\/species_image\/2_abies_alba_pyramidalis\/medium\/49255769768_df55596553_b.jpg","small_url":"https:\/\/perenual.com\/storage\/species_image\/2_abies_alba_pyramidalis\/small\/49255769768_df55596553_b.jpg","thumbnail":"https:\/\/perenual.com\/storage\/species_image\/2_abies_alba_pyramidalis\/thumbnail\/49255769768_df55596553_b.jpg"}},{"id":5424,"common_name":"bulbocodium daffodil","scientific_name":["Narcissus triandrus"],"other_name":[],"cycle":"Perennial","watering":"Average","sunlight":["Full sun","part shade"],"default_image":{"license":5,"license_name":"Attribution-ShareAlike License","license_url":"https:\/\/creativecommons.org\/licenses\/by-sa\/2.0\/","original_url":"https:\/\/perenual.com\/storage\/species_image\/5424_narcissus_triandrus\/og\/4674194037_253d8ae2ef_b.jpg","regular_url":"https:\/\/perenual.com\/storage\/species_image\/5424_narcissus_triandrus\/regular\/4674194037_253d8ae2ef_b.jpg","medium_url":"https:\/\/perenual.com\/storage\/species_image\/5424_narcissus_triandrus\/medium\/4674194037_253d8ae2ef_b.jpg","small_url":"https:\/\/perenual.com\/storage\/species_image\/5424_narcissus_triandrus\/small\/4674194037_253d8ae2ef_b.jpg","thumbnail":"https:\/\/perenual.com\/storage\/species_image\/5424_narcissus_triandrus\/thumbnail\/4674194037_253d8ae2ef_b.jpg"}},{"id":5425,"common_name":"split-corona daffodil","scientific_name":["Narcissus 'Tricollet'"],"other_name":[],"cycle":"Perennial","watering":"Average","sunlight":["Full sun","part shade"],"default_image":{"license":5,"license_name":"Attribution-ShareAlike License","license_url":"https:\/\/creativecommons.org\/licenses\/by-sa\/2.0\/","original_url":"https:\/\/perenual.com\/storage\/species_image\/2_abies_alba_pyramidalis\/og\/49255769768_df55596553_b.jpg","regular_url":"https:\/\/perenual.com\/storage\/species_image\/2_abies_alba_pyramidalis\/regular\/49255769768_df55596553_b.jpg","medium_url":"https:\/\/perenual.com\/storage\/species_image\/2_abies_alba_pyramidalis\/medium\/49255769768_df55596553_b.jpg","small_url":"https:\/\/perenual.com\/storage\/species_image\/2_abies_alba_pyramidalis\/small\/49255769768_df55596553_b.jpg","thumbnail":"https:\/\/perenual.com\/storage\/species_image\/2_abies_alba_pyramidalis\/thumbnail\/49255769768_df55596553_b.jpg"}},{"id":5426,"common_name":"large-cupped daffodil","scientific_name":["Narcissus 'Vintage Rose'"],"other_name":[],"cycle":"Perennial","watering":"Average","sunlight":["Full sun","part shade"],"default_image":{"license":5,"license_name":"Attribution-ShareAlike License","license_url":"https:\/\/creativecommons.org\/licenses\/by-sa\/2.0\/","original_url":"https:\/\/perenual.com\/storage\/species_image\/2_abies_alba_pyramidalis\/og\/49255769768_df55596553_b.jpg","regular_url":"https:\/\/perenual.com\/storage\/species_image\/2_abies_alba_pyramidalis\/regular\/49255769768_df55596553_b.jpg","medium_url":"https:\/\/perenual.com\/storage\/species_image\/2_abies_alba_pyramidalis\/medium\/49255769768_df55596553_b.jpg","small_url":"https:\/\/perenual.com\/storage\/species_image\/2_abies_alba_pyramidalis\/small\/49255769768_df55596553_b.jpg","thumbnail":"https:\/\/perenual.com\/storage\/species_image\/2_abies_alba_pyramidalis\/thumbnail\/49255769768_df55596553_b.jpg"}},{"id":5427,"common_name":"double daffodil","scientific_name":["Narcissus 'White Lion'"],"other_name":[],"cycle":"Perennial","watering":"Average","sunlight":["Full sun","part shade"],"default_image":{"license":5,"license_name":"Attribution-ShareAlike License","license_url":"https:\/\/creativecommons.org\/licenses\/by-sa\/2.0\/","original_url":"https:\/\/perenual.com\/storage\/species_image\/2_abies_alba_pyramidalis\/og\/49255769768_df55596553_b.jpg","regular_url":"https:\/\/perenual.com\/storage\/species_image\/2_abies_alba_pyramidalis\/regular\/49255769768_df55596553_b.jpg","medium_url":"https:\/\/perenual.com\/storage\/species_image\/2_abies_alba_pyramidalis\/medium\/49255769768_df55596553_b.jpg","small_url":"https:\/\/perenual.com\/storage\/species_image\/2_abies_alba_pyramidalis\/small\/49255769768_df55596553_b.jpg","thumbnail":"https:\/\/perenual.com\/storage\/species_image\/2_abies_alba_pyramidalis\/thumbnail\/49255769768_df55596553_b.jpg"}},{"id":5428,"common_name":"large-cupped daffodil","scientific_name":["Narcissus 'Wild Carnival'"],"other_name":[],"cycle":"Perennial","watering":"Average","sunlight":["Full sun","part shade"],"default_image":{"license":5,"license_name":"Attribution-ShareAlike License","license_url":"https:\/\/creativecommons.org\/licenses\/by-sa\/2.0\/","original_url":"https:\/\/perenual.com\/storage\/species_image\/2_abies_alba_pyramidalis\/og\/49255769768_df55596553_b.jpg","regular_url":"https:\/\/perenual.com\/storage\/species_image\/2_abies_alba_pyramidalis\/regular\/49255769768_df55596553_b.jpg","medium_url":"https:\/\/perenual.com\/storage\/species_image\/2_abies_alba_pyramidalis\/medium\/49255769768_df55596553_b.jpg","small_url":"https:\/\/perenual.com\/storage\/species_image\/2_abies_alba_pyramidalis\/small\/49255769768_df55596553_b.jpg","thumbnail":"https:\/\/perenual.com\/storage\/species_image\/2_abies_alba_pyramidalis\/thumbnail\/49255769768_df55596553_b.jpg"}},{"id":5429,"common_name":"cyclamineus daffodil","scientific_name":["Narcissus 'Wings of Freedom'"],"other_name":[],"cycle":"Perennial","watering":"Average","sunlight":["Full sun","part shade"],"default_image":{"license":45,"license_name":"Attribution-ShareAlike 3.0 Unported (CC BY-SA 3.0)","license_url":"https:\/\/creativecommons.org\/licenses\/by-sa\/3.0\/deed.en","original_url":"https:\/\/perenual.com\/storage\/species_image\/5429_narcissus_wings_of_freedom\/og\/2560px-Narcissus_cyclamineus_Gruppe.jpg","regular_url":"https:\/\/perenual.com\/storage\/species_image\/5429_narcissus_wings_of_freedom\/regular\/2560px-Narcissus_cyclamineus_Gruppe.jpg","medium_url":"https:\/\/perenual.com\/storage\/species_image\/5429_narcissus_wings_of_freedom\/medium\/2560px-Narcissus_cyclamineus_Gruppe.jpg","small_url":"https:\/\/perenual.com\/storage\/species_image\/5429_narcissus_wings_of_freedom\/small\/2560px-Narcissus_cyclamineus_Gruppe.jpg","thumbnail":"https:\/\/perenual.com\/storage\/species_image\/5429_narcissus_wings_of_freedom\/thumbnail\/2560px-Narcissus_cyclamineus_Gruppe.jpg"}},{"id":5430,"common_name":"finestem needlegrass","scientific_name":["Nassella tenuissima"],"other_name":[],"cycle":"Perennial","watering":"Minimum","sunlight":["Full sun","part shade"],"default_image":{"license":5,"license_name":"Attribution-ShareAlike License","license_url":"https:\/\/creativecommons.org\/licenses\/by-sa\/2.0\/","original_url":"https:\/\/perenual.com\/storage\/species_image\/5430_nassella_tenuissima\/og\/48107182092_cfa15b4dd7_b.jpg","regular_url":"https:\/\/perenual.com\/storage\/species_image\/5430_nassella_tenuissima\/regular\/48107182092_cfa15b4dd7_b.jpg","medium_url":"https:\/\/perenual.com\/storage\/species_image\/5430_nassella_tenuissima\/medium\/48107182092_cfa15b4dd7_b.jpg","small_url":"https:\/\/perenual.com\/storage\/species_image\/5430_nassella_tenuissima\/small\/48107182092_cfa15b4dd7_b.jpg","thumbnail":"https:\/\/perenual.com\/storage\/species_image\/5430_nassella_tenuissima\/thumbnail\/48107182092_cfa15b4dd7_b.jpg"}}],"to":5430,"per_page":30,"current_page":181,"from":5401,"last_page":200,"total":6000}