{"data":[{"id":421,"common_name":"Caucasian fir","scientific_name":["Abies nordmanniana"],"other_name":[],"cycle":"Perennial","watering":"Average","sunlight":["Full sun","part shade"],"default_image":{"license":5,"license_name":"Attribution-ShareAlike License","license_url":"https:\/\/creativecommons.org\/licenses\/by-sa\/2.0\/","original_url":"https:\/\/perenual.com\/storage\/species_image\/421_abies_nordmanniana\/og\/26749005295_dc0e4578c8_b.jpg","regular_url":"https:\/\/perenual.com\/storage\/species_image\/421_abies_nordmanniana\/regular\/26749005295_dc0e4578c8_b.jpg","medium_url":"https:\/\/perenual.com\/storage\/species_image\/421_abies_nordmanniana\/medium\/26749005295_dc0e4578c8_b.jpg","small_url":"https:\/\/perenual.com\/storage\/species_image\/421_abies_nordmanniana\/small\/26749005295_dc0e4578c8_b.jpg","thumbnail":"https:\/\/perenual.com\/storage\/species_image\/421_abies_nordmanniana\/thumbnail\/26749005295_dc0e4578c8_b.jpg"}},{"id":422,"common_name":"Caucasian fir","scientific_name":["Abies nordmanniana 'Brandt'"],"other_name":[],"cycle":"Perennial","watering":"Average","sunlight":["Full sun","part shade"],"default_image":{"license":5,"license_name":"Attribution-ShareAlike License","license_url":"https:\/\/creativecommons.org\/licenses\/by-sa\/2.0\/","original_url":"https:\/\/perenual.com\/storage\/species_image\/2_abies_alba_pyramidalis\/og\/49255769768_df55596553_b.jpg","regular_url":"https:\/\/perenual.com\/storage\/species_image\/2_abies_alba_pyramidalis\/regular\/49255769768_df55596553_b.jpg","medium_url":"https:\/\/perenual.com\/storage\/species_image\/2_abies_alba_pyramidalis\/medium\/49255769768_df55596553_b.jpg","small_url":"https:\/\/perenual.com\/storage\/species_image\/2_abies_alba_pyramidalis\/small\/49255769768_df55596553_b.jpg","thumbnail":"https:\/\/perenual.com\/storage\/species_image\/2_abies_alba_pyramidalis\/thumbnail\/49255769768_df55596553_b.jpg"}},{"id":423,"common_name":"Caucasian fir","scientific_name":["Abies nordmanniana subsp. equi-trojani"],"other_name":[],"cycle":"Perennial","watering":"Average","sunlight":["Full sun","part shade"],"default_image":{"license":45,"license_name":"Attribution-ShareAlike 3.0 Unported (CC BY-SA 3.0)","license_url":"https:\/\/creativecommons.org\/licenses\/by-sa\/3.0\/deed.en","original_url":"https:\/\/perenual.com\/storage\/species_image\/423_abies_nordmanniana_subsp_equi-trojani\/og\/Abies_nordmanniana_3.jpg","regular_url":"https:\/\/perenual.com\/storage\/species_image\/423_abies_nordmanniana_subsp_equi-trojani\/regular\/Abies_nordmanniana_3.jpg","medium_url":"https:\/\/perenual.com\/storage\/species_image\/423_abies_nordmanniana_subsp_equi-trojani\/medium\/Abies_nordmanniana_3.jpg","small_url":"https:\/\/perenual.com\/storage\/species_image\/423_abies_nordmanniana_subsp_equi-trojani\/small\/Abies_nordmanniana_3.jpg","thumbnail":"https:\/\/perenual.com\/storage\/species_image\/423_abies_nordmanniana_subsp_equi-trojani\/thumbnail\/Abies_nordmanniana_3.jpg"}},{"id":424,"common_name":"Spanish fir","scientific_name":["Abies pinsapo 'Horstmann'"],"other_name":[],"cycle":"Perennial","watering":"Average","sunlight":["Full sun","part shade"],"default_image":{"license":45,"license_name":"Attribution-ShareAlike 3.0 Unported (CC BY-SA 3.0)","license_url":"https:\/\/creativecommons.org\/licenses\/by-sa\/3.0\/deed.en","original_url":"https:\/\/perenual.com\/storage\/species_image\/424_abies_pinsapo_horstmann\/og\/1508px-Abies_pinsapo_27Horstmann27_-_Oregon_Garden_-_Silverton2C_Oregon_-_DSC00267.jpg","regular_url":"https:\/\/perenual.com\/storage\/species_image\/424_abies_pinsapo_horstmann\/regular\/1508px-Abies_pinsapo_27Horstmann27_-_Oregon_Garden_-_Silverton2C_Oregon_-_DSC00267.jpg","medium_url":"https:\/\/perenual.com\/storage\/species_image\/424_abies_pinsapo_horstmann\/medium\/1508px-Abies_pinsapo_27Horstmann27_-_Oregon_Garden_-_Silverton2C_Oregon_-_DSC00267.jpg","small_url":"https:\/\/perenual.com\/storage\/species_image\/424_abies_pinsapo_horstmann\/small\/1508px-Abies_pinsapo_27Horstmann27_-_Oregon_Garden_-_Silverton2C_Oregon_-_DSC00267.jpg","thumbnail":"https:\/\/perenual.com\/storage\/species_image\/424_abies_pinsapo_horstmann\/thumbnail\/1508px-Abies_pinsapo_27Horstmann27_-_Oregon_Garden_-_Silverton2C_Oregon_-_DSC00267.jpg"}},{"id":425,"common_name":"flowering-maple","scientific_name":["Abutilon hybridum"],"other_name":[],"cycle":"Perennial","watering":"Average","sunlight":["Full sun","part shade"],"default_image":{"license":4,"license_name":"Attribution License","license_url":"https:\/\/creativecommons.org\/licenses\/by\/2.0\/","original_url":"https:\/\/perenual.com\/storage\/species_image\/425_abutilon_hybridum\/og\/24527654869_ac712f58c7_b.jpg","regular_url":"https:\/\/perenual.com\/storage\/species_image\/425_abutilon_hybridum\/regular\/24527654869_ac712f58c7_b.jpg","medium_url":"https:\/\/perenual.com\/storage\/species_image\/425_abutilon_hybridum\/medium\/24527654869_ac712f58c7_b.jpg","small_url":"https:\/\/perenual.com\/storage\/species_image\/425_abutilon_hybridum\/small\/24527654869_ac712f58c7_b.jpg","thumbnail":"https:\/\/perenual.com\/storage\/species_image\/425_abutilon_hybridum\/thumbnail\/24527654869_ac712f58c7_b.jpg"}},{"id":426,"common_name":"flowering-maple","scientific_name":["Abutilon hybridum 'Bella Red'"],"other_name":[],"cycle":"Perennial","watering":"Average","sunlight":["Full sun","part shade"],"default_image":{"license":451,"license_name":"CC0 1.0 Universal (CC0 1.0) Public Domain Dedication","license_url":"https:\/\/creativecommons.org\/publicdomain\/zero\/1.0\/","original_url":"https:\/\/perenual.com\/storage\/species_image\/426_abutilon_hybridum_bella_red\/og\/abutilon-mallow-flower-red.jpg","regular_url":"https:\/\/perenual.com\/storage\/species_image\/426_abutilon_hybridum_bella_red\/regular\/abutilon-mallow-flower-red.jpg","medium_url":"https:\/\/perenual.com\/storage\/species_image\/426_abutilon_hybridum_bella_red\/medium\/abutilon-mallow-flower-red.jpg","small_url":"https:\/\/perenual.com\/storage\/species_image\/426_abutilon_hybridum_bella_red\/small\/abutilon-mallow-flower-red.jpg","thumbnail":"https:\/\/perenual.com\/storage\/species_image\/426_abutilon_hybridum_bella_red\/thumbnail\/abutilon-mallow-flower-red.jpg"}},{"id":427,"common_name":"flowering-maple","scientific_name":["Abutilon 'Moonchimes'"],"other_name":[],"cycle":"Perennial","watering":"Average","sunlight":["Full sun","part shade"],"default_image":{"license":45,"license_name":"Attribution-ShareAlike 3.0 Unported (CC BY-SA 3.0)","license_url":"https:\/\/creativecommons.org\/licenses\/by-sa\/3.0\/deed.en","original_url":"https:\/\/perenual.com\/storage\/species_image\/427_abutilon_moonchimes\/og\/Abutilon_x_hybridum_27Moonchimes27_Flower_2800px.jpg","regular_url":"https:\/\/perenual.com\/storage\/species_image\/427_abutilon_moonchimes\/regular\/Abutilon_x_hybridum_27Moonchimes27_Flower_2800px.jpg","medium_url":"https:\/\/perenual.com\/storage\/species_image\/427_abutilon_moonchimes\/medium\/Abutilon_x_hybridum_27Moonchimes27_Flower_2800px.jpg","small_url":"https:\/\/perenual.com\/storage\/species_image\/427_abutilon_moonchimes\/small\/Abutilon_x_hybridum_27Moonchimes27_Flower_2800px.jpg","thumbnail":"https:\/\/perenual.com\/storage\/species_image\/427_abutilon_moonchimes\/thumbnail\/Abutilon_x_hybridum_27Moonchimes27_Flower_2800px.jpg"}},{"id":428,"common_name":"flowering-maple","scientific_name":["Abutilon pictum 'Gold Dust'"],"other_name":[],"cycle":"Perennial","watering":"Average","sunlight":["Full sun"],"default_image":{"license":45,"license_name":"Attribution-ShareAlike 3.0 Unported (CC BY-SA 3.0)","license_url":"https:\/\/creativecommons.org\/licenses\/by-sa\/3.0\/deed.en","original_url":"https:\/\/perenual.com\/storage\/species_image\/428_abutilon_pictum_gold_dust\/og\/Redvein_Abutilon.jpg","regular_url":"https:\/\/perenual.com\/storage\/species_image\/428_abutilon_pictum_gold_dust\/regular\/Redvein_Abutilon.jpg","medium_url":"https:\/\/perenual.com\/storage\/species_image\/428_abutilon_pictum_gold_dust\/medium\/Redvein_Abutilon.jpg","small_url":"https:\/\/perenual.com\/storage\/species_image\/428_abutilon_pictum_gold_dust\/small\/Redvein_Abutilon.jpg","thumbnail":"https:\/\/perenual.com\/storage\/species_image\/428_abutilon_pictum_gold_dust\/thumbnail\/Redvein_Abutilon.jpg"}},{"id":429,"common_name":"river wattle","scientific_name":["Acacia cognata 'Mini Cog'"],"other_name":[],"cycle":"Perennial","watering":"Minimum","sunlight":["Full sun","part shade"],"default_image":{"license":4,"license_name":"Attribution License","license_url":"https:\/\/creativecommons.org\/licenses\/by\/2.0\/","original_url":"https:\/\/perenual.com\/storage\/species_image\/429_acacia_cognata_mini_cog\/og\/50784458942_ae69e82698_b.jpg","regular_url":"https:\/\/perenual.com\/storage\/species_image\/429_acacia_cognata_mini_cog\/regular\/50784458942_ae69e82698_b.jpg","medium_url":"https:\/\/perenual.com\/storage\/species_image\/429_acacia_cognata_mini_cog\/medium\/50784458942_ae69e82698_b.jpg","small_url":"https:\/\/perenual.com\/storage\/species_image\/429_acacia_cognata_mini_cog\/small\/50784458942_ae69e82698_b.jpg","thumbnail":"https:\/\/perenual.com\/storage\/species_image\/429_acacia_cognata_mini_cog\/thumbnail\/50784458942_ae69e82698_b.jpg"}},{"id":430,"common_name":"koa","scientific_name":["Acacia koa"],"other_name":[],"cycle":"Perennial","watering":"Average","sunlight":["Full sun"],"default_image":{"license":4,"license_name":"Attribution License","license_url":"https:\/\/creativecommons.org\/licenses\/by\/2.0\/","original_url":"https:\/\/perenual.com\/storage\/species_image\/430_acacia_koa\/og\/52457570805_4edbb5b5c3_b.jpg","regular_url":"https:\/\/perenual.com\/storage\/species_image\/430_acacia_koa\/regular\/52457570805_4edbb5b5c3_b.jpg","medium_url":"https:\/\/perenual.com\/storage\/species_image\/430_acacia_koa\/medium\/52457570805_4edbb5b5c3_b.jpg","small_url":"https:\/\/perenual.com\/storage\/species_image\/430_acacia_koa\/small\/52457570805_4edbb5b5c3_b.jpg","thumbnail":"https:\/\/perenual.com\/storage\/species_image\/430_acacia_koa\/thumbnail\/52457570805_4edbb5b5c3_b.jpg"}},{"id":431,"common_name":"black cat claw","scientific_name":["Acacia redolens"],"other_name":[],"cycle":"Perennial","watering":"Minimum","sunlight":["Full sun"],"default_image":{"license":4,"license_name":"Attribution License","license_url":"https:\/\/creativecommons.org\/licenses\/by\/2.0\/","original_url":"https:\/\/perenual.com\/storage\/species_image\/431_acacia_redolens\/og\/40378248193_eb3db1b183_b.jpg","regular_url":"https:\/\/perenual.com\/storage\/species_image\/431_acacia_redolens\/regular\/40378248193_eb3db1b183_b.jpg","medium_url":"https:\/\/perenual.com\/storage\/species_image\/431_acacia_redolens\/medium\/40378248193_eb3db1b183_b.jpg","small_url":"https:\/\/perenual.com\/storage\/species_image\/431_acacia_redolens\/small\/40378248193_eb3db1b183_b.jpg","thumbnail":"https:\/\/perenual.com\/storage\/species_image\/431_acacia_redolens\/thumbnail\/40378248193_eb3db1b183_b.jpg"}},{"id":432,"common_name":"acaena","scientific_name":["Acaena inermis 'Purpurea'"],"other_name":[],"cycle":"Herbaceous Perennial","watering":"Minimum","sunlight":["Full sun"],"default_image":{"license":5,"license_name":"Attribution-ShareAlike License","license_url":"https:\/\/creativecommons.org\/licenses\/by-sa\/2.0\/","original_url":"https:\/\/perenual.com\/storage\/species_image\/432_acaena_inermis_purpurea\/og\/33706454305_095187d7ab_b.jpg","regular_url":"https:\/\/perenual.com\/storage\/species_image\/432_acaena_inermis_purpurea\/regular\/33706454305_095187d7ab_b.jpg","medium_url":"https:\/\/perenual.com\/storage\/species_image\/432_acaena_inermis_purpurea\/medium\/33706454305_095187d7ab_b.jpg","small_url":"https:\/\/perenual.com\/storage\/species_image\/432_acaena_inermis_purpurea\/small\/33706454305_095187d7ab_b.jpg","thumbnail":"https:\/\/perenual.com\/storage\/species_image\/432_acaena_inermis_purpurea\/thumbnail\/33706454305_095187d7ab_b.jpg"}},{"id":433,"common_name":"red hot cat's tail","scientific_name":["Acalypha hispida"],"other_name":[],"cycle":"Perennial","watering":"Average","sunlight":["Full sun","part shade"],"default_image":{"license":4,"license_name":"Attribution License","license_url":"https:\/\/creativecommons.org\/licenses\/by\/2.0\/","original_url":"https:\/\/perenual.com\/storage\/species_image\/433_acalypha_hispida\/og\/20298859928_ac5f7bc791_b.jpg","regular_url":"https:\/\/perenual.com\/storage\/species_image\/433_acalypha_hispida\/regular\/20298859928_ac5f7bc791_b.jpg","medium_url":"https:\/\/perenual.com\/storage\/species_image\/433_acalypha_hispida\/medium\/20298859928_ac5f7bc791_b.jpg","small_url":"https:\/\/perenual.com\/storage\/species_image\/433_acalypha_hispida\/small\/20298859928_ac5f7bc791_b.jpg","thumbnail":"https:\/\/perenual.com\/storage\/species_image\/433_acalypha_hispida\/thumbnail\/20298859928_ac5f7bc791_b.jpg"}},{"id":434,"common_name":"Jacob's coat","scientific_name":["Acalypha wilkesiana"],"other_name":[],"cycle":"Perennial","watering":"Average","sunlight":["Full sun","part shade"],"default_image":{"license":4,"license_name":"Attribution License","license_url":"https:\/\/creativecommons.org\/licenses\/by\/2.0\/","original_url":"https:\/\/perenual.com\/storage\/species_image\/434_acalypha_wilkesiana\/og\/24945289366_5035e5d0a9_b.jpg","regular_url":"https:\/\/perenual.com\/storage\/species_image\/434_acalypha_wilkesiana\/regular\/24945289366_5035e5d0a9_b.jpg","medium_url":"https:\/\/perenual.com\/storage\/species_image\/434_acalypha_wilkesiana\/medium\/24945289366_5035e5d0a9_b.jpg","small_url":"https:\/\/perenual.com\/storage\/species_image\/434_acalypha_wilkesiana\/small\/24945289366_5035e5d0a9_b.jpg","thumbnail":"https:\/\/perenual.com\/storage\/species_image\/434_acalypha_wilkesiana\/thumbnail\/24945289366_5035e5d0a9_b.jpg"}},{"id":435,"common_name":"prickly thrift","scientific_name":["Acantholimon ulicinum"],"other_name":[],"cycle":"Perennial","watering":"Minimum","sunlight":["Full sun"],"default_image":{"license":4,"license_name":"Attribution License","license_url":"https:\/\/creativecommons.org\/licenses\/by\/2.0\/","original_url":"https:\/\/perenual.com\/storage\/species_image\/435_acantholimon_ulicinum\/og\/7183717384_81c4a5d842_b.jpg","regular_url":"https:\/\/perenual.com\/storage\/species_image\/435_acantholimon_ulicinum\/regular\/7183717384_81c4a5d842_b.jpg","medium_url":"https:\/\/perenual.com\/storage\/species_image\/435_acantholimon_ulicinum\/medium\/7183717384_81c4a5d842_b.jpg","small_url":"https:\/\/perenual.com\/storage\/species_image\/435_acantholimon_ulicinum\/small\/7183717384_81c4a5d842_b.jpg","thumbnail":"https:\/\/perenual.com\/storage\/species_image\/435_acantholimon_ulicinum\/thumbnail\/7183717384_81c4a5d842_b.jpg"}},{"id":436,"common_name":"bear's breeches","scientific_name":["Acanthus hungaricus"],"other_name":[],"cycle":"Herbaceous Perennial","watering":"Average","sunlight":["Full sun","part shade"],"default_image":{"license":4,"license_name":"Attribution License","license_url":"https:\/\/creativecommons.org\/licenses\/by\/2.0\/","original_url":"https:\/\/perenual.com\/storage\/species_image\/436_acanthus_hungaricus\/og\/28238262895_1731e43303_b.jpg","regular_url":"https:\/\/perenual.com\/storage\/species_image\/436_acanthus_hungaricus\/regular\/28238262895_1731e43303_b.jpg","medium_url":"https:\/\/perenual.com\/storage\/species_image\/436_acanthus_hungaricus\/medium\/28238262895_1731e43303_b.jpg","small_url":"https:\/\/perenual.com\/storage\/species_image\/436_acanthus_hungaricus\/small\/28238262895_1731e43303_b.jpg","thumbnail":"https:\/\/perenual.com\/storage\/species_image\/436_acanthus_hungaricus\/thumbnail\/28238262895_1731e43303_b.jpg"}},{"id":437,"common_name":"bear's breeches","scientific_name":["Acanthus mollis"],"other_name":[],"cycle":"Herbaceous Perennial","watering":"Average","sunlight":["Full sun","part shade"],"default_image":{"license":5,"license_name":"Attribution-ShareAlike License","license_url":"https:\/\/creativecommons.org\/licenses\/by-sa\/2.0\/","original_url":"https:\/\/perenual.com\/storage\/species_image\/437_acanthus_mollis\/og\/49901521577_89ebb82e81_b.jpg","regular_url":"https:\/\/perenual.com\/storage\/species_image\/437_acanthus_mollis\/regular\/49901521577_89ebb82e81_b.jpg","medium_url":"https:\/\/perenual.com\/storage\/species_image\/437_acanthus_mollis\/medium\/49901521577_89ebb82e81_b.jpg","small_url":"https:\/\/perenual.com\/storage\/species_image\/437_acanthus_mollis\/small\/49901521577_89ebb82e81_b.jpg","thumbnail":"https:\/\/perenual.com\/storage\/species_image\/437_acanthus_mollis\/thumbnail\/49901521577_89ebb82e81_b.jpg"}},{"id":438,"common_name":"bear's breeches","scientific_name":["Acanthus mollis 'Oak Leaf'"],"other_name":[],"cycle":"Herbaceous Perennial","watering":"Average","sunlight":["Part shade","full shade"],"default_image":{"license":45,"license_name":"Attribution-ShareAlike 3.0 Unported (CC BY-SA 3.0)","license_url":"https:\/\/creativecommons.org\/licenses\/by-sa\/3.0\/deed.en","original_url":"https:\/\/perenual.com\/storage\/species_image\/438_acanthus_mollis_oak_leaf\/og\/AcanthusmollisPalatineHill.jpg","regular_url":"https:\/\/perenual.com\/storage\/species_image\/438_acanthus_mollis_oak_leaf\/regular\/AcanthusmollisPalatineHill.jpg","medium_url":"https:\/\/perenual.com\/storage\/species_image\/438_acanthus_mollis_oak_leaf\/medium\/AcanthusmollisPalatineHill.jpg","small_url":"https:\/\/perenual.com\/storage\/species_image\/438_acanthus_mollis_oak_leaf\/small\/AcanthusmollisPalatineHill.jpg","thumbnail":"https:\/\/perenual.com\/storage\/species_image\/438_acanthus_mollis_oak_leaf\/thumbnail\/AcanthusmollisPalatineHill.jpg"}},{"id":439,"common_name":"bear's breeches","scientific_name":["Acanthus mollis 'Tasmanian Angel'"],"other_name":[],"cycle":"Herbaceous Perennial","watering":"Average","sunlight":["Full sun","part shade"],"default_image":{"license":5,"license_name":"Attribution-ShareAlike License","license_url":"https:\/\/creativecommons.org\/licenses\/by-sa\/2.0\/","original_url":"https:\/\/perenual.com\/storage\/species_image\/439_acanthus_mollis_tasmanian_angel\/og\/9630706778_b844652f34_b.jpg","regular_url":"https:\/\/perenual.com\/storage\/species_image\/439_acanthus_mollis_tasmanian_angel\/regular\/9630706778_b844652f34_b.jpg","medium_url":"https:\/\/perenual.com\/storage\/species_image\/439_acanthus_mollis_tasmanian_angel\/medium\/9630706778_b844652f34_b.jpg","small_url":"https:\/\/perenual.com\/storage\/species_image\/439_acanthus_mollis_tasmanian_angel\/small\/9630706778_b844652f34_b.jpg","thumbnail":"https:\/\/perenual.com\/storage\/species_image\/439_acanthus_mollis_tasmanian_angel\/thumbnail\/9630706778_b844652f34_b.jpg"}},{"id":440,"common_name":"mountain thistle","scientific_name":["Acanthus montanus"],"other_name":[],"cycle":"Herbaceous Perennial","watering":"Average","sunlight":["Full sun","part shade"],"default_image":{"license":45,"license_name":"Attribution-ShareAlike 3.0 Unported (CC BY-SA 3.0)","license_url":"https:\/\/creativecommons.org\/licenses\/by-sa\/3.0\/deed.en","original_url":"https:\/\/perenual.com\/storage\/species_image\/440_acanthus_montanus\/og\/1536px-Acanthus_montanus_01.jpg","regular_url":"https:\/\/perenual.com\/storage\/species_image\/440_acanthus_montanus\/regular\/1536px-Acanthus_montanus_01.jpg","medium_url":"https:\/\/perenual.com\/storage\/species_image\/440_acanthus_montanus\/medium\/1536px-Acanthus_montanus_01.jpg","small_url":"https:\/\/perenual.com\/storage\/species_image\/440_acanthus_montanus\/small\/1536px-Acanthus_montanus_01.jpg","thumbnail":"https:\/\/perenual.com\/storage\/species_image\/440_acanthus_montanus\/thumbnail\/1536px-Acanthus_montanus_01.jpg"}},{"id":441,"common_name":"bear's breeches","scientific_name":["Acanthus spinosus"],"other_name":[],"cycle":"Herbaceous Perennial","watering":"Average","sunlight":["Full sun","part shade"],"default_image":{"license":4,"license_name":"Attribution License","license_url":"https:\/\/creativecommons.org\/licenses\/by\/2.0\/","original_url":"https:\/\/perenual.com\/storage\/species_image\/441_acanthus_spinosus\/og\/9616045340_ca0c6f0614_b.jpg","regular_url":"https:\/\/perenual.com\/storage\/species_image\/441_acanthus_spinosus\/regular\/9616045340_ca0c6f0614_b.jpg","medium_url":"https:\/\/perenual.com\/storage\/species_image\/441_acanthus_spinosus\/medium\/9616045340_ca0c6f0614_b.jpg","small_url":"https:\/\/perenual.com\/storage\/species_image\/441_acanthus_spinosus\/small\/9616045340_ca0c6f0614_b.jpg","thumbnail":"https:\/\/perenual.com\/storage\/species_image\/441_acanthus_spinosus\/thumbnail\/9616045340_ca0c6f0614_b.jpg"}},{"id":442,"common_name":"bear's breeches","scientific_name":["Acanthus 'Summer Beauty'"],"other_name":[],"cycle":"Herbaceous Perennial","watering":"Average","sunlight":["Full sun","part shade"],"default_image":{"license":4,"license_name":"Attribution License","license_url":"https:\/\/creativecommons.org\/licenses\/by\/2.0\/","original_url":"https:\/\/perenual.com\/storage\/species_image\/442_acanthus_summer_beauty\/og\/42972669991_4354b8fd75_b.jpg","regular_url":"https:\/\/perenual.com\/storage\/species_image\/442_acanthus_summer_beauty\/regular\/42972669991_4354b8fd75_b.jpg","medium_url":"https:\/\/perenual.com\/storage\/species_image\/442_acanthus_summer_beauty\/medium\/42972669991_4354b8fd75_b.jpg","small_url":"https:\/\/perenual.com\/storage\/species_image\/442_acanthus_summer_beauty\/small\/42972669991_4354b8fd75_b.jpg","thumbnail":"https:\/\/perenual.com\/storage\/species_image\/442_acanthus_summer_beauty\/thumbnail\/42972669991_4354b8fd75_b.jpg"}},{"id":443,"common_name":"pineapple guava","scientific_name":["Acca sellowiana"],"other_name":[],"cycle":"Perennial","watering":"Minimum","sunlight":["Full sun","part shade"],"default_image":{"license":4,"license_name":"Attribution License","license_url":"https:\/\/creativecommons.org\/licenses\/by\/2.0\/","original_url":"https:\/\/perenual.com\/storage\/species_image\/443_acca_sellowiana\/og\/50121311041_b7735952c6_b.jpg","regular_url":"https:\/\/perenual.com\/storage\/species_image\/443_acca_sellowiana\/regular\/50121311041_b7735952c6_b.jpg","medium_url":"https:\/\/perenual.com\/storage\/species_image\/443_acca_sellowiana\/medium\/50121311041_b7735952c6_b.jpg","small_url":"https:\/\/perenual.com\/storage\/species_image\/443_acca_sellowiana\/small\/50121311041_b7735952c6_b.jpg","thumbnail":"https:\/\/perenual.com\/storage\/species_image\/443_acca_sellowiana\/thumbnail\/50121311041_b7735952c6_b.jpg"}},{"id":444,"common_name":"trident maple","scientific_name":["Acer buergerianum"],"other_name":[],"cycle":"Perennial","watering":"Average","sunlight":["Full sun","part shade"],"default_image":{"license":4,"license_name":"Attribution License","license_url":"https:\/\/creativecommons.org\/licenses\/by\/2.0\/","original_url":"https:\/\/perenual.com\/storage\/species_image\/444_acer_buergerianum\/og\/50064604842_abf376d0cb_b.jpg","regular_url":"https:\/\/perenual.com\/storage\/species_image\/444_acer_buergerianum\/regular\/50064604842_abf376d0cb_b.jpg","medium_url":"https:\/\/perenual.com\/storage\/species_image\/444_acer_buergerianum\/medium\/50064604842_abf376d0cb_b.jpg","small_url":"https:\/\/perenual.com\/storage\/species_image\/444_acer_buergerianum\/small\/50064604842_abf376d0cb_b.jpg","thumbnail":"https:\/\/perenual.com\/storage\/species_image\/444_acer_buergerianum\/thumbnail\/50064604842_abf376d0cb_b.jpg"}},{"id":445,"common_name":"hedge maple","scientific_name":["Acer campestre"],"other_name":[],"cycle":"Perennial","watering":"Average","sunlight":["full sun","part shade"],"default_image":{"license":4,"license_name":"Attribution License","license_url":"https:\/\/creativecommons.org\/licenses\/by\/2.0\/","original_url":"https:\/\/perenual.com\/storage\/species_image\/445_acer_campestre\/og\/51880125697_4a9ec07b85_b.jpg","regular_url":"https:\/\/perenual.com\/storage\/species_image\/445_acer_campestre\/regular\/51880125697_4a9ec07b85_b.jpg","medium_url":"https:\/\/perenual.com\/storage\/species_image\/445_acer_campestre\/medium\/51880125697_4a9ec07b85_b.jpg","small_url":"https:\/\/perenual.com\/storage\/species_image\/445_acer_campestre\/small\/51880125697_4a9ec07b85_b.jpg","thumbnail":"https:\/\/perenual.com\/storage\/species_image\/445_acer_campestre\/thumbnail\/51880125697_4a9ec07b85_b.jpg"}},{"id":446,"common_name":"hedge maple","scientific_name":["Acer campestre 'Evelyn' QUEEN ELIZABETH"],"other_name":[],"cycle":"Perennial","watering":"Average","sunlight":["full sun","part shade"],"default_image":{"license":5,"license_name":"Attribution-ShareAlike License","license_url":"https:\/\/creativecommons.org\/licenses\/by-sa\/2.0\/","original_url":"https:\/\/perenual.com\/storage\/species_image\/446_acer_campestre_evelyn_queen_elizabeth\/og\/50573659347_5a5bbb0e30_b.jpg","regular_url":"https:\/\/perenual.com\/storage\/species_image\/446_acer_campestre_evelyn_queen_elizabeth\/regular\/50573659347_5a5bbb0e30_b.jpg","medium_url":"https:\/\/perenual.com\/storage\/species_image\/446_acer_campestre_evelyn_queen_elizabeth\/medium\/50573659347_5a5bbb0e30_b.jpg","small_url":"https:\/\/perenual.com\/storage\/species_image\/446_acer_campestre_evelyn_queen_elizabeth\/small\/50573659347_5a5bbb0e30_b.jpg","thumbnail":"https:\/\/perenual.com\/storage\/species_image\/446_acer_campestre_evelyn_queen_elizabeth\/thumbnail\/50573659347_5a5bbb0e30_b.jpg"}},{"id":447,"common_name":"hedge maple","scientific_name":["Acer campestre 'Postelense'"],"other_name":[],"cycle":"Perennial","watering":"Average","sunlight":["full sun","part shade"],"default_image":{"license":5,"license_name":"Attribution-ShareAlike License","license_url":"https:\/\/creativecommons.org\/licenses\/by-sa\/2.0\/","original_url":"https:\/\/perenual.com\/storage\/species_image\/447_acer_campestre_postelense\/og\/50573666572_e68168c001_b.jpg","regular_url":"https:\/\/perenual.com\/storage\/species_image\/447_acer_campestre_postelense\/regular\/50573666572_e68168c001_b.jpg","medium_url":"https:\/\/perenual.com\/storage\/species_image\/447_acer_campestre_postelense\/medium\/50573666572_e68168c001_b.jpg","small_url":"https:\/\/perenual.com\/storage\/species_image\/447_acer_campestre_postelense\/small\/50573666572_e68168c001_b.jpg","thumbnail":"https:\/\/perenual.com\/storage\/species_image\/447_acer_campestre_postelense\/thumbnail\/50573666572_e68168c001_b.jpg"}},{"id":448,"common_name":"snakebark maple","scientific_name":["Acer capillipes"],"other_name":[],"cycle":"Perennial","watering":"Average","sunlight":["Full sun","part shade"],"default_image":{"license":5,"license_name":"Attribution-ShareAlike License","license_url":"https:\/\/creativecommons.org\/licenses\/by-sa\/2.0\/","original_url":"https:\/\/perenual.com\/storage\/species_image\/448_acer_capillipes\/og\/26770321825_d1a6cc2fee_b.jpg","regular_url":"https:\/\/perenual.com\/storage\/species_image\/448_acer_capillipes\/regular\/26770321825_d1a6cc2fee_b.jpg","medium_url":"https:\/\/perenual.com\/storage\/species_image\/448_acer_capillipes\/medium\/26770321825_d1a6cc2fee_b.jpg","small_url":"https:\/\/perenual.com\/storage\/species_image\/448_acer_capillipes\/small\/26770321825_d1a6cc2fee_b.jpg","thumbnail":"https:\/\/perenual.com\/storage\/species_image\/448_acer_capillipes\/thumbnail\/26770321825_d1a6cc2fee_b.jpg"}},{"id":449,"common_name":"cappadocian maple","scientific_name":["Acer cappadocicum"],"other_name":[],"cycle":"Perennial","watering":"Average","sunlight":["Full sun","part shade"],"default_image":{"license":4,"license_name":"Attribution License","license_url":"https:\/\/creativecommons.org\/licenses\/by\/2.0\/","original_url":"https:\/\/perenual.com\/storage\/species_image\/449_acer_cappadocicum\/og\/5142300636_bf566b49f2_b.jpg","regular_url":"https:\/\/perenual.com\/storage\/species_image\/449_acer_cappadocicum\/regular\/5142300636_bf566b49f2_b.jpg","medium_url":"https:\/\/perenual.com\/storage\/species_image\/449_acer_cappadocicum\/medium\/5142300636_bf566b49f2_b.jpg","small_url":"https:\/\/perenual.com\/storage\/species_image\/449_acer_cappadocicum\/small\/5142300636_bf566b49f2_b.jpg","thumbnail":"https:\/\/perenual.com\/storage\/species_image\/449_acer_cappadocicum\/thumbnail\/5142300636_bf566b49f2_b.jpg"}},{"id":450,"common_name":"hornbeam maple","scientific_name":["Acer carpinifolium"],"other_name":[],"cycle":"Perennial","watering":"Average","sunlight":["Full sun","part shade"],"default_image":{"license":4,"license_name":"Attribution License","license_url":"https:\/\/creativecommons.org\/licenses\/by\/2.0\/","original_url":"https:\/\/perenual.com\/storage\/species_image\/450_acer_carpinifolium\/og\/10508100463_84bcbd009a_b.jpg","regular_url":"https:\/\/perenual.com\/storage\/species_image\/450_acer_carpinifolium\/regular\/10508100463_84bcbd009a_b.jpg","medium_url":"https:\/\/perenual.com\/storage\/species_image\/450_acer_carpinifolium\/medium\/10508100463_84bcbd009a_b.jpg","small_url":"https:\/\/perenual.com\/storage\/species_image\/450_acer_carpinifolium\/small\/10508100463_84bcbd009a_b.jpg","thumbnail":"https:\/\/perenual.com\/storage\/species_image\/450_acer_carpinifolium\/thumbnail\/10508100463_84bcbd009a_b.jpg"}}],"to":450,"per_page":30,"current_page":15,"from":421,"last_page":200,"total":6000}