{"data":[{"id":5671,"common_name":"peony","scientific_name":["Paeonia 'Zhu Sha Pan' CINNABAR RED"],"other_name":[],"cycle":"Herbaceous Perennial","watering":"Average","sunlight":["Full sun","part shade"],"default_image":{"license":5,"license_name":"Attribution-ShareAlike License","license_url":"https:\/\/creativecommons.org\/licenses\/by-sa\/2.0\/","original_url":"https:\/\/perenual.com\/storage\/species_image\/5671_paeonia_zhu_sha_pan_cinnabar_red\/og\/8989470078_8eeb22769e_b.jpg","regular_url":"https:\/\/perenual.com\/storage\/species_image\/5671_paeonia_zhu_sha_pan_cinnabar_red\/regular\/8989470078_8eeb22769e_b.jpg","medium_url":"https:\/\/perenual.com\/storage\/species_image\/5671_paeonia_zhu_sha_pan_cinnabar_red\/medium\/8989470078_8eeb22769e_b.jpg","small_url":"https:\/\/perenual.com\/storage\/species_image\/5671_paeonia_zhu_sha_pan_cinnabar_red\/small\/8989470078_8eeb22769e_b.jpg","thumbnail":"https:\/\/perenual.com\/storage\/species_image\/5671_paeonia_zhu_sha_pan_cinnabar_red\/thumbnail\/8989470078_8eeb22769e_b.jpg"}},{"id":5672,"common_name":"American ginseng","scientific_name":["Panax quinquefolius"],"other_name":[],"cycle":"Herbaceous Perennial","watering":"Average","sunlight":["Part shade","full shade"],"default_image":{"license":5,"license_name":"Attribution-ShareAlike License","license_url":"https:\/\/creativecommons.org\/licenses\/by-sa\/2.0\/","original_url":"https:\/\/perenual.com\/storage\/species_image\/2_abies_alba_pyramidalis\/og\/49255769768_df55596553_b.jpg","regular_url":"https:\/\/perenual.com\/storage\/species_image\/2_abies_alba_pyramidalis\/regular\/49255769768_df55596553_b.jpg","medium_url":"https:\/\/perenual.com\/storage\/species_image\/2_abies_alba_pyramidalis\/medium\/49255769768_df55596553_b.jpg","small_url":"https:\/\/perenual.com\/storage\/species_image\/2_abies_alba_pyramidalis\/small\/49255769768_df55596553_b.jpg","thumbnail":"https:\/\/perenual.com\/storage\/species_image\/2_abies_alba_pyramidalis\/thumbnail\/49255769768_df55596553_b.jpg"}},{"id":5673,"common_name":"screw pine","scientific_name":["Pandanus tectorius"],"other_name":[],"cycle":"Perennial","watering":"Average","sunlight":["Full sun","part shade"],"default_image":{"license":4,"license_name":"Attribution License","license_url":"https:\/\/creativecommons.org\/licenses\/by\/2.0\/","original_url":"https:\/\/perenual.com\/storage\/species_image\/5673_pandanus_tectorius\/og\/52449394578_837eb1ff36_b.jpg","regular_url":"https:\/\/perenual.com\/storage\/species_image\/5673_pandanus_tectorius\/regular\/52449394578_837eb1ff36_b.jpg","medium_url":"https:\/\/perenual.com\/storage\/species_image\/5673_pandanus_tectorius\/medium\/52449394578_837eb1ff36_b.jpg","small_url":"https:\/\/perenual.com\/storage\/species_image\/5673_pandanus_tectorius\/small\/52449394578_837eb1ff36_b.jpg","thumbnail":"https:\/\/perenual.com\/storage\/species_image\/5673_pandanus_tectorius\/thumbnail\/52449394578_837eb1ff36_b.jpg"}},{"id":5674,"common_name":"screw pine","scientific_name":["Pandanus tectorius 'Veitchii'"],"other_name":[],"cycle":"Herbaceous Perennial","watering":"Average","sunlight":["Full sun","part shade"],"default_image":{"license":4,"license_name":"Attribution License","license_url":"https:\/\/creativecommons.org\/licenses\/by\/2.0\/","original_url":"https:\/\/perenual.com\/storage\/species_image\/5674_pandanus_tectorius_veitchii\/og\/28770088265_7fbdb1802b_b.jpg","regular_url":"https:\/\/perenual.com\/storage\/species_image\/5674_pandanus_tectorius_veitchii\/regular\/28770088265_7fbdb1802b_b.jpg","medium_url":"https:\/\/perenual.com\/storage\/species_image\/5674_pandanus_tectorius_veitchii\/medium\/28770088265_7fbdb1802b_b.jpg","small_url":"https:\/\/perenual.com\/storage\/species_image\/5674_pandanus_tectorius_veitchii\/small\/28770088265_7fbdb1802b_b.jpg","thumbnail":"https:\/\/perenual.com\/storage\/species_image\/5674_pandanus_tectorius_veitchii\/thumbnail\/28770088265_7fbdb1802b_b.jpg"}},{"id":5675,"common_name":"bitter switchgrass","scientific_name":["Panicum amarum 'Dewey Blue'"],"other_name":[],"cycle":"Perennial","watering":"Minimum","sunlight":["Full sun","part shade"],"default_image":{"license":45,"license_name":"Attribution-ShareAlike 3.0 Unported (CC BY-SA 3.0)","license_url":"https:\/\/creativecommons.org\/licenses\/by-sa\/3.0\/deed.en","original_url":"https:\/\/perenual.com\/storage\/species_image\/5675_panicum_amarum_dewey_blue\/og\/Panicum_amarum_Dewey_Blue_2zz.jpg","regular_url":"https:\/\/perenual.com\/storage\/species_image\/5675_panicum_amarum_dewey_blue\/regular\/Panicum_amarum_Dewey_Blue_2zz.jpg","medium_url":"https:\/\/perenual.com\/storage\/species_image\/5675_panicum_amarum_dewey_blue\/medium\/Panicum_amarum_Dewey_Blue_2zz.jpg","small_url":"https:\/\/perenual.com\/storage\/species_image\/5675_panicum_amarum_dewey_blue\/small\/Panicum_amarum_Dewey_Blue_2zz.jpg","thumbnail":"https:\/\/perenual.com\/storage\/species_image\/5675_panicum_amarum_dewey_blue\/thumbnail\/Panicum_amarum_Dewey_Blue_2zz.jpg"}},{"id":5676,"common_name":"panic grass","scientific_name":["Panicum bulbosum"],"other_name":[],"cycle":"Perennial","watering":"Minimum","sunlight":["Full sun"],"default_image":{"license":45,"license_name":"Attribution-ShareAlike 3.0 Unported (CC BY-SA 3.0)","license_url":"https:\/\/creativecommons.org\/licenses\/by-sa\/3.0\/deed.en","original_url":"https:\/\/perenual.com\/storage\/species_image\/5676_panicum_bulbosum\/og\/Panicum_virgatum_Northwind_1zz.jpg","regular_url":"https:\/\/perenual.com\/storage\/species_image\/5676_panicum_bulbosum\/regular\/Panicum_virgatum_Northwind_1zz.jpg","medium_url":"https:\/\/perenual.com\/storage\/species_image\/5676_panicum_bulbosum\/medium\/Panicum_virgatum_Northwind_1zz.jpg","small_url":"https:\/\/perenual.com\/storage\/species_image\/5676_panicum_bulbosum\/small\/Panicum_virgatum_Northwind_1zz.jpg","thumbnail":"https:\/\/perenual.com\/storage\/species_image\/5676_panicum_bulbosum\/thumbnail\/Panicum_virgatum_Northwind_1zz.jpg"}},{"id":5677,"common_name":"switch grass","scientific_name":["Panicum 'Huron Solstice'"],"other_name":[],"cycle":"Perennial","watering":"Frequent","sunlight":["Full sun","part shade"],"default_image":{"license":45,"license_name":"Attribution-ShareAlike 3.0 Unported (CC BY-SA 3.0)","license_url":"https:\/\/creativecommons.org\/licenses\/by-sa\/3.0\/deed.en","original_url":"https:\/\/perenual.com\/storage\/species_image\/5677_panicum_huron_solstice\/og\/Panicum_virgatum_Shenandoah_9zz.jpg","regular_url":"https:\/\/perenual.com\/storage\/species_image\/5677_panicum_huron_solstice\/regular\/Panicum_virgatum_Shenandoah_9zz.jpg","medium_url":"https:\/\/perenual.com\/storage\/species_image\/5677_panicum_huron_solstice\/medium\/Panicum_virgatum_Shenandoah_9zz.jpg","small_url":"https:\/\/perenual.com\/storage\/species_image\/5677_panicum_huron_solstice\/small\/Panicum_virgatum_Shenandoah_9zz.jpg","thumbnail":"https:\/\/perenual.com\/storage\/species_image\/5677_panicum_huron_solstice\/thumbnail\/Panicum_virgatum_Shenandoah_9zz.jpg"}},{"id":5678,"common_name":"proso millet","scientific_name":["Panicum miliaceum"],"other_name":[],"cycle":"Annual","watering":"Minimum","sunlight":["Full sun"],"default_image":{"license":5,"license_name":"Attribution-ShareAlike License","license_url":"https:\/\/creativecommons.org\/licenses\/by-sa\/2.0\/","original_url":"https:\/\/perenual.com\/storage\/species_image\/5678_panicum_miliaceum\/og\/9596004292_96e3e1c588_b.jpg","regular_url":"https:\/\/perenual.com\/storage\/species_image\/5678_panicum_miliaceum\/regular\/9596004292_96e3e1c588_b.jpg","medium_url":"https:\/\/perenual.com\/storage\/species_image\/5678_panicum_miliaceum\/medium\/9596004292_96e3e1c588_b.jpg","small_url":"https:\/\/perenual.com\/storage\/species_image\/5678_panicum_miliaceum\/small\/9596004292_96e3e1c588_b.jpg","thumbnail":"https:\/\/perenual.com\/storage\/species_image\/5678_panicum_miliaceum\/thumbnail\/9596004292_96e3e1c588_b.jpg"}},{"id":5679,"common_name":"switch grass","scientific_name":["Panicum 'Prairie Fire'"],"other_name":[],"cycle":"Perennial","watering":"Frequent","sunlight":["Full sun","part shade"],"default_image":{"license":5,"license_name":"Attribution-ShareAlike License","license_url":"https:\/\/creativecommons.org\/licenses\/by-sa\/2.0\/","original_url":"https:\/\/perenual.com\/storage\/species_image\/5679_panicum_prairie_fire\/og\/3912256151_865e2a4b51_b.jpg","regular_url":"https:\/\/perenual.com\/storage\/species_image\/5679_panicum_prairie_fire\/regular\/3912256151_865e2a4b51_b.jpg","medium_url":"https:\/\/perenual.com\/storage\/species_image\/5679_panicum_prairie_fire\/medium\/3912256151_865e2a4b51_b.jpg","small_url":"https:\/\/perenual.com\/storage\/species_image\/5679_panicum_prairie_fire\/small\/3912256151_865e2a4b51_b.jpg","thumbnail":"https:\/\/perenual.com\/storage\/species_image\/5679_panicum_prairie_fire\/thumbnail\/3912256151_865e2a4b51_b.jpg"}},{"id":5680,"common_name":"switch grass","scientific_name":["Panicum virgatum"],"other_name":[],"cycle":"Perennial","watering":"Frequent","sunlight":["Full sun"],"default_image":{"license":5,"license_name":"Attribution-ShareAlike License","license_url":"https:\/\/creativecommons.org\/licenses\/by-sa\/2.0\/","original_url":"https:\/\/perenual.com\/storage\/species_image\/2_abies_alba_pyramidalis\/og\/49255769768_df55596553_b.jpg","regular_url":"https:\/\/perenual.com\/storage\/species_image\/2_abies_alba_pyramidalis\/regular\/49255769768_df55596553_b.jpg","medium_url":"https:\/\/perenual.com\/storage\/species_image\/2_abies_alba_pyramidalis\/medium\/49255769768_df55596553_b.jpg","small_url":"https:\/\/perenual.com\/storage\/species_image\/2_abies_alba_pyramidalis\/small\/49255769768_df55596553_b.jpg","thumbnail":"https:\/\/perenual.com\/storage\/species_image\/2_abies_alba_pyramidalis\/thumbnail\/49255769768_df55596553_b.jpg"}},{"id":5681,"common_name":"switch grass","scientific_name":["Panicum virgatum 'Badlands'"],"other_name":[],"cycle":"Perennial","watering":"Frequent","sunlight":["Full sun"],"default_image":{"license":45,"license_name":"Attribution-ShareAlike 3.0 Unported (CC BY-SA 3.0)","license_url":"https:\/\/creativecommons.org\/licenses\/by-sa\/3.0\/deed.en","original_url":"https:\/\/perenual.com\/storage\/species_image\/5689_panicum_virgatum_rehbraun\/og\/2560px-Panicum_virgatum_Shenandoah_-_Flickr_-_peganum_28229.jpg","regular_url":"https:\/\/perenual.com\/storage\/species_image\/5689_panicum_virgatum_rehbraun\/regular\/2560px-Panicum_virgatum_Shenandoah_-_Flickr_-_peganum_28229.jpg","medium_url":"https:\/\/perenual.com\/storage\/species_image\/5689_panicum_virgatum_rehbraun\/medium\/2560px-Panicum_virgatum_Shenandoah_-_Flickr_-_peganum_28229.jpg","small_url":"https:\/\/perenual.com\/storage\/species_image\/5689_panicum_virgatum_rehbraun\/small\/2560px-Panicum_virgatum_Shenandoah_-_Flickr_-_peganum_28229.jpg","thumbnail":"https:\/\/perenual.com\/storage\/species_image\/5689_panicum_virgatum_rehbraun\/thumbnail\/2560px-Panicum_virgatum_Shenandoah_-_Flickr_-_peganum_28229.jpg"}},{"id":5682,"common_name":"switch grass","scientific_name":["Panicum virgatum 'Cheyenne Sky'"],"other_name":[],"cycle":"Perennial","watering":"Frequent","sunlight":["Full sun"],"default_image":{"license":45,"license_name":"Attribution-ShareAlike 3.0 Unported (CC BY-SA 3.0)","license_url":"https:\/\/creativecommons.org\/licenses\/by-sa\/3.0\/deed.en","original_url":"https:\/\/perenual.com\/storage\/species_image\/5682_panicum_virgatum_cheyenne_sky\/og\/2560px-Panicum_virgatum_Prairie_Winds_Cheyenne_Sky_kz1.jpg","regular_url":"https:\/\/perenual.com\/storage\/species_image\/5682_panicum_virgatum_cheyenne_sky\/regular\/2560px-Panicum_virgatum_Prairie_Winds_Cheyenne_Sky_kz1.jpg","medium_url":"https:\/\/perenual.com\/storage\/species_image\/5682_panicum_virgatum_cheyenne_sky\/medium\/2560px-Panicum_virgatum_Prairie_Winds_Cheyenne_Sky_kz1.jpg","small_url":"https:\/\/perenual.com\/storage\/species_image\/5682_panicum_virgatum_cheyenne_sky\/small\/2560px-Panicum_virgatum_Prairie_Winds_Cheyenne_Sky_kz1.jpg","thumbnail":"https:\/\/perenual.com\/storage\/species_image\/5682_panicum_virgatum_cheyenne_sky\/thumbnail\/2560px-Panicum_virgatum_Prairie_Winds_Cheyenne_Sky_kz1.jpg"}},{"id":5683,"common_name":"switch grass","scientific_name":["Panicum virgatum 'Cloud Nine'"],"other_name":[],"cycle":"Perennial","watering":"Frequent","sunlight":["Full sun"],"default_image":{"license":45,"license_name":"Attribution-ShareAlike 3.0 Unported (CC BY-SA 3.0)","license_url":"https:\/\/creativecommons.org\/licenses\/by-sa\/3.0\/deed.en","original_url":"https:\/\/perenual.com\/storage\/species_image\/5683_panicum_virgatum_cloud_nine\/og\/1280px-Panicum_virgatum_JdP.jpg","regular_url":"https:\/\/perenual.com\/storage\/species_image\/5683_panicum_virgatum_cloud_nine\/regular\/1280px-Panicum_virgatum_JdP.jpg","medium_url":"https:\/\/perenual.com\/storage\/species_image\/5683_panicum_virgatum_cloud_nine\/medium\/1280px-Panicum_virgatum_JdP.jpg","small_url":"https:\/\/perenual.com\/storage\/species_image\/5683_panicum_virgatum_cloud_nine\/small\/1280px-Panicum_virgatum_JdP.jpg","thumbnail":"https:\/\/perenual.com\/storage\/species_image\/5683_panicum_virgatum_cloud_nine\/thumbnail\/1280px-Panicum_virgatum_JdP.jpg"}},{"id":5684,"common_name":"switch grass","scientific_name":["Panicum virgatum 'Dallas Blues'"],"other_name":[],"cycle":"Perennial","watering":"Frequent","sunlight":["Full sun"],"default_image":{"license":5,"license_name":"Attribution-ShareAlike License","license_url":"https:\/\/creativecommons.org\/licenses\/by-sa\/2.0\/","original_url":"https:\/\/perenual.com\/storage\/species_image\/2_abies_alba_pyramidalis\/og\/49255769768_df55596553_b.jpg","regular_url":"https:\/\/perenual.com\/storage\/species_image\/2_abies_alba_pyramidalis\/regular\/49255769768_df55596553_b.jpg","medium_url":"https:\/\/perenual.com\/storage\/species_image\/2_abies_alba_pyramidalis\/medium\/49255769768_df55596553_b.jpg","small_url":"https:\/\/perenual.com\/storage\/species_image\/2_abies_alba_pyramidalis\/small\/49255769768_df55596553_b.jpg","thumbnail":"https:\/\/perenual.com\/storage\/species_image\/2_abies_alba_pyramidalis\/thumbnail\/49255769768_df55596553_b.jpg"}},{"id":5685,"common_name":"switch grass","scientific_name":["Panicum virgatum 'Dust Devil'"],"other_name":[],"cycle":"Perennial","watering":"Frequent","sunlight":["Full sun"],"default_image":{"license":5,"license_name":"Attribution-ShareAlike License","license_url":"https:\/\/creativecommons.org\/licenses\/by-sa\/2.0\/","original_url":"https:\/\/perenual.com\/storage\/species_image\/5685_panicum_virgatum_dust_devil\/og\/20914196500_ab259fdbf0_b.jpg","regular_url":"https:\/\/perenual.com\/storage\/species_image\/5685_panicum_virgatum_dust_devil\/regular\/20914196500_ab259fdbf0_b.jpg","medium_url":"https:\/\/perenual.com\/storage\/species_image\/5685_panicum_virgatum_dust_devil\/medium\/20914196500_ab259fdbf0_b.jpg","small_url":"https:\/\/perenual.com\/storage\/species_image\/5685_panicum_virgatum_dust_devil\/small\/20914196500_ab259fdbf0_b.jpg","thumbnail":"https:\/\/perenual.com\/storage\/species_image\/5685_panicum_virgatum_dust_devil\/thumbnail\/20914196500_ab259fdbf0_b.jpg"}},{"id":5686,"common_name":"switch grass","scientific_name":["Panicum virgatum 'Heavy Metal'"],"other_name":[],"cycle":"Perennial","watering":"Frequent","sunlight":["Full sun"],"default_image":{"license":5,"license_name":"Attribution-ShareAlike License","license_url":"https:\/\/creativecommons.org\/licenses\/by-sa\/2.0\/","original_url":"https:\/\/perenual.com\/storage\/species_image\/2_abies_alba_pyramidalis\/og\/49255769768_df55596553_b.jpg","regular_url":"https:\/\/perenual.com\/storage\/species_image\/2_abies_alba_pyramidalis\/regular\/49255769768_df55596553_b.jpg","medium_url":"https:\/\/perenual.com\/storage\/species_image\/2_abies_alba_pyramidalis\/medium\/49255769768_df55596553_b.jpg","small_url":"https:\/\/perenual.com\/storage\/species_image\/2_abies_alba_pyramidalis\/small\/49255769768_df55596553_b.jpg","thumbnail":"https:\/\/perenual.com\/storage\/species_image\/2_abies_alba_pyramidalis\/thumbnail\/49255769768_df55596553_b.jpg"}},{"id":5687,"common_name":"switch grass","scientific_name":["Panicum virgatum 'Northwind'"],"other_name":[],"cycle":"Perennial","watering":"Frequent","sunlight":["Full sun"],"default_image":{"license":5,"license_name":"Attribution-ShareAlike License","license_url":"https:\/\/creativecommons.org\/licenses\/by-sa\/2.0\/","original_url":"https:\/\/perenual.com\/storage\/species_image\/5687_panicum_virgatum_northwind\/og\/30404103022_a454a644f9_b.jpg","regular_url":"https:\/\/perenual.com\/storage\/species_image\/5687_panicum_virgatum_northwind\/regular\/30404103022_a454a644f9_b.jpg","medium_url":"https:\/\/perenual.com\/storage\/species_image\/5687_panicum_virgatum_northwind\/medium\/30404103022_a454a644f9_b.jpg","small_url":"https:\/\/perenual.com\/storage\/species_image\/5687_panicum_virgatum_northwind\/small\/30404103022_a454a644f9_b.jpg","thumbnail":"https:\/\/perenual.com\/storage\/species_image\/5687_panicum_virgatum_northwind\/thumbnail\/30404103022_a454a644f9_b.jpg"}},{"id":5688,"common_name":"switch grass","scientific_name":["Panicum virgatum 'Prairie Sky'"],"other_name":[],"cycle":"Perennial","watering":"Frequent","sunlight":["Full sun"],"default_image":{"license":45,"license_name":"Attribution-ShareAlike 3.0 Unported (CC BY-SA 3.0)","license_url":"https:\/\/creativecommons.org\/licenses\/by-sa\/3.0\/deed.en","original_url":"https:\/\/perenual.com\/storage\/species_image\/5688_panicum_virgatum_prairie_sky\/og\/1403px-Panicum_virgatum_Cheyenne_Sky_kz1.jpg","regular_url":"https:\/\/perenual.com\/storage\/species_image\/5688_panicum_virgatum_prairie_sky\/regular\/1403px-Panicum_virgatum_Cheyenne_Sky_kz1.jpg","medium_url":"https:\/\/perenual.com\/storage\/species_image\/5688_panicum_virgatum_prairie_sky\/medium\/1403px-Panicum_virgatum_Cheyenne_Sky_kz1.jpg","small_url":"https:\/\/perenual.com\/storage\/species_image\/5688_panicum_virgatum_prairie_sky\/small\/1403px-Panicum_virgatum_Cheyenne_Sky_kz1.jpg","thumbnail":"https:\/\/perenual.com\/storage\/species_image\/5688_panicum_virgatum_prairie_sky\/thumbnail\/1403px-Panicum_virgatum_Cheyenne_Sky_kz1.jpg"}},{"id":5689,"common_name":"switch grass","scientific_name":["Panicum virgatum 'Rehbraun'"],"other_name":[],"cycle":"Perennial","watering":"Frequent","sunlight":["Full sun"],"default_image":{"license":45,"license_name":"Attribution-ShareAlike 3.0 Unported (CC BY-SA 3.0)","license_url":"https:\/\/creativecommons.org\/licenses\/by-sa\/3.0\/deed.en","original_url":"https:\/\/perenual.com\/storage\/species_image\/5689_panicum_virgatum_rehbraun\/og\/2560px-Panicum_virgatum_Shenandoah_-_Flickr_-_peganum_28229.jpg","regular_url":"https:\/\/perenual.com\/storage\/species_image\/5689_panicum_virgatum_rehbraun\/regular\/2560px-Panicum_virgatum_Shenandoah_-_Flickr_-_peganum_28229.jpg","medium_url":"https:\/\/perenual.com\/storage\/species_image\/5689_panicum_virgatum_rehbraun\/medium\/2560px-Panicum_virgatum_Shenandoah_-_Flickr_-_peganum_28229.jpg","small_url":"https:\/\/perenual.com\/storage\/species_image\/5689_panicum_virgatum_rehbraun\/small\/2560px-Panicum_virgatum_Shenandoah_-_Flickr_-_peganum_28229.jpg","thumbnail":"https:\/\/perenual.com\/storage\/species_image\/5689_panicum_virgatum_rehbraun\/thumbnail\/2560px-Panicum_virgatum_Shenandoah_-_Flickr_-_peganum_28229.jpg"}},{"id":5690,"common_name":"switch grass","scientific_name":["Panicum virgatum 'Rotstrahlbusch'"],"other_name":[],"cycle":"Perennial","watering":"Frequent","sunlight":["Full sun"],"default_image":{"license":4,"license_name":"Attribution License","license_url":"https:\/\/creativecommons.org\/licenses\/by\/2.0\/","original_url":"https:\/\/perenual.com\/storage\/species_image\/5690_panicum_virgatum_rotstrahlbusch\/og\/4987479654_7fdbf10948_b.jpg","regular_url":"https:\/\/perenual.com\/storage\/species_image\/5690_panicum_virgatum_rotstrahlbusch\/regular\/4987479654_7fdbf10948_b.jpg","medium_url":"https:\/\/perenual.com\/storage\/species_image\/5690_panicum_virgatum_rotstrahlbusch\/medium\/4987479654_7fdbf10948_b.jpg","small_url":"https:\/\/perenual.com\/storage\/species_image\/5690_panicum_virgatum_rotstrahlbusch\/small\/4987479654_7fdbf10948_b.jpg","thumbnail":"https:\/\/perenual.com\/storage\/species_image\/5690_panicum_virgatum_rotstrahlbusch\/thumbnail\/4987479654_7fdbf10948_b.jpg"}},{"id":5691,"common_name":"switch grass","scientific_name":["Panicum virgatum 'RR1' RUBY RIBBONS"],"other_name":[],"cycle":"Perennial","watering":"Frequent","sunlight":["Full sun"],"default_image":{"license":45,"license_name":"Attribution-ShareAlike 3.0 Unported (CC BY-SA 3.0)","license_url":"https:\/\/creativecommons.org\/licenses\/by-sa\/3.0\/deed.en","original_url":"https:\/\/perenual.com\/storage\/species_image\/5691_panicum_virgatum_rr1_ruby_ribbons\/og\/Panicum_virgatum_Shenandoah_4zz.jpg","regular_url":"https:\/\/perenual.com\/storage\/species_image\/5691_panicum_virgatum_rr1_ruby_ribbons\/regular\/Panicum_virgatum_Shenandoah_4zz.jpg","medium_url":"https:\/\/perenual.com\/storage\/species_image\/5691_panicum_virgatum_rr1_ruby_ribbons\/medium\/Panicum_virgatum_Shenandoah_4zz.jpg","small_url":"https:\/\/perenual.com\/storage\/species_image\/5691_panicum_virgatum_rr1_ruby_ribbons\/small\/Panicum_virgatum_Shenandoah_4zz.jpg","thumbnail":"https:\/\/perenual.com\/storage\/species_image\/5691_panicum_virgatum_rr1_ruby_ribbons\/thumbnail\/Panicum_virgatum_Shenandoah_4zz.jpg"}},{"id":5692,"common_name":"switch grass","scientific_name":["Panicum virgatum 'Shenandoah'"],"other_name":[],"cycle":"Perennial","watering":"Frequent","sunlight":["Full sun"],"default_image":{"license":5,"license_name":"Attribution-ShareAlike License","license_url":"https:\/\/creativecommons.org\/licenses\/by-sa\/2.0\/","original_url":"https:\/\/perenual.com\/storage\/species_image\/5692_panicum_virgatum_shenandoah\/og\/6204723244_04d7f63b2e_b.jpg","regular_url":"https:\/\/perenual.com\/storage\/species_image\/5692_panicum_virgatum_shenandoah\/regular\/6204723244_04d7f63b2e_b.jpg","medium_url":"https:\/\/perenual.com\/storage\/species_image\/5692_panicum_virgatum_shenandoah\/medium\/6204723244_04d7f63b2e_b.jpg","small_url":"https:\/\/perenual.com\/storage\/species_image\/5692_panicum_virgatum_shenandoah\/small\/6204723244_04d7f63b2e_b.jpg","thumbnail":"https:\/\/perenual.com\/storage\/species_image\/5692_panicum_virgatum_shenandoah\/thumbnail\/6204723244_04d7f63b2e_b.jpg"}},{"id":5693,"common_name":"switch grass","scientific_name":["Panicum virgatum 'Squaw'"],"other_name":[],"cycle":"Perennial","watering":"Frequent","sunlight":["Full sun"],"default_image":{"license":4,"license_name":"Attribution License","license_url":"https:\/\/creativecommons.org\/licenses\/by\/2.0\/","original_url":"https:\/\/perenual.com\/storage\/species_image\/5690_panicum_virgatum_rotstrahlbusch\/og\/4987479654_7fdbf10948_b.jpg","regular_url":"https:\/\/perenual.com\/storage\/species_image\/5690_panicum_virgatum_rotstrahlbusch\/regular\/4987479654_7fdbf10948_b.jpg","medium_url":"https:\/\/perenual.com\/storage\/species_image\/5690_panicum_virgatum_rotstrahlbusch\/medium\/4987479654_7fdbf10948_b.jpg","small_url":"https:\/\/perenual.com\/storage\/species_image\/5690_panicum_virgatum_rotstrahlbusch\/small\/4987479654_7fdbf10948_b.jpg","thumbnail":"https:\/\/perenual.com\/storage\/species_image\/5690_panicum_virgatum_rotstrahlbusch\/thumbnail\/4987479654_7fdbf10948_b.jpg"}},{"id":5694,"common_name":"poppy","scientific_name":["Papaver alpinum"],"other_name":[],"cycle":"Herbaceous Perennial","watering":"Average","sunlight":["Full sun"],"default_image":{"license":5,"license_name":"Attribution-ShareAlike License","license_url":"https:\/\/creativecommons.org\/licenses\/by-sa\/2.0\/","original_url":"https:\/\/perenual.com\/storage\/species_image\/5694_papaver_alpinum\/og\/9247116182_7cb4fb7869_b.jpg","regular_url":"https:\/\/perenual.com\/storage\/species_image\/5694_papaver_alpinum\/regular\/9247116182_7cb4fb7869_b.jpg","medium_url":"https:\/\/perenual.com\/storage\/species_image\/5694_papaver_alpinum\/medium\/9247116182_7cb4fb7869_b.jpg","small_url":"https:\/\/perenual.com\/storage\/species_image\/5694_papaver_alpinum\/small\/9247116182_7cb4fb7869_b.jpg","thumbnail":"https:\/\/perenual.com\/storage\/species_image\/5694_papaver_alpinum\/thumbnail\/9247116182_7cb4fb7869_b.jpg"}},{"id":5695,"common_name":"poppy","scientific_name":["Papaver bracteatum"],"other_name":[],"cycle":"Herbaceous Perennial","watering":"Average","sunlight":["Full sun"],"default_image":{"license":4,"license_name":"Attribution License","license_url":"https:\/\/creativecommons.org\/licenses\/by\/2.0\/","original_url":"https:\/\/perenual.com\/storage\/species_image\/5695_papaver_bracteatum\/og\/49925589141_9aa170ef82_b.jpg","regular_url":"https:\/\/perenual.com\/storage\/species_image\/5695_papaver_bracteatum\/regular\/49925589141_9aa170ef82_b.jpg","medium_url":"https:\/\/perenual.com\/storage\/species_image\/5695_papaver_bracteatum\/medium\/49925589141_9aa170ef82_b.jpg","small_url":"https:\/\/perenual.com\/storage\/species_image\/5695_papaver_bracteatum\/small\/49925589141_9aa170ef82_b.jpg","thumbnail":"https:\/\/perenual.com\/storage\/species_image\/5695_papaver_bracteatum\/thumbnail\/49925589141_9aa170ef82_b.jpg"}},{"id":5696,"common_name":"Icelandic poppy","scientific_name":["Papaver nudicaule 'Champagne Bubbles Orange'"],"other_name":[],"cycle":"Perennial","watering":"Average","sunlight":["Full sun"],"default_image":{"license":6,"license_name":"Attribution-NoDerivs License","license_url":"https:\/\/creativecommons.org\/licenses\/by-nd\/2.0\/","original_url":"https:\/\/perenual.com\/storage\/species_image\/5696_papaver_nudicaule_champagne_bubbles_orange\/og\/3337164136_5695225ecc_b.jpg"}},{"id":5697,"common_name":"Icelandic poppy","scientific_name":["Papaver nudicaule 'Champagne Bubbles Scarlet'"],"other_name":[],"cycle":"Herbaceous Perennial","watering":"Average","sunlight":["Full sun"],"default_image":{"license":5,"license_name":"Attribution-ShareAlike License","license_url":"https:\/\/creativecommons.org\/licenses\/by-sa\/2.0\/","original_url":"https:\/\/perenual.com\/storage\/species_image\/2_abies_alba_pyramidalis\/og\/49255769768_df55596553_b.jpg","regular_url":"https:\/\/perenual.com\/storage\/species_image\/2_abies_alba_pyramidalis\/regular\/49255769768_df55596553_b.jpg","medium_url":"https:\/\/perenual.com\/storage\/species_image\/2_abies_alba_pyramidalis\/medium\/49255769768_df55596553_b.jpg","small_url":"https:\/\/perenual.com\/storage\/species_image\/2_abies_alba_pyramidalis\/small\/49255769768_df55596553_b.jpg","thumbnail":"https:\/\/perenual.com\/storage\/species_image\/2_abies_alba_pyramidalis\/thumbnail\/49255769768_df55596553_b.jpg"}},{"id":5698,"common_name":"Arctic poppy","scientific_name":["Papaver nudicaule var. croceum"],"other_name":[],"cycle":"Herbaceous Perennial","watering":"Average","sunlight":["Full sun"],"default_image":{"license":45,"license_name":"Attribution-ShareAlike 3.0 Unported (CC BY-SA 3.0)","license_url":"https:\/\/creativecommons.org\/licenses\/by-sa\/3.0\/deed.en","original_url":"https:\/\/perenual.com\/storage\/species_image\/5698_papaver_nudicaule_var_croceum\/og\/1365px-Papaver_x_summer_breeze_orange_-2439.jpg","regular_url":"https:\/\/perenual.com\/storage\/species_image\/5698_papaver_nudicaule_var_croceum\/regular\/1365px-Papaver_x_summer_breeze_orange_-2439.jpg","medium_url":"https:\/\/perenual.com\/storage\/species_image\/5698_papaver_nudicaule_var_croceum\/medium\/1365px-Papaver_x_summer_breeze_orange_-2439.jpg","small_url":"https:\/\/perenual.com\/storage\/species_image\/5698_papaver_nudicaule_var_croceum\/small\/1365px-Papaver_x_summer_breeze_orange_-2439.jpg","thumbnail":"https:\/\/perenual.com\/storage\/species_image\/5698_papaver_nudicaule_var_croceum\/thumbnail\/1365px-Papaver_x_summer_breeze_orange_-2439.jpg"}},{"id":5699,"common_name":"poppy","scientific_name":["Papaver oreophilum"],"other_name":[],"cycle":"Herbaceous Perennial","watering":"Average","sunlight":["Full sun"],"default_image":{"license":45,"license_name":"Attribution-ShareAlike 3.0 Unported (CC BY-SA 3.0)","license_url":"https:\/\/creativecommons.org\/licenses\/by-sa\/3.0\/deed.en","original_url":"https:\/\/perenual.com\/storage\/species_image\/5699_papaver_oreophilum\/og\/1365px-Papaver_orientale_1.jpg","regular_url":"https:\/\/perenual.com\/storage\/species_image\/5699_papaver_oreophilum\/regular\/1365px-Papaver_orientale_1.jpg","medium_url":"https:\/\/perenual.com\/storage\/species_image\/5699_papaver_oreophilum\/medium\/1365px-Papaver_orientale_1.jpg","small_url":"https:\/\/perenual.com\/storage\/species_image\/5699_papaver_oreophilum\/small\/1365px-Papaver_orientale_1.jpg","thumbnail":"https:\/\/perenual.com\/storage\/species_image\/5699_papaver_oreophilum\/thumbnail\/1365px-Papaver_orientale_1.jpg"}},{"id":5700,"common_name":"oriental poppy","scientific_name":["Papaver orientale 'Allegro'"],"other_name":[],"cycle":"Herbaceous Perennial","watering":"Average","sunlight":["Full sun"],"default_image":{"license":5,"license_name":"Attribution-ShareAlike License","license_url":"https:\/\/creativecommons.org\/licenses\/by-sa\/2.0\/","original_url":"https:\/\/perenual.com\/storage\/species_image\/2_abies_alba_pyramidalis\/og\/49255769768_df55596553_b.jpg","regular_url":"https:\/\/perenual.com\/storage\/species_image\/2_abies_alba_pyramidalis\/regular\/49255769768_df55596553_b.jpg","medium_url":"https:\/\/perenual.com\/storage\/species_image\/2_abies_alba_pyramidalis\/medium\/49255769768_df55596553_b.jpg","small_url":"https:\/\/perenual.com\/storage\/species_image\/2_abies_alba_pyramidalis\/small\/49255769768_df55596553_b.jpg","thumbnail":"https:\/\/perenual.com\/storage\/species_image\/2_abies_alba_pyramidalis\/thumbnail\/49255769768_df55596553_b.jpg"}}],"to":5700,"per_page":30,"current_page":190,"from":5671,"last_page":200,"total":6000}